<?xml version="1.0" standalone="no"?>
<!DOCTYPE svg PUBLIC "-//W3C//DTD SVG 20010904//EN"
 "http://www.w3.org/TR/2001/REC-SVG-20010904/DTD/svg10.dtd">
<svg version="1.0" xmlns="http://www.w3.org/2000/svg"
 width="84.588637pt" height="151.177628pt" viewBox="0 0 84.588637 151.177628"
 preserveAspectRatio="xMidYMid meet">
<metadata>
Created by potrace 1.16, written by Peter Selinger 2001-2019
</metadata>
<g transform="translate(-17.851363,160.721374) scale(0.100000,-0.100000)"
fill="#000000" stroke="none">
<path fill="#000000" stroke="none" d="M593 1589 c-13 -5 -23 -15 -23 -24 0
-11 -6 -14 -25 -9 -16 4 -35 0 -51 -11 -25 -16 -26 -20 -21 -80 6 -59 4 -64
-18 -79 -36 -24 -42 -56 -15 -78 38 -31 144 -17 237 30 23 12 51 22 61 22 19
0 89 -52 186 -137 l48 -42 -23 -38 c-12 -21 -50 -74 -84 -118 -33 -44 -75
-101 -93 -127 l-33 -48 -113 0 -113 0 -2 54 c-1 51 1 54 29 66 47 19 80 65 80
109 0 89 -37 131 -115 131 -67 0 -108 -21 -129 -65 -32 -66 4 -159 65 -172 17
-3 29 -12 30 -22 1 -9 2 -36 3 -61 l1 -44 -112 -1 c-69 0 -116 -4 -123 -11
-11 -11 -16 -83 -35 -459 -3 -60 -8 -122 -11 -137 -6 -28 11 -47 27 -31 6 6
12 37 14 69 2 32 9 149 16 258 13 206 14 210 44 101 43 -153 88 -320 107 -390
26 -97 44 -135 63 -135 19 0 19 0 -11 100 -14 47 -34 119 -44 160 -10 41 -44
156 -75 254 -30 98 -54 180 -53 181 2 1 103 5 226 8 164 4 222 2 222 -6 0 -16
-87 -401 -105 -462 -18 -62 -45 -194 -45 -217 0 -23 45 -24 54 -2 3 9 6 39 6
67 0 28 7 76 15 106 8 31 35 146 59 256 73 326 61 291 138 392 73 95 158 222
158 237 0 12 -111 110 -189 167 -45 34 -49 44 -25 70 32 35 -13 80 -75 76 -20
-2 -29 6 -45 40 -23 47 -50 64 -83 52z"/>
<path fill="#ffffff" stroke="none" d="M650 1503 c0 -16 -46 -38 -101 -48 -34
-6 -37 -5 -42 22 -7 38 -1 45 37 38 28 -6 35 -3 51 21 l18 28 18 -23 c11 -13
19 -30 19 -38z"/>
<path fill="#ffffff" stroke="none" d="M680 1459 c0 -5 -21 -19 -46 -30 -57
-26 -114 -36 -114 -20 0 6 13 11 28 11 15 0 48 11 72 24 53 28 60 29 60 15z"/>
<path fill="#ffffff" stroke="none" d="M763 1453 c11 -10 -13 -33 -34 -33 -11
0 -23 -10 -28 -24 -6 -14 -26 -30 -53 -41 -48 -19 -188 -33 -188 -18 0 20 26
33 67 33 55 0 143 33 173 65 23 24 50 32 63 18z"/>
<path fill="#ffffff" stroke="none" d="M535 1170 c31 -12 58 -69 49 -105 -22
-87 -160 -83 -179 6 -17 76 52 129 130 99z"/>
</g>
</svg>
