<?xml version="1.0" standalone="no"?>
<!DOCTYPE svg PUBLIC "-//W3C//DTD SVG 20010904//EN"
 "http://www.w3.org/TR/2001/REC-SVG-20010904/DTD/svg10.dtd">
<svg version="1.0" xmlns="http://www.w3.org/2000/svg"
 width="164.664635pt" height="154.847841pt" viewBox="0 0 164.664635 154.847841"
 preserveAspectRatio="xMidYMid meet">
<metadata>
Created by potrace 1.16, written by Peter Selinger 2001-2019
</metadata>
<g transform="translate(-2.071880,161.407841) scale(0.100000,-0.100000)"
fill="#000000" stroke="none">
<path fill="#000000" stroke="none" d="M1189 1571 c-23 -23 -29 -38 -29 -71 0
-61 23 -97 71 -112 39 -11 66 -44 50 -59 -3 -4 -30 -14 -58 -24 -62 -19 -59
-8 -38 -180 8 -65 15 -120 15 -122 0 -3 -77 -43 -83 -43 -1 0 -1 15 1 34 3 27
0 37 -18 46 -12 6 -28 9 -35 6 -8 -3 -30 11 -49 30 -38 38 -65 43 -90 15 -10
-11 -24 -17 -31 -15 -17 7 -45 -23 -45 -49 0 -11 5 -35 12 -53 10 -29 9 -36
-6 -53 -23 -25 -15 -67 14 -76 21 -7 145 30 155 45 3 4 20 11 38 14 18 3 64
19 102 36 80 33 76 23 61 175 l-8 80 64 -91 c35 -50 72 -107 82 -126 l19 -35
-77 -224 c-42 -123 -76 -232 -76 -241 0 -10 7 -18 16 -18 11 0 14 -6 11 -18
-6 -17 -28 -93 -65 -222 -16 -55 -23 -66 -43 -68 -34 -5 -45 -18 -29 -36 13
-17 56 -12 76 8 7 6 32 83 58 170 25 88 47 160 48 161 2 1 36 5 75 9 85 7 77
19 93 -136 11 -111 20 -170 26 -180 3 -4 -5 -16 -17 -27 -21 -20 -19 -41 5
-41 7 0 21 9 31 20 15 16 16 30 10 87 -3 37 -10 86 -15 108 -5 22 -11 70 -14
108 l-5 67 41 0 41 0 -7 49 c-3 27 -18 82 -32 122 -14 41 -42 126 -61 189 -34
111 -35 119 -29 225 4 61 9 131 13 157 l6 48 53 -106 c56 -110 84 -216 84
-315 0 -37 4 -51 16 -56 24 -9 45 23 34 50 -5 12 -16 67 -25 122 -14 83 -26
120 -75 221 -32 66 -62 133 -66 147 -10 40 -33 48 -89 32 -62 -19 -64 -19 -74
8 -7 17 -3 28 19 52 74 79 33 184 -73 185 -41 0 -53 -5 -78 -29z"/>
<path fill="#ffffff" stroke="none" d="M1315 1535 c29 -28 32 -55 8 -83 -26
-30 -54 -34 -88 -13 -35 21 -43 62 -20 98 21 31 68 31 100 -2z"/>
<path fill="#ffffff" stroke="none" d="M1425 1238 c-6 -85 -23 -220 -29 -225
-3 -3 -63 85 -129 189 -40 63 -39 77 8 78 11 1 45 9 75 20 85 28 81 31 75 -62z"/>
<path fill="#ffffff" stroke="none" d="M989 1046 c9 -11 5 -19 -19 -40 -38
-31 -66 -33 -73 -5 -4 15 1 22 18 29 13 5 26 14 30 19 9 15 30 14 44 -3z"/>
<path fill="#ffffff" stroke="none" d="M1030 995 c0 -9 -75 -55 -90 -55 -8 1
2 10 22 20 20 11 40 24 43 30 6 10 25 14 25 5z"/>
<path fill="#ffffff" stroke="none" d="M1055 960 c-44 -46 -165 -98 -165 -71
0 6 9 11 19 11 27 0 132 57 149 81 8 11 17 18 20 15 3 -4 -7 -20 -23 -36z"/>
<path fill="#ffffff" stroke="none" d="M1420 878 c0 -7 25 -91 56 -186 31 -96
54 -175 52 -177 -9 -9 -243 -9 -243 0 0 22 120 375 127 375 4 0 8 -6 8 -12z"/>
<path fill="#000000" stroke="none" d="M248 892 l-68 -3 -37 -54 c-21 -30 -54
-80 -73 -111 l-35 -58 3 -245 c4 -237 10 -287 34 -263 5 5 10 115 11 243 l2
234 43 3 42 3 0 -185 c0 -187 5 -211 36 -185 12 10 14 40 9 189 l-5 178 42 4
c24 3 109 6 189 7 l146 1 6 -47 c3 -27 6 -111 7 -188 0 -77 4 -143 8 -147 5
-5 15 -2 23 4 13 11 14 39 10 186 -3 95 -4 177 -3 182 2 6 26 10 53 10 l49 0
1 -187 c1 -104 1 -211 0 -238 0 -58 10 -81 33 -72 14 6 15 33 10 264 l-6 258
-70 105 c-39 58 -76 108 -82 113 -10 7 -212 6 -378 -1z"/>
<path fill="#ffffff" stroke="none" d="M608 847 c17 -13 105 -147 100 -151 -1
-2 -139 -6 -306 -9 -257 -5 -303 -3 -298 8 3 8 26 46 51 84 l46 70 127 3 c70
2 159 4 197 5 39 0 76 -4 83 -10z"/>
</g>
</svg>
