<?xml version="1.0" encoding="UTF-8" standalone="no"?>
<svg
   xmlns:dc="http://purl.org/dc/elements/1.1/"
   xmlns:cc="http://creativecommons.org/ns#"
   xmlns:rdf="http://www.w3.org/1999/02/22-rdf-syntax-ns#"
   xmlns:svg="http://www.w3.org/2000/svg"
   xmlns="http://www.w3.org/2000/svg"
   xmlns:sodipodi="http://sodipodi.sourceforge.net/DTD/sodipodi-0.dtd"
   xmlns:inkscape="http://www.inkscape.org/namespaces/inkscape"
   version="1.0"
   width="62.969097pt"
   height="127.18723pt"
   viewBox="0 0 62.969097 127.18723"
   preserveAspectRatio="xMidYMid meet"
   id="svg16"
   sodipodi:docname="010-hands.svg"
   inkscape:version="1.0.2 (e86c870879, 2021-01-15)">
  <defs
     id="defs20" />
  <sodipodi:namedview
     pagecolor="#ffffff"
     bordercolor="#666666"
     borderopacity="1"
     objecttolerance="10"
     gridtolerance="10"
     guidetolerance="10"
     inkscape:pageopacity="0"
     inkscape:pageshadow="2"
     inkscape:window-width="1600"
     inkscape:window-height="836"
     id="namedview18"
     showgrid="false"
     inkscape:zoom="1.8750237"
     inkscape:cx="41.158414"
     inkscape:cy="135.81953"
     inkscape:window-x="0"
     inkscape:window-y="0"
     inkscape:window-maximized="1"
     inkscape:current-layer="svg16"
     fit-margin-top="0"
     fit-margin-left="0"
     fit-margin-right="0"
     fit-margin-bottom="0"
     inkscape:document-rotation="0" />
  <metadata
     id="metadata2">
Created by potrace 1.16, written by Peter Selinger 2001-2019
<rdf:RDF>
  <cc:Work
     rdf:about="">
    <dc:format>image/svg+xml</dc:format>
    <dc:type
       rdf:resource="http://purl.org/dc/dcmitype/StillImage" />
    <dc:title></dc:title>
  </cc:Work>
</rdf:RDF>
</metadata>
  <g
     transform="matrix(0.1,0,0,-0.1,-15.544596,132)"
     fill="#000000"
     stroke="none"
     id="g14">
    <path
       fill="#000000"
       stroke="none"
       d="m 477,1300 c -22,-17 -26,-18 -37,-5 -7,8 -26,15 -41,15 -34,0 -45,-20 -51,-90 -3,-40 -7,-45 -33,-50 -42,-9 -75,-28 -75,-44 0,-20 34,-46 74,-57 26,-7 36,-15 36,-30 0,-37 29,-77 65,-90 33,-12 35,-16 35,-56 0,-49 10,-46 -130,-43 -103,2 -108,-1 -115,-68 -3,-32 -13,-109 -21,-172 -16,-124 -34,-382 -27,-390 15,-17 31,43 36,141 3,61 14,167 24,235 l 17,124 46,-178 c 52,-200 120,-412 131,-412 21,0 16,31 -25,162 -44,139 -108,389 -122,476 l -7,42 h 69 c 38,1 138,3 222,7 177,6 165,19 127,-126 C 599,398 541,135 550,126 c 17,-17 25,4 54,129 47,211 129,543 136,554 54.83516,64.16903 -35.36505,7.19442 -86,46 l -174,-8 v 47 c 0,43 2,47 35,61 27,11 41,26 56,60 16,36 29,49 59,61 68,27 59,84 -15,98 -31,6 -34,11 -45,58 -11,53 -33,88 -55,88 -7,0 -24,-9 -38,-20 z"
       id="path4"
       sodipodi:nodetypes="ccsccscscsccccccccsccccccsccccscccccsc" />
    <path
       fill="#ffffff"
       stroke="none"
       d="m 417,1266 c 12,-22 49,-23 71,-3 25,23 38,16 47,-24 9,-40 -4,-49 -75,-49 -73,0 -83,8 -75,54 8,38 19,46 32,22 z"
       id="path6" />
    <path
       fill="#ffffff"
       stroke="none"
       d="m 540,1158 c 0,-20 -150,-23 -157,-3 -2,6 28,10 77,10 44,0 80,-3 80,-7 z"
       id="path8" />
    <path
       fill="#ffffff"
       stroke="none"
       d="m 353,1128 c 5,-18 185,-18 219,0 28,15 59,13 65,-4 7,-20 -28,-27 -158,-32 -144,-5 -219,9 -184,34 23,17 52,18 58,2 z"
       id="path10" />
    <path
       fill="#ffffff"
       stroke="none"
       d="m 550,1045 c 0,-31 -47,-65 -87,-65 -44,0 -55,6 -72,37 -20,40 -15,43 74,43 70,0 85,-3 85,-15 z"
       id="path12" />
  </g>
  <g
     transform="matrix(-0.09990793,-0.00429023,0.00429023,-0.09990793,77.120151,132.40857)"
     fill="#000000"
     stroke="none"
     id="g92">
    <path
       fill="#000000"
       stroke="none"
       d="M 320,850 C 217,852 190.41154,864.05707 205,782 202,750 192,673 184,610 168,486 150,228 157,220 c 15,-17 31,43 36,141 3,61 14,167 24,235 l 17,124 30,48 -7,42 h 69 c 8.41678,10.5326 7.48158,39.84297 -6,40 z"
       id="path90"
       sodipodi:nodetypes="ccccccccccc" />
  </g>
  <path
     style="fill:#000000;stroke-width:0.409503"
     d="m 55.420014,126.98244 c -0.844952,0.37317 -1.406965,0.25684 -2.505958,-0.51865 -0.779193,-0.54985 -1.511845,-1.12761 -1.628112,-1.28393 -0.116289,-0.1563 0.09001,-2.31458 0.458397,-4.79617 0.634992,-4.27749 0.62253,-4.45999 -0.239594,-3.51208 -1.157925,1.27312 -2.4492,1.69833 -2.957782,0.97395 -0.447457,-0.63746 2.9483,-7.24534 4.17569,-8.1255 1.004754,-0.7205 2.337534,-2.95955 2.947367,-4.95153 0.523453,-1.70984 1.016909,-2.0464 1.317084,-0.89825 0.304938,1.16646 -1.43613,4.71324 -3.197809,6.51436 -0.941391,0.96244 -2.181143,2.7791 -2.755014,4.037 -1.04441,2.28927 -0.654942,2.49758 0.801222,0.42851 0.426101,-0.60544 1.085119,-1.23566 1.46449,-1.40048 0.531553,-0.23085 0.493096,0.99806 -0.167385,5.35643 -0.471433,3.11085 -0.783007,5.75949 -0.692372,5.88587 0.42175,0.58814 0.833373,-0.5027 1.506342,-3.9915 0.401269,-2.08035 0.838451,-3.86779 0.971518,-3.97209 0.788121,-0.61765 0.796298,1.2504 0.02094,4.77248 -0.488232,2.21783 -0.794895,4.16182 -0.681474,4.31999 0.496209,0.69196 0.932341,-0.47772 1.701695,-4.56416 0.452437,-2.40307 0.91829,-4.43783 1.035222,-4.52168 0.670419,-0.48075 0.660493,1.06253 -0.02963,4.60435 -0.429321,2.20336 -0.57531,3.86635 -0.324413,3.69554 0.250567,-0.17128 0.775085,-2.05441 1.16488,-4.18575 0.477123,-2.60892 0.897278,-3.84414 1.2858,-3.78012 0.388536,0.064 0.381678,1.10493 -0.02096,3.18554 -0.32894,1.69976 -0.479362,3.11002 -0.334249,3.13393 0.572062,0.0943 1.803731,-8.08666 1.703947,-11.31784 -0.09411,-3.04731 0.904818,-7.52554 1.826023,-8.18613 0.663932,-0.4761 0.96169,0.84516 0.429373,1.90523 -0.705909,1.40568 -1.182427,4.83548 -0.988458,7.11438 0.08013,0.94131 -0.246755,3.82393 -0.726395,6.40584 l -0.87207,4.69438 -1.799479,1.24859 c -0.98975,0.68667 -2.289712,1.46495 -2.88876,1.72958 z"
     id="path166"
     sodipodi:nodetypes="csssscsscssscssscssssscssscsscsscccc" />
  <g
     transform="matrix(0.1,0,0,-0.1,-15.544596,132)"
     fill="#000000"
     stroke="none"
     id="g178">
    <path
       fill="#000000"
       stroke="none"
       d="m 477,1300 c -22,-17 -26,-18 -37,-5 -7,8 -26,15 -41,15 -34,0 -45,-20 -51,-90 -3,-40 -7,-45 -33,-50 -42,-9 -75,-28 -75,-44 0,-20 34,-46 74,-57 26,-7 36,-15 36,-30 0,-37 29,-77 65,-90 33,-12 35,-16 35,-56 0,-49 10,-46 -130,-43 -103,2 -108,-1 -115,-68 -3,-32 -13,-109 -21,-172 -16,-124 -34,-382 -27,-390 15,-17 31,43 36,141 3,61 14,167 24,235 l 17,124 46,-178 c 52,-200 120,-412 131,-412 21,0 16,31 -25,162 -44,139 -108,389 -122,476 l -7,42 h 69 c 38,1 138,3 222,7 177,6 165,19 127,-126 C 599,398 541,135 550,126 c 17,-17 25,4 54,129 47,211 129,543 136,554 54.83516,64.16903 -35.36505,7.19442 -86,46 l -174,-8 v 47 c 0,43 2,47 35,61 27,11 41,26 56,60 16,36 29,49 59,61 68,27 59,84 -15,98 -31,6 -34,11 -45,58 -11,53 -33,88 -55,88 -7,0 -24,-9 -38,-20 z"
       id="path168"
       sodipodi:nodetypes="ccsccscscsccccccccsccccccsccccscccccsc" />
    <path
       fill="#ffffff"
       stroke="none"
       d="m 417,1266 c 12,-22 49,-23 71,-3 25,23 38,16 47,-24 9,-40 -4,-49 -75,-49 -73,0 -83,8 -75,54 8,38 19,46 32,22 z"
       id="path170" />
    <path
       fill="#ffffff"
       stroke="none"
       d="m 540,1158 c 0,-20 -150,-23 -157,-3 -2,6 28,10 77,10 44,0 80,-3 80,-7 z"
       id="path172" />
    <path
       fill="#ffffff"
       stroke="none"
       d="m 353,1128 c 5,-18 185,-18 219,0 28,15 59,13 65,-4 7,-20 -28,-27 -158,-32 -144,-5 -219,9 -184,34 23,17 52,18 58,2 z"
       id="path174" />
    <path
       fill="#ffffff"
       stroke="none"
       d="m 550,1045 c 0,-31 -47,-65 -87,-65 -44,0 -55,6 -72,37 -20,40 -15,43 74,43 70,0 85,-3 85,-15 z"
       id="path176" />
  </g>
  <g
     transform="matrix(-0.09990793,-0.00429023,0.00429023,-0.09990793,77.120151,132.40857)"
     fill="#000000"
     stroke="none"
     id="g182">
    <path
       fill="#000000"
       stroke="none"
       d="M 320,850 C 217,852 190.41154,864.05707 205,782 202,750 192,673 184,610 168,486 150,228 157,220 c 15,-17 31,43 36,141 3,61 14,167 24,235 l 17,124 30,48 -7,42 h 69 c 8.41678,10.5326 7.48158,39.84297 -6,40 z"
       id="path180"
       sodipodi:nodetypes="ccccccccccc" />
  </g>
  <path
     style="fill:#000000;stroke-width:0.409503"
     d="m 55.420014,126.98244 c -0.844952,0.37317 -1.406965,0.25684 -2.505958,-0.51865 -0.779193,-0.54985 -1.511845,-1.12761 -1.628112,-1.28393 -0.116289,-0.1563 0.09001,-2.31458 0.458397,-4.79617 0.634992,-4.27749 0.62253,-4.45999 -0.239594,-3.51208 -1.157925,1.27312 -2.4492,1.69833 -2.957782,0.97395 -0.447457,-0.63746 2.9483,-7.24534 4.17569,-8.1255 1.004754,-0.7205 2.337534,-2.95955 2.947367,-4.95153 0.523453,-1.70984 1.016909,-2.0464 1.317084,-0.89825 0.304938,1.16646 -1.43613,4.71324 -3.197809,6.51436 -0.941391,0.96244 -2.181143,2.7791 -2.755014,4.037 -1.04441,2.28927 -0.654942,2.49758 0.801222,0.42851 0.426101,-0.60544 1.085119,-1.23566 1.46449,-1.40048 0.531553,-0.23085 0.493096,0.99806 -0.167385,5.35643 -0.471433,3.11085 -0.783007,5.75949 -0.692372,5.88587 0.42175,0.58814 0.833373,-0.5027 1.506342,-3.9915 0.401269,-2.08035 0.838451,-3.86779 0.971518,-3.97209 0.788121,-0.61765 0.796298,1.2504 0.02094,4.77248 -0.488232,2.21783 -0.794895,4.16182 -0.681474,4.31999 0.496209,0.69196 0.932341,-0.47772 1.701695,-4.56416 0.452437,-2.40307 0.91829,-4.43783 1.035222,-4.52168 0.670419,-0.48075 0.660493,1.06253 -0.02963,4.60435 -0.429321,2.20336 -0.57531,3.86635 -0.324413,3.69554 0.250567,-0.17128 0.775085,-2.05441 1.16488,-4.18575 0.477123,-2.60892 0.897278,-3.84414 1.2858,-3.78012 0.388536,0.064 0.381678,1.10493 -0.02096,3.18554 -0.32894,1.69976 -0.479362,3.11002 -0.334249,3.13393 0.572062,0.0943 1.803731,-8.08666 1.703947,-11.31784 -0.09411,-3.04731 0.904818,-7.52554 1.826023,-8.18613 0.663932,-0.4761 0.96169,0.84516 0.429373,1.90523 -0.705909,1.40568 -1.182427,4.83548 -0.988458,7.11438 0.08013,0.94131 -0.246755,3.82393 -0.726395,6.40584 l -0.87207,4.69438 -1.799479,1.24859 c -0.98975,0.68667 -2.289712,1.46495 -2.88876,1.72958 z"
     id="path184"
     sodipodi:nodetypes="csssscsscssscssscssssscssscsscsscccc" />
</svg>
