<?xml version="1.0" encoding="UTF-8" standalone="no"?>
<svg
   xmlns:dc="http://purl.org/dc/elements/1.1/"
   xmlns:cc="http://creativecommons.org/ns#"
   xmlns:rdf="http://www.w3.org/1999/02/22-rdf-syntax-ns#"
   xmlns:svg="http://www.w3.org/2000/svg"
   xmlns="http://www.w3.org/2000/svg"
   xmlns:sodipodi="http://sodipodi.sourceforge.net/DTD/sodipodi-0.dtd"
   xmlns:inkscape="http://www.inkscape.org/namespaces/inkscape"
   version="1.0"
   width="149.83487pt"
   height="123.51649pt"
   viewBox="0 0 149.83487 123.51649"
   preserveAspectRatio="xMidYMid meet"
   id="svg16"
   sodipodi:docname="020-w-5koma.svg"
   inkscape:version="1.0.2 (e86c870879, 2021-01-15)">
  <defs
     id="defs20" />
  <sodipodi:namedview
     pagecolor="#ffffff"
     bordercolor="#666666"
     borderopacity="1"
     objecttolerance="10"
     gridtolerance="10"
     guidetolerance="10"
     inkscape:pageopacity="0"
     inkscape:pageshadow="2"
     inkscape:window-width="1600"
     inkscape:window-height="836"
     id="namedview18"
     showgrid="false"
     inkscape:zoom="1.325842"
     inkscape:cx="95.269646"
     inkscape:cy="61.728034"
     inkscape:window-x="0"
     inkscape:window-y="0"
     inkscape:window-maximized="1"
     inkscape:current-layer="svg16"
     inkscape:document-rotation="0"
     fit-margin-top="0"
     fit-margin-left="0"
     fit-margin-right="0"
     fit-margin-bottom="0" />
  <metadata
     id="metadata2">
Created by potrace 1.16, written by Peter Selinger 2001-2019
<rdf:RDF>
  <cc:Work
     rdf:about="">
    <dc:format>image/svg+xml</dc:format>
    <dc:type
       rdf:resource="http://purl.org/dc/dcmitype/StillImage" />
    <dc:title></dc:title>
  </cc:Work>
</rdf:RDF>
</metadata>
  <g
     transform="matrix(0.1,0,0,-0.1,24.583527,133.47317)"
     fill="#000000"
     stroke="none"
     id="g14">
    <path
       fill="#000000"
       stroke="none"
       d="m 477,1300 c -22,-17 -26,-18 -37,-5 -7,8 -26,15 -41,15 -34,0 -45,-20 -51,-90 -3,-40 -7,-45 -33,-50 -42,-9 -75,-28 -75,-44 0,-20 34,-46 74,-57 26,-7 36,-15 36,-30 0,-37 29,-77 65,-90 33,-12 35,-16 35,-56 0,-49 10,-46 -130,-43 -103,2 -108,-1 -115,-68 -3,-32 -13,-109 -21,-172 -16,-124 -34,-382 -27,-390 15,-17 31,43 36,141 3,61 14,167 24,235 l 17,124 46,-178 c 52,-200 120,-412 131,-412 21,0 16,31 -25,162 -44,139 -108,389 -122,476 l -7,42 h 69 c 38,1 138,3 222,7 177,6 165,19 127,-126 C 599,398 541,135 550,126 c 17,-17 25,4 54,129 47,211 129,543 136,554 4,7 11.15706,6.93761 112.15706,12.93761 157.00004,11 194.00004,18 194.00004,40 0,2 1.1294,63.21604 0.4042,82.81387 -0.7252,19.59784 -3.3051,-2.42253 0.1036,50.0953 0.4715,31.36872 10.3492,25.40532 -4.6007,30.52002 -14.9499,5.1148 -45.98819,-20.8751 -45.98819,-20.8751 28.49999,-24.50005 28.53819,-6.52564 26.09129,-17.46587 -2.4468,-10.94024 -8.7046,-54.33609 0.7954,-63.83609 l -8.1072,-39.82244 -79.69844,-17.42969 C 866.15706,857.93761 870,863 654,855 l -174,-8 v 47 c 0,43 2,47 35,61 27,11 41,26 56,60 16,36 29,49 59,61 68,27 59,84 -15,98 -31,6 -34,11 -45,58 -11,53 -33,88 -55,88 -7,0 -24,-9 -38,-20 z"
       id="path4"
       sodipodi:nodetypes="ccsccscscsccccccccsccccccscccsscscscccccscccccsc" />
    <path
       fill="#ffffff"
       stroke="none"
       d="m 417,1266 c 12,-22 49,-23 71,-3 25,23 38,16 47,-24 9,-40 -4,-49 -75,-49 -73,0 -83,8 -75,54 8,38 19,46 32,22 z"
       id="path6" />
    <path
       fill="#ffffff"
       stroke="none"
       d="m 540,1158 c 0,-20 -150,-23 -157,-3 -2,6 28,10 77,10 44,0 80,-3 80,-7 z"
       id="path8" />
    <path
       fill="#ffffff"
       stroke="none"
       d="m 353,1128 c 5,-18 185,-18 219,0 28,15 59,13 65,-4 7,-20 -28,-27 -158,-32 -144,-5 -219,9 -184,34 23,17 52,18 58,2 z"
       id="path10" />
    <path
       fill="#ffffff"
       stroke="none"
       d="m 550,1045 c 0,-31 -47,-65 -87,-65 -44,0 -55,6 -72,37 -20,40 -15,43 74,43 70,0 85,-3 85,-15 z"
       id="path12" />
  </g>
  <path
     style="fill:#000000;stroke-width:0.41512"
     d="m 114.59357,12.802402 c -0.93603,-0.02555 -1.41859,0.299436 -2.15173,1.449074 -0.51981,0.815101 -0.98524,1.638527 -1.03427,1.829823 -0.049,0.191302 0.97344,2.136831 2.27216,4.323396 2.23862,3.768988 2.29703,3.944985 1.12415,3.386848 -1.57526,-0.749624 -2.95,-0.652521 -3.14888,0.222337 -0.17427,0.77003 5.54871,5.664725 7.03822,6.019016 1.21934,0.290027 3.32965,1.878669 4.66682,3.513189 1.14781,1.403012 1.73999,1.529223 1.5806,0.336862 -0.16194,-1.211415 -3.15755,-3.870067 -5.50202,-4.883129 -1.25281,-0.541348 -3.11362,-1.769448 -4.13513,-2.729117 -1.85905,-1.746518 -1.57369,-2.091514 0.58708,-0.709746 0.63228,0.404333 1.49259,0.742445 1.9118,0.751362 0.5873,0.01248 0.0793,-1.125706 -2.21435,-4.96077 -1.63709,-2.73734 -2.94668,-5.102466 -2.91019,-5.25585 0.16976,-0.713739 0.97491,0.151457 2.94622,3.166027 1.17547,1.797539 2.27212,3.306487 2.43702,3.353224 0.97659,0.27681 0.26678,-1.478884 -1.81338,-4.485288 -1.30985,-1.893108 -2.34419,-3.599059 -2.29854,-3.790994 0.19974,-0.839745 1.05814,0.0901 3.34943,3.628223 1.34742,2.080631 2.56598,3.810588 2.70788,3.844342 0.81359,0.193518 0.21156,-1.250471 -1.79625,-4.308141 -1.24903,-1.902157 -2.02471,-3.406197 -1.72372,-3.342314 0.30095,0.06396 1.5162,1.629619 2.70047,3.479407 1.44964,2.264274 2.31823,3.261686 2.65813,3.052407 0.33992,-0.20928 -0.0663,-1.183176 -1.24317,-2.980426 -0.96143,-1.46826 -1.6442,-2.733519 -1.51725,-2.811675 0.50047,-0.30814 4.79808,6.893627 5.94551,9.963243 1.08214,2.894942 3.73926,6.712451 4.8572,6.978361 0.80572,0.191651 0.57759,-1.162249 -0.32896,-1.952268 -1.20213,-1.047619 -2.96649,-4.0822 -3.6598,-6.294627 -0.28637,-0.913836 -1.70019,-3.492588 -3.14182,-5.730562 l -2.62115,-4.069043 -2.16772,-0.48017 c -1.19226,-0.264071 -2.71071,-0.494954 -3.37435,-0.513068 z"
     id="path122"
     sodipodi:nodetypes="csssscscsssssssscssssscssscssssscccc" />
  <g
     id="g470"
     transform="matrix(0.29725976,0,0,0.29725976,22.305528,23.56716)">
    <path
       style="fill:#000000;stroke-width:0.409503"
       d="m -19.617147,47.701072 c -0.844952,0.37317 -1.406965,0.25684 -2.505958,-0.51865 -0.779193,-0.54985 -1.511845,-1.12761 -1.628112,-1.28393 -0.116289,-0.1563 0.09001,-2.31458 0.458397,-4.79617 0.634992,-4.27749 0.62253,-4.45999 -0.239594,-3.51208 -1.157925,1.27312 -2.4492,1.69833 -2.957782,0.97395 -0.447457,-0.63746 2.9483,-7.24534 4.17569,-8.1255 1.004754,-0.7205 2.337534,-2.95955 2.947367,-4.95153 0.523453,-1.70984 1.016909,-2.0464 1.317084,-0.89825 0.304938,1.16646 -1.43613,4.71324 -3.197809,6.51436 -0.941391,0.96244 -2.181143,2.7791 -2.755014,4.037 -1.04441,2.28927 -0.654942,2.49758 0.801222,0.42851 0.426101,-0.60544 1.085119,-1.23566 1.46449,-1.40048 0.531553,-0.23085 0.493096,0.99806 -0.167385,5.35643 -0.471433,3.11085 -0.783007,5.75949 -0.692372,5.88587 0.42175,0.58814 0.833373,-0.5027 1.506342,-3.9915 0.401269,-2.08035 0.838451,-3.86779 0.971518,-3.97209 0.788121,-0.61765 0.796298,1.2504 0.02094,4.77248 -0.488232,2.21783 -0.794895,4.16182 -0.681474,4.31999 0.496209,0.69196 0.932341,-0.47772 1.701695,-4.56416 0.452437,-2.40307 0.91829,-4.43783 1.035222,-4.52168 0.670419,-0.48075 0.660493,1.06253 -0.02963,4.60435 -0.429321,2.20336 -0.57531,3.86635 -0.324413,3.69554 0.250567,-0.17128 0.775085,-2.05441 1.16488,-4.18575 0.477123,-2.60892 0.897278,-3.84414 1.2858,-3.78012 0.388536,0.064 0.381678,1.10493 -0.02096,3.18554 -0.32894,1.69976 -0.479362,3.11002 -0.334249,3.13393 0.572062,0.0943 1.803731,-8.08666 1.703947,-11.31784 -0.09411,-3.04731 0.904818,-7.52554 1.826023,-8.18613 0.663932,-0.4761 0.96169,0.84516 0.429373,1.90523 -0.705909,1.40568 -1.182427,4.83548 -0.988458,7.11438 0.08013,0.94131 -0.246755,3.82393 -0.726395,6.40584 l -0.87207,4.69438 -1.799479,1.24859 c -0.98975,0.68667 -2.289712,1.46495 -2.88876,1.72958 z"
       id="path166"
       sodipodi:nodetypes="csssscsscssscssscssssscssscsscsscccc" />
    <g
       transform="matrix(0.1,0,0,-0.1,-90.581757,52.718632)"
       fill="#000000"
       stroke="none"
       id="g178">
      <path
         fill="#000000"
         stroke="none"
         d="m 477,1300 c -22,-17 -26,-18 -37,-5 -7,8 -26,15 -41,15 -34,0 -45,-20 -51,-90 -3,-40 -7,-45 -33,-50 -42,-9 -75,-28 -75,-44 0,-20 34,-46 74,-57 26,-7 36,-15 36,-30 0,-37 29,-77 65,-90 33,-12 35,-16 35,-56 0,-49 10,-46 -130,-43 -103,2 -108,-1 -115,-68 -3,-32 -13,-109 -21,-172 -16,-124 -34,-382 -27,-390 15,-17 31,43 36,141 3,61 14,167 24,235 l 17,124 46,-178 c 52,-200 120,-412 131,-412 21,0 16,31 -25,162 -44,139 -108,389 -122,476 l -7,42 h 69 c 38,1 138,3 222,7 177,6 165,19 127,-126 C 599,398 541,135 550,126 c 17,-17 25,4 54,129 47,211 129,543 136,554 54.83516,64.16903 -35.36505,7.19442 -86,46 l -174,-8 v 47 c 0,43 2,47 35,61 27,11 41,26 56,60 16,36 29,49 59,61 68,27 59,84 -15,98 -31,6 -34,11 -45,58 -11,53 -33,88 -55,88 -7,0 -24,-9 -38,-20 z"
         id="path168"
         sodipodi:nodetypes="ccsccscscsccccccccsccccccsccccscccccsc" />
      <path
         fill="#ffffff"
         stroke="none"
         d="m 417,1266 c 12,-22 49,-23 71,-3 25,23 38,16 47,-24 9,-40 -4,-49 -75,-49 -73,0 -83,8 -75,54 8,38 19,46 32,22 z"
         id="path170" />
      <path
         fill="#ffffff"
         stroke="none"
         d="m 540,1158 c 0,-20 -150,-23 -157,-3 -2,6 28,10 77,10 44,0 80,-3 80,-7 z"
         id="path172" />
      <path
         fill="#ffffff"
         stroke="none"
         d="m 353,1128 c 5,-18 185,-18 219,0 28,15 59,13 65,-4 7,-20 -28,-27 -158,-32 -144,-5 -219,9 -184,34 23,17 52,18 58,2 z"
         id="path174" />
      <path
         fill="#ffffff"
         stroke="none"
         d="m 550,1045 c 0,-31 -47,-65 -87,-65 -44,0 -55,6 -72,37 -20,40 -15,43 74,43 70,0 85,-3 85,-15 z"
         id="path176" />
    </g>
    <g
       transform="matrix(-0.09990793,-0.00429023,0.00429023,-0.09990793,2.08299,53.127202)"
       fill="#000000"
       stroke="none"
       id="g182">
      <path
         fill="#000000"
         stroke="none"
         d="M 320,850 C 217,852 190.41154,864.05707 205,782 202,750 192,673 184,610 168,486 150,228 157,220 c 15,-17 31,43 36,141 3,61 14,167 24,235 l 17,124 30,48 -7,42 h 69 c 8.41678,10.5326 7.48158,39.84297 -6,40 z"
         id="path180"
         sodipodi:nodetypes="ccccccccccc" />
    </g>
    <path
       style="fill:#000000;stroke-width:0.409503"
       d="m -19.617147,47.701072 c -0.844952,0.37317 -1.406965,0.25684 -2.505958,-0.51865 -0.779193,-0.54985 -1.511845,-1.12761 -1.628112,-1.28393 -0.116289,-0.1563 0.09001,-2.31458 0.458397,-4.79617 0.634992,-4.27749 0.62253,-4.45999 -0.239594,-3.51208 -1.157925,1.27312 -2.4492,1.69833 -2.957782,0.97395 -0.447457,-0.63746 2.9483,-7.24534 4.17569,-8.1255 1.004754,-0.7205 2.337534,-2.95955 2.947367,-4.95153 0.523453,-1.70984 1.016909,-2.0464 1.317084,-0.89825 0.304938,1.16646 -1.43613,4.71324 -3.197809,6.51436 -0.941391,0.96244 -2.181143,2.7791 -2.755014,4.037 -1.04441,2.28927 -0.654942,2.49758 0.801222,0.42851 0.426101,-0.60544 1.085119,-1.23566 1.46449,-1.40048 0.531553,-0.23085 0.493096,0.99806 -0.167385,5.35643 -0.471433,3.11085 -0.783007,5.75949 -0.692372,5.88587 0.42175,0.58814 0.833373,-0.5027 1.506342,-3.9915 0.401269,-2.08035 0.838451,-3.86779 0.971518,-3.97209 0.788121,-0.61765 0.796298,1.2504 0.02094,4.77248 -0.488232,2.21783 -0.794895,4.16182 -0.681474,4.31999 0.496209,0.69196 0.932341,-0.47772 1.701695,-4.56416 0.452437,-2.40307 0.91829,-4.43783 1.035222,-4.52168 0.670419,-0.48075 0.660493,1.06253 -0.02963,4.60435 -0.429321,2.20336 -0.57531,3.86635 -0.324413,3.69554 0.250567,-0.17128 0.775085,-2.05441 1.16488,-4.18575 0.477123,-2.60892 0.897278,-3.84414 1.2858,-3.78012 0.388536,0.064 0.381678,1.10493 -0.02096,3.18554 -0.32894,1.69976 -0.479362,3.11002 -0.334249,3.13393 0.572062,0.0943 1.803731,-8.08666 1.703947,-11.31784 -0.09411,-3.04731 0.904818,-7.52554 1.826023,-8.18613 0.663932,-0.4761 0.96169,0.84516 0.429373,1.90523 -0.705909,1.40568 -1.182427,4.83548 -0.988458,7.11438 0.08013,0.94131 -0.246755,3.82393 -0.726395,6.40584 l -0.87207,4.69438 -1.799479,1.24859 c -0.98975,0.68667 -2.289712,1.46495 -2.88876,1.72958 z"
       id="path184"
       sodipodi:nodetypes="csssscsscssscssscssssscssscsscsscccc" />
    <g
       transform="matrix(-0.09990793,-0.00429023,0.00429023,-0.09990793,2.08299,53.127202)"
       fill="#000000"
       stroke="none"
       id="g92">
      <path
         fill="#000000"
         stroke="none"
         d="M 320,850 C 217,852 190.41154,864.05707 205,782 202,750 192,673 184,610 168,486 150,228 157,220 c 15,-17 31,43 36,141 3,61 14,167 24,235 l 17,124 30,48 -7,42 h 69 c 8.41678,10.5326 7.48158,39.84297 -6,40 z"
         id="path90"
         sodipodi:nodetypes="ccccccccccc" />
    </g>
  </g>
  <g
     transform="matrix(0.02935673,0,0,-0.02935673,16.308452,40.770295)"
     fill="#000000"
     stroke="none"
     id="g540">
    <path
       fill="#000000"
       stroke="none"
       d="m 477,1300 c -22,-17 -26,-18 -37,-5 -7,8 -26,15 -41,15 -34,0 -45,-20 -51,-90 -3,-40 -7,-45 -33,-50 -42,-9 -75,-28 -75,-44 0,-20 34,-46 74,-57 26,-7 36,-15 36,-30 0,-37 29,-77 65,-90 33,-12 35,-16 35,-56 0,-49 10,-46 -130,-43 -103,2 -108,-1 -115,-68 -3,-32 -13,-109 -21,-172 -16,-124 -34,-382 -27,-390 15,-17 31,43 36,141 3,61 14,167 24,235 l 17,124 46,-178 c 52,-200 120,-412 131,-412 21,0 16,31 -25,162 -44,139 -108,389 -122,476 l -7,42 h 69 c 38,1 138,3 222,7 177,6 165,19 127,-126 C 599,398 541,135 550,126 c 17,-17 25,4 54,129 47,211 129,543 136,554 4,7 75,16 176,22 157,11 194,18 194,40 0,4 -71,71 -157,148 -130,116 -164,141 -190,142 -18,1 -39,2 -45,3 -7,1 -14,-7 -16,-16 -3,-15 4,-18 37,-18 37,0 50,-8 143,-89 57,-49 118,-105 137,-124 l 33,-35 -53,-7 C 930,867 870,863 654,855 l -174,-8 v 47 c 0,43 2,47 35,61 27,11 41,26 56,60 16,36 29,49 59,61 68,27 59,84 -15,98 -31,6 -34,11 -45,58 -11,53 -33,88 -55,88 -7,0 -24,-9 -38,-20 z"
       id="path530" />
    <path
       fill="#ffffff"
       stroke="none"
       d="m 417,1266 c 12,-22 49,-23 71,-3 25,23 38,16 47,-24 9,-40 -4,-49 -75,-49 -73,0 -83,8 -75,54 8,38 19,46 32,22 z"
       id="path532" />
    <path
       fill="#ffffff"
       stroke="none"
       d="m 540,1158 c 0,-20 -150,-23 -157,-3 -2,6 28,10 77,10 44,0 80,-3 80,-7 z"
       id="path534" />
    <path
       fill="#ffffff"
       stroke="none"
       d="m 353,1128 c 5,-18 185,-18 219,0 28,15 59,13 65,-4 7,-20 -28,-27 -158,-32 -144,-5 -219,9 -184,34 23,17 52,18 58,2 z"
       id="path536" />
    <path
       fill="#ffffff"
       stroke="none"
       d="m 550,1045 c 0,-31 -47,-65 -87,-65 -44,0 -55,6 -72,37 -20,40 -15,43 74,43 70,0 85,-3 85,-15 z"
       id="path538" />
  </g>
  <g
     transform="matrix(0.02551537,0,0,-0.02551537,10.472551,76.810902)"
     fill="#000000"
     stroke="none"
     id="g626">
    <path
       fill="#000000"
       stroke="none"
       d="m 565,1380 c -16,-18 -20,-19 -35,-5 -21,19 -54,19 -70,0 -6,-8 -17,-36 -24,-61 -12,-49 -22,-59 -69,-69 -15,-3 -30,-12 -33,-20 -10,-25 19,-69 54,-79 23,-6 32,-15 32,-30 0,-35 38,-86 75,-102 33,-14 35,-17 35,-63 v -50 l -115,4 c -88,3 -117,1 -128,-9 -13,-13 -23,-94 -58,-463 -11,-120 -8,-166 11,-147 7,8 14,56 35,249 2,22 7,89 11,148 4,60 10,105 14,100 4,-4 15,-48 24,-98 23,-119 116,-459 130,-472 3,-3 10,-2 16,2 13,8 8,40 -27,150 -41,131 -64,224 -99,399 -7,38 -16,77 -19,87 -6,17 5,18 224,19 168,0 231,-3 231,-12 0,-15 -51,-234 -106,-452 -32,-127 -42,-182 -35,-189 7,-7 14,-7 19,-2 8,9 53,188 113,445 43,185 52,215 63,231 6,9 54,63 107,120 146,158 180,200 177,218 -3,14 -27,16 -205,17 -232,2 -253,5 -253,38 0,34 -20,89 -38,104 -22,17 -36,15 -57,-8 z"
       id="path614" />
    <path
       fill="#ffffff"
       stroke="none"
       d="m 620,1298 c 0,-25 -4,-28 -32,-29 -47,-1 -112,2 -117,6 -8,8 11,75 21,75 6,0 20,-8 30,-17 17,-16 20,-15 46,4 24,19 28,20 40,5 6,-9 12,-28 12,-44 z"
       id="path616" />
    <path
       fill="#ffffff"
       stroke="none"
       d="m 630,1229 c 0,-18 -98,-26 -147,-13 -48,13 -19,22 62,21 47,-1 85,-5 85,-8 z"
       id="path618" />
    <path
       fill="#ffffff"
       stroke="none"
       d="m 420,1206 c 0,-33 221,-35 245,-3 15,21 39,22 55,2 18,-21 8,-27 -53,-36 -78,-11 -169,-10 -229,2 -58,12 -74,22 -64,38 10,16 46,13 46,-3 z"
       id="path620" />
    <path
       fill="#ffffff"
       stroke="none"
       d="m 1060,1203 c 0,-10 -97,-121 -191,-220 l -69,-73 -117,-2 -118,-3 -2,47 c -2,45 0,48 32,64 42,20 54,33 70,81 11,31 20,40 55,51 23,8 44,22 47,31 4,9 11,19 17,23 14,10 276,10 276,1 z"
       id="path622" />
    <path
       fill="#ffffff"
       stroke="none"
       d="m 640,1118 c 0,-4 -5,-18 -11,-31 -30,-66 -143,-58 -167,12 l -11,31 95,-3 c 52,-1 94,-5 94,-9 z"
       id="path624" />
  </g>
  <g
     transform="matrix(0.03151357,0,0,-0.03151357,6.7282684,126.98299)"
     fill="#000000"
     stroke="none"
     id="g709"
     inkscape:transform-center-x="-0.56567827"
     inkscape:transform-center-y="-6.7815102">
    <path
       fill="#000000"
       stroke="none"
       d="m 593,1589 c -13,-5 -23,-15 -23,-24 0,-11 -6,-14 -25,-9 -16,4 -35,0 -51,-11 -25,-16 -26,-20 -21,-80 6,-59 4,-64 -18,-79 -36,-24 -42,-56 -15,-78 38,-31 144,-17 237,30 23,12 51,22 61,22 19,0 89,-52 186,-137 l 48,-42 -23,-38 C 937,1122 899,1069 865,1025 832,981 790,924 772,898 L 739,850 H 626 513 l -2,54 c -1,51 1,54 29,66 47,19 80,65 80,109 0,89 -37,131 -115,131 -67,0 -108,-21 -129,-65 -32,-66 4,-159 65,-172 17,-3 29,-12 30,-22 1,-9 2,-36 3,-61 l 1,-44 -112,-1 c -69,0 -116,-4 -123,-11 -11,-11 -16,-83 -35,-459 -3,-60 -8,-122 -11,-137 -6,-28 11,-47 27,-31 6,6 12,37 14,69 2,32 9,149 16,258 13,206 14,210 44,101 43,-153 88,-320 107,-390 26,-97 44,-135 63,-135 19,0 19,0 -11,100 -14,47 -34,119 -44,160 -10,41 -44,156 -75,254 -30,98 -54,180 -53,181 2,1 103,5 226,8 164,4 222,2 222,-6 0,-16 -87,-401 -105,-462 -18,-62 -45,-194 -45,-217 0,-23 45,-24 54,-2 3,9 6,39 6,67 0,28 7,76 15,106 8,31 35,146 59,256 73,326 61,291 138,392 73,95 158,222 158,237 0,12 -111,110 -189,167 -45,34 -49,44 -25,70 32,35 -13,80 -75,76 -20,-2 -29,6 -45,40 -23,47 -50,64 -83,52 z"
       id="path699" />
    <path
       fill="#ffffff"
       stroke="none"
       d="m 650,1503 c 0,-16 -46,-38 -101,-48 -34,-6 -37,-5 -42,22 -7,38 -1,45 37,38 28,-6 35,-3 51,21 l 18,28 18,-23 c 11,-13 19,-30 19,-38 z"
       id="path701" />
    <path
       fill="#ffffff"
       stroke="none"
       d="m 680,1459 c 0,-5 -21,-19 -46,-30 -57,-26 -114,-36 -114,-20 0,6 13,11 28,11 15,0 48,11 72,24 53,28 60,29 60,15 z"
       id="path703" />
    <path
       fill="#ffffff"
       stroke="none"
       d="m 763,1453 c 11,-10 -13,-33 -34,-33 -11,0 -23,-10 -28,-24 -6,-14 -26,-30 -53,-41 -48,-19 -188,-33 -188,-18 0,20 26,33 67,33 55,0 143,33 173,65 23,24 50,32 63,18 z"
       id="path705" />
    <path
       fill="#ffffff"
       stroke="none"
       d="m 535,1170 c 31,-12 58,-69 49,-105 -22,-87 -160,-83 -179,6 -17,76 52,129 130,99 z"
       id="path707" />
  </g>
  <g
     id="g504"
     transform="matrix(0.54507496,0,0,0.54507496,161.75065,43.529071)">
    <g
       id="g274"
       transform="translate(-129.8181,19.987639)">
      <g
         transform="matrix(0.1,0,0,-0.1,-18.570981,129.38797)"
         fill="#000000"
         stroke="none"
         id="g238">
        <path
           fill="#000000"
           stroke="none"
           d="m 447,1262 c -15,-16 -24,-52 -26,-98 -1,-17 -11,-22 -53,-30 -42,-7 -54,-13 -56,-30 -2,-16 6,-23 37,-34 33,-10 41,-19 46,-44 12,-59 17,-66 59,-91 40,-23 44,-29 49,-77 4,-28 4,-55 1,-59 -3,-5 -59,-9 -124,-9 -73,0 -121,-4 -125,-11 -4,-5 -11,-58 -16,-117 -5,-59 -13,-136 -18,-172 -6,-36 -13,-112 -17,-169 -7,-98 -6,-103 12,-99 16,3 20,16 26,88 14,175 31,331 37,335 4,2 19,-56 35,-128 15,-73 36,-170 47,-217 11,-47 25,-107 31,-135 12,-52 24,-75 39,-75 15,0 11,29 -26,191 -20,85 -42,183 -50,219 -8,36 -23,103 -34,150 -12,47 -21,90 -21,96 0,7 75,11 225,12 l 226,2 -6,-37 C 725,610 688,432 636,205 605,74 604,57 627,62 c 16,3 26,40 77,283 10,44 26,120 37,168 11,49 22,115 26,148 3,32 9,59 12,59 3,0 40,-68 81,-151 116,-235 121,-241 158,-170 6,11 19.75,34.25 37.375,62.875 8.8125,14.3125 18.5938,29.96875 28.8594,46.10938 C 1094.5,524.125 1105.25,540.75 1116,557 c 49.5948,13.31421 -32.396,55.31057 -73.1736,77.35895 -19,-27 44.5184,-16.17497 6.6853,-110.36493 C 1039.3108,498.59766 1023.5,481 1016,468 c -15,-27 -31,-48 -35,-48 -3,0 -46,80 -95,178 -49,97 -95,182 -104,189 -10,9 -47,11 -128,6 l -114,-6 v 62 c 0,55 3,62 23,70 38,15 75,57 82,93 5,27 15,39 41,51 19,9 34,24 34,34 0,14 -3,13 -23,-5 -32,-30 -57,-29 -57,4 0,23 3,25 30,19 17,-4 30,-2 30,3 0,11 -24,22 -49,22 -11,0 -17,9 -19,30 -1,17 -10,48 -18,70 -18,45 -41,51 -69,20 l -18,-20 -14,20 c -17,25 -45,26 -66,2 z"
           id="path214"
           sodipodi:nodetypes="cccccccccscsccccccscscscsccccccccsccssccscsccccscccscscsscccccc" />
        <path
           fill="#ffffff"
           stroke="none"
           d="m 508,1238 24,-23 15,23 c 20,29 37,28 51,-3 24,-52 19,-55 -73,-55 -81,0 -85,1 -85,22 0,19 25,58 38,58 3,0 17,-10 30,-22 z"
           id="path216" />
        <path
           fill="#ffffff"
           stroke="none"
           d="m 464,1162 c 2,-4 -4,-13 -15,-20 -16,-11 -19,-9 -19,8 0,19 24,28 34,12 z"
           id="path218" />
        <path
           fill="#ffffff"
           stroke="none"
           d="m 614,1153 c 9,-23 4,-24 -22,-4 -21,16 -22,17 -3,18 11,1 22,-5 25,-14 z"
           id="path220" />
        <path
           fill="#ffffff"
           stroke="none"
           d="m 554,1124 c 24,-9 19,-24 -6,-20 -13,3 -36,5 -53,5 -23,1 -27,4 -15,11 17,11 51,13 74,4 z"
           id="path222" />
        <path
           fill="#ffffff"
           stroke="none"
           d="m 410,1100 c -12,-22 -31,-25 -62,-9 -27,14 -7,29 40,29 30,0 32,-2 22,-20 z"
           id="path224" />
        <path
           fill="#ffffff"
           stroke="none"
           d="m 608,1043 c 6,-84 -80,-123 -147,-67 -40,33 -43,74 -6,74 14,0 25,5 25,11 0,5 -4,8 -8,5 -4,-2 -14,-1 -21,4 -29,17 0,25 76,20 l 78,-5 z"
           id="path226" />
        <path
           fill="#000000"
           stroke="none"
           d="m 495,1060 c -3,-5 1,-10 10,-10 9,0 13,5 10,10 -3,6 -8,10 -10,10 -2,0 -7,-4 -10,-10 z"
           id="path236" />
      </g>
      <rect
         style="fill:#f9f9f9;stroke-width:0.75"
         id="rect240"
         width="28.679468"
         height="2.2215538"
         x="18.824495"
         y="4.706521" />
      <rect
         style="fill:#f9f9f9;stroke-width:0.75"
         id="rect242"
         width="28.679468"
         height="2.2215538"
         x="21.087307"
         y="8.4220705" />
      <rect
         style="fill:#f9f9f9;stroke-width:0.357093"
         id="rect244"
         width="9.5121975"
         height="1.5184081"
         x="15.508054"
         y="12.380587" />
      <rect
         style="fill:#f9f9f9;stroke-width:0.357093"
         id="rect246"
         width="9.5121975"
         height="1.5184081"
         x="40.00386"
         y="13.05578" />
      <rect
         style="fill:#f9f9f9;stroke-width:0.357093"
         id="rect248"
         width="9.5121975"
         height="1.5184081"
         x="48.435452"
         y="20.375801" />
      <rect
         style="fill:#f9f9f9;stroke-width:0.357093"
         id="rect250"
         width="9.5121975"
         height="1.5184081"
         x="48.435452"
         y="20.375801" />
      <rect
         style="fill:#f9f9f9;stroke-width:0.357093"
         id="rect252"
         width="9.5121975"
         height="1.5184081"
         x="14.063251"
         y="15.404281" />
      <rect
         style="fill:#f9f9f9;stroke-width:0.357093"
         id="rect254"
         width="9.5121975"
         height="1.5184081"
         x="9.0290508"
         y="17.943993" />
      <rect
         style="fill:#f9f9f9;stroke-width:0.357093"
         id="rect256"
         width="9.5121975"
         height="1.5184081"
         x="10.618256"
         y="21.861069" />
      <rect
         style="fill:#f9f9f9;stroke-width:0.357093"
         id="rect258"
         width="9.5121975"
         height="1.5184081"
         x="-11.136014"
         y="50.866314"
         transform="rotate(-79.756458)" />
      <rect
         style="fill:#f9f9f9;stroke-width:0.357093"
         id="rect260"
         width="9.5121975"
         height="1.5184081"
         x="-23.872938"
         y="19.918333"
         transform="rotate(-79.756458)" />
      <rect
         style="fill:#f9f9f9;stroke-width:0.357093"
         id="rect262"
         width="9.5121975"
         height="1.5184081"
         x="-1.6937029"
         y="28.358156"
         transform="rotate(-79.756458)" />
      <rect
         style="fill:#f9f9f9;stroke-width:0.357093"
         id="rect264"
         width="9.5121975"
         height="1.5184081"
         x="1.0186235"
         y="38.463917"
         transform="rotate(-79.756458)" />
      <rect
         style="fill:#f9f9f9;stroke-width:0.357093"
         id="rect266"
         width="9.5121975"
         height="1.5184081"
         x="-5.7336893"
         y="40.169563"
         transform="rotate(-79.756458)" />
      <rect
         style="fill:#f9f9f9;stroke-width:0.357093"
         id="rect268"
         width="9.5121975"
         height="1.5184081"
         x="-8.0288601"
         y="29.730698"
         transform="rotate(-79.756458)" />
      <rect
         style="fill:#f9f9f9;stroke-width:0.337164"
         id="rect270"
         width="8.5079384"
         height="1.5134411"
         x="-21.138008"
         y="33.039265"
         transform="matrix(0.19882363,-0.98003529,0.98729034,0.158927,0,0)" />
      <rect
         style="fill:#f9f9f9;stroke-width:0.413588"
         id="rect272"
         width="8.7061405"
         height="2.2254498"
         x="-23.922783"
         y="40.84594"
         transform="matrix(0.28768854,-0.95772402,0.9941422,0.10808002,0,0)" />
    </g>
    <path
       style="fill:#000000;stroke-width:0.567516"
       d="m -22.756351,49.526449 c 0.31177,2.880554 0.276887,6.02213 -0.09349,8.407189 -0.325223,2.094424 -0.522049,4.066188 -0.437352,4.381702 0.0847,0.315521 0.503946,2.927614 0.931624,5.804653 0.679221,4.569228 0.668003,5.466858 -0.08876,7.095572 -1.055517,2.271683 -3.229827,4.462078 -6.516517,6.564666 -2.719928,1.740027 -3.110846,2.828169 -1.426171,3.969883 0.609247,0.412955 1.100624,0.941706 1.091915,1.175101 -0.0338,0.903655 -5.492921,7.041035 -5.975157,6.71751 -0.83112,-0.557602 -0.569571,-1.292082 1.319245,-3.704446 0.984024,-1.256787 1.794982,-2.441537 1.802135,-2.632792 0.01211,-0.323589 -4.973914,-4.66565 -6.414002,-5.585598 -0.386295,-0.246805 -1.521023,0.693692 -2.83373,2.348628 -1.946363,2.453793 -3.826226,3.557817 -3.776136,2.217703 0.02286,-0.611413 5.46586,-7.290336 6.736926,-8.266658 0.523693,-0.402263 1.148288,-1.65671 1.388024,-2.787666 0.239693,-1.130968 1.080146,-2.981821 1.867655,-4.112996 1.181874,-1.697615 0.0495,-2.721951 1.066911,-4.219457 1.290047,-1.898799 -0.453452,-2.195141 -5.102785,-3.894567 -2.605826,-0.95247 -5.040625,-2.178443 -5.410672,-2.72436 -0.988963,-1.459006 -0.74265,-3.300377 0.591127,-4.419716 1.498284,-1.257396 1.569817,-3.171215 0.169565,-4.536951 -1.387817,-1.353619 -1.314627,-3.980879 0.148741,-5.33879 0.6182,-0.573647 2.625295,-1.282915 4.460219,-1.576142 1.834925,-0.293231 3.779556,-0.641451 4.321395,-0.77383 1.026023,-0.250664 2.505156,-1.807855 2.505156,-1.807855 0,0 0.58505,-0.662667 2.371532,-1.764401 0.156982,-0.14564 0.04031,-0.989954 -0.259272,-1.876211 4.429811,-3.643185 6.180587,1.917292 6.180587,1.917292 1.561204,5.98738 0.82433,4.992343 1.381298,9.422537 z m -3.449185,21.658565 c -1.152246,1.150334 -2.505377,1.989344 -3.017137,1.870842 -0.737332,-0.170795 -0.494357,-0.664565 1.182631,-2.40357 2.140295,-2.219436 3.764054,-4.60844 3.399374,-5.001448 -0.110042,-0.118544 -1.490342,1.398007 -3.067368,3.370179 -2.872268,3.591955 -4.178445,3.730918 -3.597934,1.393167 l 1.428494,-2.781241 0.928974,-1.964526 -0.687905,-0.17541 -3.089522,5.34731 c -0.698041,1.208161 -2.357793,4.354832 -3.997833,8.862102 -0.184889,0.508149 0.408229,1.378331 1.500171,2.200927 l 1.805988,1.360484 1.184198,-1.294143 c 0.6513,-0.711764 2.133324,-1.816321 3.293381,-2.45455 1.160058,-0.63824 2.41047,-1.497025 2.778714,-1.908437 0.722235,-0.806911 5.68898,-10.279204 -0.05956,-2.677642 -1.319015,0.748623 -1.299173,-0.794142 0.299963,-2.836545 2.410512,-3.078688 2.286461,-3.474228 -0.284617,-0.907449 z m 0.744097,-25.853351 c -1.325548,-6.234383 -2.916112,-9.295524 -2.330105,-4.484434 0.179695,1.475277 0.01757,2.569451 -0.459758,3.102728 -0.592395,0.661846 -0.577656,1.381718 0.07501,3.662036 1.00984,3.528313 0.924156,6.245094 -0.359007,11.384028 -1.161368,4.651126 -2.116614,6.185673 -3.276437,6.14233 -0.409799,-0.951918 -1.318929,-1.207572 -1.469564,-1.115601 -0.150634,0.09197 -0.686428,0.227982 0.796198,2.350137 0.245628,0.35158 -1.055248,1.17406 -0.635134,1.534609 0.405527,0.34803 1.096487,-0.397223 1.371162,-0.830727 0.193544,-0.305459 0.449683,-0.722123 0.738262,-1.1557 0.288578,-0.433577 0.609594,-0.884067 0.93289,-1.257177 0.646593,-0.746219 1.302307,-1.182919 1.725876,-0.555756 0.595464,0.881652 -0.275731,3.449093 0.708885,2.06227 2.813277,-3.962437 3.788805,-13.280263 2.181732,-20.838737 z m -4.558844,2.818241 c -0.653318,-1.921576 -1.223985,-2.650806 -2.214912,-2.830336 -1.074845,-0.194743 -1.267689,-0.04516 -0.990058,0.767901 1.093129,3.201315 0.736889,7.971208 -1.122158,15.02508 -0.316607,1.201323 -0.150102,1.539175 0.917476,1.861395 1.721713,0.519672 2.194216,-0.0081 3.199546,-3.574008 1.171774,-4.156243 1.247291,-8.199448 0.210108,-11.250042 z m -5.275497,-1.707247 c -1.119111,-1.206011 -4.772357,-0.608895 -6.589164,1.077004 l -1.397897,1.297169 1.392238,1.78595 c 1.667466,2.138984 1.709387,4.561197 0.102284,5.909923 -2.444472,2.051467 -1.135114,3.817724 3.545113,4.782164 1.594763,0.328624 1.778209,0.1945 2.466667,-1.803369 1.260264,-3.657233 1.360611,-4.28488 1.325503,-8.291106 -0.02165,-2.472237 -0.328726,-4.201646 -0.844744,-4.757735 z"
       id="path456"
       sodipodi:nodetypes="ccssssccssscssscssscssssscccccccscsscccssccssscsccccscsscssacssccccssscsccsscsssssss"
       inkscape:transform-center-x="9.1531163"
       inkscape:transform-center-y="-6.345321" />
  </g>
</svg>
