<?xml version="1.0" encoding="UTF-8" standalone="no"?>
<svg
   xmlns:dc="http://purl.org/dc/elements/1.1/"
   xmlns:cc="http://creativecommons.org/ns#"
   xmlns:rdf="http://www.w3.org/1999/02/22-rdf-syntax-ns#"
   xmlns:svg="http://www.w3.org/2000/svg"
   xmlns="http://www.w3.org/2000/svg"
   xmlns:sodipodi="http://sodipodi.sourceforge.net/DTD/sodipodi-0.dtd"
   xmlns:inkscape="http://www.inkscape.org/namespaces/inkscape"
   version="1.0"
   width="127.751843pt"
   height="124.711700pt"
   viewBox="0 0 127.751843 124.711700"
   preserveAspectRatio="xMidYMid meet"
   id="svg30"
   sodipodi:docname="bk-040.svg"
   inkscape:version="1.0.2 (e86c870879, 2021-01-15)">
  <defs
     id="defs34" />
  <sodipodi:namedview
     pagecolor="#ffffff"
     bordercolor="#666666"
     borderopacity="1"
     objecttolerance="10"
     gridtolerance="10"
     guidetolerance="10"
     inkscape:pageopacity="0"
     inkscape:pageshadow="2"
     inkscape:window-width="1600"
     inkscape:window-height="836"
     id="namedview32"
     showgrid="false"
     inkscape:zoom="3.6925164"
     inkscape:cx="22.202707"
     inkscape:cy="50.642971"
     inkscape:window-x="0"
     inkscape:window-y="0"
     inkscape:window-maximized="1"
     inkscape:current-layer="svg30" />
  <metadata
     id="metadata2">
Created by potrace 1.16, written by Peter Selinger 2001-2019
<rdf:RDF>
  <cc:Work
     rdf:about="">
    <dc:format>image/svg+xml</dc:format>
    <dc:type
       rdf:resource="http://purl.org/dc/dcmitype/StillImage" />
  </cc:Work>
</rdf:RDF>
</metadata>
  <g
     transform="translate(-18.570981,129.387974) scale(0.100000,-0.100000)"
     fill="#000000"
     stroke="none"
     id="g28">
    <path
       fill="#000000"
       stroke="none"
       d="M447 1262 c-15 -16 -24 -52 -26 -98 -1 -17 -11 -22 -53 -30 -42 -7 -54 -13 -56 -30 -2 -16 6 -23 37 -34 33 -10 41 -19 46 -44 12 -59 17 -66 59 -91 40 -23 44 -29 49 -77 4 -28 4 -55 1 -59 -3 -5 -59 -9 -124 -9 -73 0 -121 -4 -125 -11 -4 -5 -11 -58 -16 -117 -5 -59 -13 -136 -18 -172 -6 -36 -13 -112 -17 -169 -7 -98 -6 -103 12 -99 16 3 20 16 26 88 14 175 31 331 37 335 4 2 19 -56 35 -128 15 -73 36 -170 47 -217 11 -47 25 -107 31 -135 12 -52 24 -75 39 -75 15 0 11 29 -26 191 -20 85 -42 183 -50 219 -8 36 -23 103 -34 150 -12 47 -21 90 -21 96 0 7 75 11 225 12 l226 2 -6 -37 c-20 -113 -57 -291 -109 -518 -31 -131 -32 -148 -9 -143 16 3 26 40 77 283 10 44 26 120 37 168 11 49 22 115 26 148 3 32 9 59 12 59 3 0 40 -68 81 -151 116 -235 121 -241 158 -170 12 22 55 93 98 158 42 65 82 128 90 139 11 19 25 22 111 26 132 7 135 9 131 71 -3 45 -6 52 -28 57 -19 5 -26 14 -31 43 -7 46 -27 84 -46 92 -8 3 -27 -2 -43 -11 -25 -15 -30 -15 -50 -1 -45 31 -82 -10 -92 -102 -2 -18 -11 -27 -32 -32 -59 -16 -86 -67 -47 -88 10 -6 37 -13 60 -17 22 -4 41 -10 41 -14 0 -4 -31 -51 -68 -106 -38 -54 -81 -120 -96 -146 -15 -27 -31 -48 -35 -48 -3 0 -46 80 -95 178 -49 97 -95 182 -104 189 -10 9 -47 11 -128 6 l-114 -6 0 62 c0 55 3 62 23 70 38 15 75 57 82 93 5 27 15 39 41 51 19 9 34 24 34 34 0 14 -3 13 -23 -5 -32 -30 -57 -29 -57 4 0 23 3 25 30 19 17 -4 30 -2 30 3 0 11 -24 22 -49 22 -11 0 -17 9 -19 30 -1 17 -10 48 -18 70 -18 45 -41 51 -69 20 l-18 -20 -14 20 c-17 25 -45 26 -66 2z"
       id="path4" />
    <path
       fill="#ffffff"
       stroke="none"
       d="M508 1238 l24 -23 15 23 c20 29 37 28 51 -3 24 -52 19 -55 -73 -55 -81 0 -85 1 -85 22 0 19 25 58 38 58 3 0 17 -10 30 -22z"
       id="path6" />
    <path
       fill="#ffffff"
       stroke="none"
       d="M464 1162 c2 -4 -4 -13 -15 -20 -16 -11 -19 -9 -19 8 0 19 24 28 34 12z"
       id="path8" />
    <path
       fill="#ffffff"
       stroke="none"
       d="M614 1153 c9 -23 4 -24 -22 -4 -21 16 -22 17 -3 18 11 1 22 -5 25 -14z"
       id="path10" />
    <path
       fill="#ffffff"
       stroke="none"
       d="M554 1124 c24 -9 19 -24 -6 -20 -13 3 -36 5 -53 5 -23 1 -27 4 -15 11 17 11 51 13 74 4z"
       id="path12" />
    <path
       fill="#ffffff"
       stroke="none"
       d="M410 1100 c-12 -22 -31 -25 -62 -9 -27 14 -7 29 40 29 30 0 32 -2 22 -20z"
       id="path14" />
    <path
       fill="#ffffff"
       stroke="none"
       d="M608 1043 c6 -84 -80 -123 -147 -67 -40 33 -43 74 -6 74 14 0 25 5 25 11 0 5 -4 8 -8 5 -4 -2 -14 -1 -21 4 -29 17 0 25 76 20 l78 -5 3 -42z"
       id="path16" />
    <path
       fill="#ffffff"
       stroke="none"
       d="M1240 925 c16 -20 39 -19 62 2 23 20 38 8 41 -33 2 -25 -2 -29 -27 -32 -17 -2 -49 -1 -73 3 -39 6 -43 9 -43 34 0 42 17 53 40 26z"
       id="path18" />
    <path
       fill="#ffffff"
       stroke="none"
       d="M1313 825 c24 1 36 -2 34 -9 -5 -15 -106 -20 -141 -6 -40 15 -23 29 26 20 24 -5 60 -7 81 -5z"
       id="path20" />
    <path
       fill="#ffffff"
       stroke="none"
       d="M1424 804 c9 -3 16 -10 16 -14 0 -23 -177 -49 -207 -31 -15 10 -10 11 27 10 82 -4 110 1 127 21 20 23 17 22 37 14z"
       id="path22" />
    <path
       fill="#ffffff"
       stroke="none"
       d="M1150 791 c0 -5 15 -12 33 -16 20 -5 26 -9 15 -12 -24 -6 -100 16 -93 27 8 12 45 13 45 1z"
       id="path24" />
    <path
       fill="#000000"
       stroke="none"
       d="M495 1060 c-3 -5 1 -10 10 -10 9 0 13 5 10 10 -3 6 -8 10 -10 10 -2 0 -7 -4 -10 -10z"
       id="path26" />
  </g>
  <rect
     style="fill:#f9f9f9;stroke-width:0.75"
     id="rect36"
     width="28.679468"
     height="2.2215538"
     x="18.824495"
     y="4.706521" />
  <rect
     style="fill:#f9f9f9;stroke-width:0.75"
     id="rect38"
     width="28.679468"
     height="2.2215538"
     x="21.087307"
     y="8.4220705" />
  <rect
     style="fill:#f9f9f9;stroke-width:0.357093"
     id="rect40"
     width="9.5121975"
     height="1.5184081"
     x="15.508054"
     y="12.380587" />
  <rect
     style="fill:#f9f9f9;stroke-width:0.357093"
     id="rect42"
     width="9.5121975"
     height="1.5184081"
     x="40.00386"
     y="13.05578" />
  <rect
     style="fill:#f9f9f9;stroke-width:0.357093"
     id="rect44"
     width="9.5121975"
     height="1.5184081"
     x="48.435452"
     y="20.375801" />
  <rect
     style="fill:#f9f9f9;stroke-width:0.357093"
     id="rect46"
     width="9.5121975"
     height="1.5184081"
     x="48.435452"
     y="20.375801" />
  <rect
     style="fill:#f9f9f9;stroke-width:0.357093"
     id="rect48"
     width="9.5121975"
     height="1.5184081"
     x="14.063251"
     y="15.404281" />
  <rect
     style="fill:#f9f9f9;stroke-width:0.357093"
     id="rect50"
     width="9.5121975"
     height="1.5184081"
     x="9.0290508"
     y="17.943993" />
  <rect
     style="fill:#f9f9f9;stroke-width:0.357093"
     id="rect52"
     width="9.5121975"
     height="1.5184081"
     x="10.618256"
     y="21.861069" />
  <rect
     style="fill:#f9f9f9;stroke-width:0.357093"
     id="rect54"
     width="9.5121975"
     height="1.5184081"
     x="-11.136014"
     y="50.866314"
     transform="rotate(-79.756458)" />
  <rect
     style="fill:#f9f9f9;stroke-width:0.357093"
     id="rect56"
     width="9.5121975"
     height="1.5184081"
     x="-23.872938"
     y="19.918333"
     transform="rotate(-79.756458)" />
  <rect
     style="fill:#f9f9f9;stroke-width:0.357093"
     id="rect58"
     width="9.5121975"
     height="1.5184081"
     x="-1.6937029"
     y="28.358156"
     transform="rotate(-79.756458)" />
  <rect
     style="fill:#f9f9f9;stroke-width:0.357093"
     id="rect60"
     width="9.5121975"
     height="1.5184081"
     x="1.0186235"
     y="38.463917"
     transform="rotate(-79.756458)" />
  <rect
     style="fill:#f9f9f9;stroke-width:0.357093"
     id="rect62"
     width="9.5121975"
     height="1.5184081"
     x="-5.7336893"
     y="40.169563"
     transform="rotate(-79.756458)" />
  <rect
     style="fill:#f9f9f9;stroke-width:0.357093"
     id="rect64"
     width="9.5121975"
     height="1.5184081"
     x="-8.0288601"
     y="29.730698"
     transform="rotate(-79.756458)" />
  <rect
     style="fill:#f9f9f9;stroke-width:0.337164"
     id="rect66"
     width="8.5079384"
     height="1.5134411"
     x="-21.138008"
     y="33.039265"
     transform="matrix(0.19882363,-0.98003529,0.98729034,0.158927,0,0)" />
  <rect
     style="fill:#f9f9f9;stroke-width:0.413588"
     id="rect68"
     width="8.7061405"
     height="2.2254498"
     x="-23.922783"
     y="40.84594"
     transform="matrix(0.28768854,-0.95772402,0.9941422,0.10808002,0,0)" />
</svg>
