<?xml version="1.0" encoding="UTF-8" standalone="no"?>
<svg
   xmlns:dc="http://purl.org/dc/elements/1.1/"
   xmlns:cc="http://creativecommons.org/ns#"
   xmlns:rdf="http://www.w3.org/1999/02/22-rdf-syntax-ns#"
   xmlns:svg="http://www.w3.org/2000/svg"
   xmlns="http://www.w3.org/2000/svg"
   xmlns:sodipodi="http://sodipodi.sourceforge.net/DTD/sodipodi-0.dtd"
   xmlns:inkscape="http://www.inkscape.org/namespaces/inkscape"
   version="1.0"
   width="111.020930pt"
   height="82.800000pt"
   viewBox="0 0 111.020930 82.800000"
   preserveAspectRatio="xMidYMid meet"
   id="svg52"
   sodipodi:docname="005.svg"
   inkscape:version="0.92.5 (2060ec1f9f, 2020-04-08)">
  <defs
     id="defs56" />
  <sodipodi:namedview
     pagecolor="#ffffff"
     bordercolor="#666666"
     borderopacity="1"
     objecttolerance="10"
     gridtolerance="10"
     guidetolerance="10"
     inkscape:pageopacity="0"
     inkscape:pageshadow="2"
     inkscape:window-width="1597"
     inkscape:window-height="825"
     id="namedview54"
     showgrid="false"
     inkscape:zoom="3.0231376"
     inkscape:cx="52.612256"
     inkscape:cy="65.038589"
     inkscape:window-x="0"
     inkscape:window-y="34"
     inkscape:window-maximized="0"
     inkscape:current-layer="svg52" />
  <metadata
     id="metadata2">
Created by potrace 1.13, written by Peter Selinger 2001-2015
<rdf:RDF>
  <cc:Work
     rdf:about="">
    <dc:format>image/svg+xml</dc:format>
    <dc:type
       rdf:resource="http://purl.org/dc/dcmitype/StillImage" />
    <dc:title></dc:title>
  </cc:Work>
</rdf:RDF>
</metadata>
  <path
     style="fill:#000000;stroke:none;stroke-width:0.005534"
     inkscape:connector-curvature="0"
     id="path4"
     d="m 13.409987,1.533839 c -0.0166,0.049806 0.01107,0.127282 0.07194,0.188156 0.121748,0.116214 0.769226,0.298836 1.361364,0.392914 0.22136,0.033204 0.592138,0.11068 0.819032,0.171554 0.464856,0.121748 1.095732,0.237962 2.62865,0.486992 0.58107,0.094078 1.361364,0.22136 1.74321,0.282234 0.77476,0.121748 1.43884,0.24903 1.68787,0.320972 0.182622,0.05534 0.232428,0.060874 2.01991,0.420584 0.686216,0.13835 1.571656,0.326506 1.96457,0.420584 0.398448,0.094078 0.929712,0.210292 1.18981,0.271166 0.260098,0.05534 0.929712,0.199224 1.49418,0.326506 0.564468,0.121748 1.610394,0.337574 2.32428,0.475924 1.698938,0.33204 2.429426,0.49806 3.027098,0.669614 0.265632,0.077476 0.625342,0.177088 0.791362,0.22136 0.730488,0.188156 1.140004,0.320972 1.223014,0.392914 0.07194,0.060874 0.08854,0.154952 0.07194,0.448254 -0.05534,0.929712 -0.24903,4.504676 -0.326506,5.932448 -0.07748,1.516316 -0.127282,2.634184 -0.24903,5.39565 -0.02767,0.697284 -0.07748,1.693404 -0.11068,2.2136 -0.05534,0.929712 -0.08854,1.676802 -0.24903,5.14662 -0.04427,0.973984 -0.105146,2.26894 -0.13835,2.87768 -0.02767,0.60874 -0.06641,1.394568 -0.08301,1.74321 -0.0166,0.348642 -0.05534,1.1068 -0.08301,1.68787 -0.0332,0.575536 -0.09408,1.90923 -0.13835,2.96069 -0.04427,1.05146 -0.09408,2.014376 -0.11068,2.141658 -0.03874,0.254564 -0.01107,0.226894 -1.24515,1.593792 -0.44272,0.492526 -1.250684,1.389034 -1.793016,1.997774 -0.547866,0.603206 -1.13447,1.250684 -1.30049,1.433306 -0.431652,0.464856 -1.128936,1.239616 -1.306024,1.449908 -0.08301,0.09961 -0.16602,0.182622 -0.188156,0.182622 -0.0332,0 -0.09961,-1.532918 -0.199224,-4.86992 -0.01107,-0.44272 -0.04981,-1.54952 -0.08301,-2.46263 -0.02767,-0.91311 -0.09408,-3.165448 -0.13835,-5.00827 -0.04427,-1.842822 -0.09408,-3.835062 -0.11068,-4.4272 -0.01107,-0.592138 -0.03874,-1.864958 -0.05534,-2.82234 -0.0166,-0.957382 -0.04427,-2.003308 -0.05534,-2.32428 -0.0166,-0.320972 -0.04427,-1.787482 -0.06087,-3.253992 l -0.02767,-2.678456 -0.160486,-0.481458 c -0.08854,-0.265632 -0.309904,-0.791362 -0.486992,-1.173208 -0.177088,-0.376312 -0.354176,-0.74709 -0.38738,-0.824566 -0.260098,-0.570002 -0.99612,-1.698938 -1.32816,-2.042046 -1.145538,-1.18981 -3.480886,-1.71554 -5.572738,-1.261752 -1.654666,0.35971 -1.997774,0.464856 -2.82234,0.902042 -1.566122,0.819032 -3.193118,2.030978 -3.746518,2.778068 -0.204758,0.2767 -0.708352,1.267286 -0.708352,1.389034 0,0.02767 -0.08854,0.260098 -0.199224,0.514662 -0.105146,0.254564 -0.22136,0.597672 -0.24903,0.763692 -0.05534,0.298836 -0.06641,1.200878 -0.02214,1.74321 0.02767,0.354176 0.06087,0.979518 0.19369,3.79079 0.06087,1.261752 0.121748,2.51797 0.13835,2.79467 0.0166,0.271166 0.05534,1.034858 0.08301,1.68787 0.07748,1.710006 0.154952,3.3204 0.22136,4.39953 0.02767,0.514662 0.07748,1.449908 0.11068,2.07525 0.116214,2.29661 0.188156,3.574964 0.354176,6.41944 0.04981,0.74709 0.11068,1.82622 0.143884,2.40729 0.09408,1.638064 0.16602,2.800204 0.19369,3.07137 0.01107,0.13835 0.0332,0.547866 0.05534,0.91311 0.0166,0.365244 0.04427,0.852236 0.05534,1.07913 0.0166,0.226894 0.03874,0.63641 0.05534,0.91311 0.105146,1.859424 0.154952,2.589912 0.2767,4.03982 0.0166,0.182622 0.03874,0.5534 0.05534,0.8301 0.01107,0.271166 0.03874,0.63641 0.05534,0.80243 0.03874,0.398448 0.08854,1.05146 0.11068,1.46651 0.06641,1.16214 0.260098,3.602634 0.309904,3.918072 l 0.06087,0.376312 -0.271166,0.315438 c -0.226894,0.271166 -1.488646,1.676802 -2.113988,2.363018 -0.11068,0.121748 -0.376312,0.420584 -0.586604,0.66408 -0.215826,0.243496 -0.492526,0.5534 -0.619808,0.69175 -0.127282,0.13835 -0.293302,0.320972 -0.376312,0.41505 -0.298836,0.343108 -0.785828,0.879906 -1.040392,1.156606 -0.143884,0.154952 -0.354176,0.398448 -0.47039,0.542332 -0.11068,0.143884 -0.260098,0.287768 -0.326506,0.326506 -0.071942,0.03874 -0.127282,0.09408 -0.127282,0.127282 -0.00553,0.11068 -0.437186,0.542332 -0.503594,0.49806 -0.038738,-0.02214 -0.049806,-0.0166 -0.033204,0.0166 0.049806,0.07748 -0.199224,0.392914 -0.74709,0.96845 -0.08301,0.08301 -0.177088,0.204758 -0.210292,0.265632 -0.033204,0.06087 -0.08301,0.09961 -0.116214,0.08301 -0.02767,-0.02214 -0.044272,-0.01107 -0.038738,0.0166 0.022136,0.06641 -0.702818,0.924178 -0.77476,0.924178 -0.088544,0.0055 -0.2767,0.16602 -0.254564,0.215826 0.02767,0.07194 -0.232428,0.365244 -0.320972,0.365244 -0.033204,0 -0.044272,0.0166 -0.02767,0.03874 0.05534,0.05534 -0.077476,0.188156 -0.149418,0.143884 -0.033204,-0.0166 -0.044272,-0.0166 -0.022136,0.01107 0.060874,0.06087 -0.066408,0.199224 -0.13835,0.154952 -0.033204,-0.0166 -0.038738,-0.0055 -0.016602,0.02767 0.022136,0.03874 -0.038738,0.149418 -0.143884,0.260098 -0.099612,0.105146 -0.215826,0.232428 -0.260098,0.282234 -0.038738,0.04981 -0.121748,0.07748 -0.177088,0.06087 -0.088544,-0.02214 -0.094078,-0.01107 -0.038738,0.08854 0.05534,0.105146 0.049806,0.11068 -0.022136,0.04981 -0.071942,-0.05534 -0.099612,-0.04981 -0.154952,0.0166 -0.060874,0.07194 -0.060874,0.08854 0,0.07194 0.038738,-0.01107 0.077476,0.01107 0.094078,0.04981 0.016602,0.03874 -0.02767,0.05534 -0.121748,0.04981 -0.077476,-0.01107 -0.154952,0.0055 -0.177088,0.03874 -0.016602,0.0332 -0.00553,0.03874 0.02767,0.0166 0.11068,-0.06641 0.071942,0.121748 -0.038738,0.199224 -0.05534,0.03874 -0.105146,0.09408 -0.116214,0.127282 -0.00553,0.02767 -0.033204,0.04981 -0.060874,0.03874 -0.02767,-0.0055 -0.044272,0.0055 -0.044272,0.02767 0.016602,0.116214 -0.011068,0.188156 -0.060874,0.154952 -0.033204,-0.02214 -0.038738,-0.06087 -0.022136,-0.09408 0.022136,-0.0332 0.011068,-0.04427 -0.022136,-0.02214 -0.033204,0.0166 -0.049806,0.08854 -0.038738,0.160486 0.022136,0.11068 0.016602,0.116214 -0.049806,0.02214 -0.066408,-0.08854 -0.077476,-0.08854 -0.11068,-0.01107 -0.016602,0.04981 -0.011068,0.07194 0.022136,0.05534 0.033204,-0.0166 0.05534,0.0055 0.05534,0.04981 0,0.08854 -0.182622,0.215826 -0.237962,0.16602 -0.016602,-0.0166 -0.060874,0.02214 -0.094078,0.08854 -0.033204,0.06641 -0.049806,0.132816 -0.033204,0.149418 0.016602,0.0166 0.05534,-0.02767 0.08301,-0.09961 0.033204,-0.08854 0.05534,-0.09961 0.05534,-0.03874 0.00553,0.04981 -0.071942,0.154952 -0.160486,0.232428 -0.094078,0.07748 -0.177088,0.160486 -0.182622,0.182622 -0.00553,0.02214 -0.044272,0.04427 -0.08301,0.04981 -0.105146,0.0166 -0.398448,0.348642 -0.337574,0.38738 0.02767,0.0166 0.038738,0.05534 0.016602,0.08301 -0.016602,0.02767 -0.05534,0.0332 -0.088544,0.0166 -0.033204,-0.02214 -0.044272,-0.01107 -0.02767,0.0166 0.022136,0.0332 0,0.08854 -0.038738,0.121748 -0.05534,0.04427 -0.088544,0.04981 -0.116214,0.0055 -0.044272,-0.06641 -0.13835,-0.02214 -0.13835,0.07194 0,0.04427 0.016602,0.04427 0.049806,-0.01107 0.038738,-0.05534 0.05534,-0.05534 0.088544,-0.0055 0.05534,0.08301 -0.071942,0.16602 -0.188156,0.121748 -0.071942,-0.02767 -0.077476,-0.0166 -0.022136,0.05534 0.077476,0.08854 0.044272,0.154952 -0.077476,0.154952 -0.044272,0 -0.060874,-0.02767 -0.038738,-0.06641 0.02767,-0.03874 0.016602,-0.04427 -0.02767,-0.02214 -0.038738,0.02767 -0.05534,0.07748 -0.038738,0.121748 0.016602,0.04427 0.00553,0.07194 -0.02767,0.06087 -0.033204,-0.0055 -0.088544,0.03874 -0.121748,0.09961 -0.038738,0.06087 -0.088544,0.127282 -0.121748,0.149418 -0.02767,0.02214 -0.05534,0.08301 -0.05534,0.13835 -0.00553,0.05534 -0.033204,0.09408 -0.066408,0.08854 -0.033204,-0.0055 -0.105146,0.03874 -0.160486,0.105146 -0.060874,0.06641 -0.077476,0.09961 -0.038738,0.08301 0.044272,-0.02767 0.044272,-0.0055 0,0.09408 -0.044272,0.08854 -0.077476,0.116214 -0.105146,0.07194 -0.022136,-0.03874 -0.044272,0.05534 -0.044272,0.204758 v 0.271166 l 0.116214,-0.105146 c 0.066408,-0.05534 0.769226,-0.824566 1.566122,-1.710006 0.791362,-0.879906 1.593792,-1.765346 1.781948,-1.96457 0.182622,-0.199224 0.641944,-0.708352 1.018256,-1.13447 0.376312,-0.426118 0.752624,-0.841168 0.841168,-0.924178 0.08301,-0.08301 0.154952,-0.16602 0.154952,-0.19369 0,-0.02214 0.060874,-0.105146 0.13835,-0.182622 0.41505,-0.426118 0.702818,-0.74709 0.752624,-0.841168 0.02767,-0.05534 0.077476,-0.08854 0.11068,-0.07194 0.02767,0.02214 0.044272,0.01107 0.038738,-0.01107 -0.016602,-0.05534 0.570002,-0.736022 0.94078,-1.084664 0.127282,-0.121748 0.232428,-0.254564 0.232428,-0.298836 0,-0.04427 0.02767,-0.06087 0.05534,-0.04427 0.033204,0.0166 0.05534,0 0.05534,-0.03874 0,-0.03874 0.049806,-0.105146 0.11068,-0.143884 0.060874,-0.03874 0.11068,-0.09961 0.11068,-0.13835 0,-0.04427 0.060874,-0.11068 0.13835,-0.149418 0.071942,-0.03874 0.121748,-0.09408 0.105146,-0.121748 -0.016602,-0.02214 0.016602,-0.04427 0.071942,-0.04981 0.05534,0 0.071942,-0.0166 0.038738,-0.02767 -0.077476,-0.0332 0.337574,-0.492526 0.437186,-0.492526 0.03874,0 0.06641,-0.02767 0.06641,-0.05534 0,-0.08854 0.171554,-0.30437 0.210292,-0.265632 0.02214,0.0166 0.03874,0 0.03874,-0.04427 0,-0.116214 0.5534,-0.71942 0.619808,-0.680682 0.0332,0.02214 0.04427,0.01107 0.02214,-0.02214 -0.0332,-0.05534 0.204758,-0.354176 0.592138,-0.736022 0.11068,-0.116214 0.204758,-0.237962 0.204758,-0.271166 0,-0.0332 0.02767,-0.04427 0.05534,-0.02767 0.0332,0.0166 0.05534,0 0.05534,-0.03874 0,-0.03874 0.121748,-0.199224 0.265632,-0.348642 0.143884,-0.154952 0.531264,-0.586604 0.863304,-0.96845 0.33204,-0.381846 0.630876,-0.71942 0.66408,-0.74709 0.0332,-0.0332 0.22136,-0.243496 0.420584,-0.47039 0.199224,-0.226894 0.420584,-0.475924 0.49806,-0.5534 0.07748,-0.08301 0.226894,-0.243496 0.33204,-0.365244 0.105146,-0.127282 0.354176,-0.409516 0.5534,-0.63641 0.326506,-0.365244 0.536798,-0.603206 1.239616,-1.377966 0.127282,-0.13835 0.503594,-0.564468 0.835634,-0.94078 0.741556,-0.841168 0.63641,-0.724954 1.117868,-1.250684 0.392914,-0.437186 1.1068,-1.239616 1.787482,-2.014376 0.199224,-0.226894 0.514662,-0.575536 0.697284,-0.77476 0.188156,-0.199224 0.448254,-0.486992 0.575536,-0.63641 0.132816,-0.154952 0.38738,-0.44272 0.575536,-0.641944 0.182622,-0.204758 0.486992,-0.542332 0.669614,-0.74709 0.182622,-0.204758 0.370778,-0.41505 0.41505,-0.464856 0.04427,-0.04427 0.271166,-0.298836 0.49806,-0.5534 0.226894,-0.260098 0.426118,-0.481458 0.44272,-0.49806 0.105146,-0.105146 0.763692,-0.8301 1.13447,-1.239616 0.243496,-0.2767 0.481458,-0.536798 0.52573,-0.586604 0.04427,-0.04427 0.315438,-0.348642 0.603206,-0.66408 0.287768,-0.320972 0.71942,-0.791362 0.951848,-1.05146 0.520196,-0.570002 1.566122,-1.737676 1.759812,-1.96457 0.07748,-0.08854 0.33204,-0.365244 0.558934,-0.60874 0.392914,-0.420584 1.05146,-1.145538 1.527384,-1.682336 0.116214,-0.13835 0.309904,-0.348642 0.431652,-0.47039 0.116214,-0.127282 0.403982,-0.437186 0.63641,-0.697284 0.448254,-0.49806 1.30049,-1.405636 1.593792,-1.693404 0.11068,-0.11068 0.254564,-0.188156 0.403982,-0.210292 0.121748,-0.0166 2.374086,-0.02214 4.997202,-0.0055 2.623116,0.01107 7.736532,0.03874 11.355768,0.05534 3.62477,0.0166 8.489156,0.04427 10.81897,0.05534 2.329814,0.01107 6.950704,0.03874 10.26557,0.05534 3.3204,0.0166 7.066918,0.03874 8.32867,0.05534 3.884868,0.04427 7.94129,0.09408 10.40392,0.132816 1.294956,0.0166 2.418358,0.02214 2.501368,0.01107 0.08301,-0.01107 0.154952,-0.06087 0.171554,-0.121748 0.02214,-0.08301 -0.0166,-0.116214 -0.171554,-0.154952 -0.531264,-0.132816 -0.5534,-0.132816 -16.862098,-0.19369 -4.930794,-0.02214 -9.524014,-0.04427 -10.21023,-0.06087 -0.686216,-0.01107 -4.272248,-0.03874 -7.96896,-0.05534 -3.696712,-0.0166 -7.980028,-0.03874 -9.51848,-0.05534 -1.538452,-0.0166 -5.2573,-0.03874 -8.27333,-0.05534 -3.010496,-0.0166 -5.545068,-0.04427 -5.633612,-0.06087 l -0.149418,-0.0332 0.02767,-0.448254 c 0.0166,-0.24903 0.05534,-1.07913 0.08301,-1.837288 0.0332,-0.763692 0.07748,-1.793016 0.11068,-2.29661 0.02767,-0.503594 0.07748,-1.571656 0.11068,-2.37962 0.0332,-0.807964 0.09961,-2.191464 0.13835,-3.07137 0.04427,-0.88544 0.121748,-2.451562 0.16602,-3.48642 0.04981,-1.034858 0.11068,-2.318746 0.13835,-2.85001 0.0332,-0.531264 0.127282,-2.451562 0.22136,-4.26118 0.08854,-1.809618 0.177088,-3.503022 0.19369,-3.76312 0.02214,-0.420584 0.143884,-2.429426 0.22136,-3.8738 0.13835,-2.385154 0.13835,-2.346416 0.04981,-2.479232 -0.04981,-0.071942 -0.07748,-0.13835 -0.06641,-0.149418 0.01107,-0.011068 1.997774,-0.038738 4.416132,-0.060874 2.418358,-0.022136 4.726036,-0.044272 5.11895,-0.049806 6.978374,-0.105146 28.123788,-0.143884 36.13702,-0.066408 4.393996,0.038738 5.28497,0.049806 8.46702,0.121748 0.824566,0.016602 2.10292,0.044272 2.85001,0.05534 0.74709,0.016602 1.654666,0.038738 2.01991,0.05534 0.365244,0.016602 1.322626,0.05534 2.13059,0.088544 1.510782,0.05534 1.809618,0.071942 2.711653,0.143884 0.28777,0.022136 0.54787,0.033204 0.58108,0.022136 0.0277,-0.00553 0.19922,0.011068 0.38737,0.044272 0.18263,0.033204 0.59214,0.060874 0.91312,0.066408 0.32097,0 0.84116,0.02767 1.16214,0.05534 0.32097,0.02767 0.90757,0.066408 1.30048,0.077476 1.14001,0.044272 1.51632,0.071942 1.57719,0.11068 0.0277,0.016602 0.0553,0.00553 0.0553,-0.022136 0,-0.033204 0.0332,-0.060874 0.072,-0.060874 0.0443,0 0.13281,-0.049806 0.20476,-0.11068 0.10514,-0.088544 0.11621,-0.121748 0.0553,-0.19369 -0.0387,-0.044272 -0.12729,-0.08301 -0.19923,-0.08301 -0.0664,0 -0.14388,-0.02767 -0.16049,-0.05534 -0.0277,-0.044272 -0.0609,-0.038738 -0.11621,0.00553 -0.0553,0.044272 -0.23796,0.049806 -0.64194,0.022136 -0.31544,-0.022136 -0.58661,-0.049806 -0.60874,-0.060874 -0.0553,-0.038738 -0.66962,-0.077476 -1.62147,-0.105146 -0.79136,-0.022136 -1.27281,-0.044272 -2.46262,-0.121748 -0.28777,-0.016602 -0.691753,-0.033204 -0.902045,-0.038738 -0.204758,0 -0.370778,-0.016602 -0.370778,-0.033204 0,-0.016602 -0.315438,-0.02767 -0.708352,-0.022136 -0.38738,0 -1.18981,-0.016602 -1.781948,-0.038738 C 96.143287,6.066185 94.947943,6.032981 94.079105,6.016379 93.210267,5.999777 91.954049,5.972107 91.284435,5.955505 89.995013,5.927835 87.659665,5.894631 83.619845,5.839291 80.183231,5.789485 59.558013,5.783951 54.538675,5.822689 c -2.280008,0.022136 -5.86604,0.049806 -7.96896,0.071942 -2.097386,0.016602 -5.074678,0.033204 -6.61313,0.038738 -1.538452,0.00553 -3.115642,0.02767 -3.503022,0.049806 C 35.850357,6.016379 35.684337,6.005311 35.402103,5.922301 33.415397,5.352299 32.662773,5.164143 31.107719,4.854239 30.117133,4.655015 28.943925,4.417053 28.501205,4.322975 c -0.44272,-0.094078 -0.91311,-0.19369 -1.05146,-0.22136 -0.13835,-0.02767 -0.586604,-0.127282 -0.99612,-0.226894 -1.400102,-0.33204 -2.329814,-0.531264 -3.298264,-0.713886 -0.30437,-0.05534 -0.71942,-0.13835 -0.91311,-0.188156 -0.713886,-0.160486 -1.765346,-0.35971 -2.844476,-0.52573 -1.9369,-0.30437 -2.888748,-0.47039 -3.43108,-0.614274 -0.409516,-0.11068 -0.94078,-0.210292 -1.35583,-0.260098 -0.13835,-0.016602 -0.293302,-0.049806 -0.343108,-0.077476 -0.04981,-0.02767 -0.254564,-0.049806 -0.459322,-0.049806 -0.282234,0 -0.370778,0.022136 -0.398448,0.088544 z m 9.286052,9.014886 c 0.680682,0.09961 1.13447,0.254564 1.654666,0.564468 0.464856,0.2767 0.658546,0.437186 0.946314,0.791362 0.204758,0.254564 0.902042,1.389034 0.96845,1.582724 0.02214,0.05534 0.160486,0.365244 0.315438,0.686216 0.69175,1.477578 0.702818,1.532918 0.730488,3.591566 0.01107,0.929712 0.03874,2.13059 0.05534,2.661854 0.0166,0.531264 0.05534,2.18593 0.08301,3.68011 0.02767,1.488646 0.06641,3.18205 0.08301,3.76312 0.0166,0.575536 0.04427,1.870492 0.06087,2.87768 0.0166,1.001654 0.04427,1.837288 0.04981,1.85389 0.01107,0.0166 0.03874,1.173208 0.06087,2.57331 0.02214,1.400102 0.04427,2.68399 0.04981,2.85001 0.0055,0.16602 0.03874,1.510782 0.07748,2.98836 0.04427,1.649132 0.09408,2.733796 0.127282,2.805738 0.0332,0.06641 0.121748,0.143884 0.19369,0.16602 l 0.132816,0.04427 -0.116214,0.154952 c -0.06641,0.08301 -0.149418,0.149418 -0.188156,0.149418 -0.03874,0 -0.09961,0.05534 -0.127282,0.121748 -0.0332,0.07194 -0.182622,0.265632 -0.33204,0.431652 -0.326506,0.376312 -1.361364,1.510782 -1.400102,1.54952 -0.0166,0.0166 -0.724954,0.796896 -1.57719,1.74321 -0.846702,0.94078 -1.643598,1.82622 -1.77088,1.96457 -0.132816,0.13835 -0.509128,0.547866 -0.835634,0.918644 -0.503594,0.558934 -0.985052,1.084664 -2.18593,2.40729 -0.07194,0.07748 -0.282234,0.315438 -0.464856,0.520196 -0.182622,0.210292 -0.509128,0.570002 -0.71942,0.796896 -0.215826,0.232428 -0.564468,0.619808 -0.77476,0.863304 -0.354176,0.403982 -1.85389,2.080784 -1.99224,2.219134 -0.02767,0.0332 -0.204758,0.226894 -0.38738,0.437186 l -0.33204,0.376312 -0.03874,-0.271166 c -0.02214,-0.149418 -0.07748,-0.780294 -0.127282,-1.405636 -0.04427,-0.625342 -0.11068,-1.372432 -0.13835,-1.6602 -0.06087,-0.614274 -0.116214,-1.394568 -0.199224,-2.79467 -0.04427,-0.841168 -0.05534,-0.962916 -0.127282,-1.68787 -0.0332,-0.348642 -0.09961,-1.173208 -0.143884,-1.82622 -0.04427,-0.653012 -0.09961,-1.389034 -0.116214,-1.638064 -0.03874,-0.58107 -0.05534,-0.841168 -0.127282,-2.097386 -0.0332,-0.58107 -0.07194,-1.250684 -0.08854,-1.49418 -0.0166,-0.243496 -0.05534,-0.918644 -0.08854,-1.49418 -0.02767,-0.58107 -0.06641,-1.211946 -0.07748,-1.41117 -0.04427,-0.60874 -0.16602,-2.695058 -0.309904,-5.17429 -0.0332,-0.58107 -0.06641,-1.178742 -0.07748,-1.32816 -0.01107,-0.154952 -0.0332,-0.603206 -0.05534,-0.99612 -0.05534,-1.21748 -0.19369,-3.796324 -0.22136,-4.26118 -0.0166,-0.243496 -0.03874,-0.902042 -0.05534,-1.46651 -0.0166,-0.564468 -0.03874,-1.261752 -0.05534,-1.54952 -0.0166,-0.287768 -0.04427,-0.77476 -0.05534,-1.07913 -0.0166,-0.30437 -0.05534,-0.951848 -0.08301,-1.43884 -0.02767,-0.486992 -0.07748,-1.422238 -0.105146,-2.07525 -0.0332,-0.653012 -0.08854,-1.787482 -0.121748,-2.51797 -0.03874,-0.730488 -0.05534,-1.626996 -0.03874,-1.99224 0.02214,-0.625342 0.0332,-0.686216 0.22136,-1.056994 0.105146,-0.215826 0.210292,-0.464856 0.226894,-0.5534 0.0332,-0.160486 0.199224,-0.5534 0.33204,-0.769226 0.293302,-0.49806 0.570002,-0.868838 0.77476,-1.056994 0.38738,-0.348642 0.536798,-0.464856 0.592138,-0.464856 0.02767,0 0.07194,-0.0332 0.09408,-0.07194 0.04981,-0.08301 0.77476,-0.592138 0.841168,-0.592138 0.02214,0 0.08301,-0.04427 0.132816,-0.09961 0.04981,-0.05534 0.210292,-0.160486 0.354176,-0.232428 0.149418,-0.07194 0.309904,-0.171554 0.35971,-0.22136 0.05534,-0.04981 0.215826,-0.149418 0.35971,-0.215826 0.149418,-0.06641 0.326506,-0.160486 0.403982,-0.204758 0.558934,-0.33204 1.1068,-0.514662 2.32428,-0.77476 0.204758,-0.04427 0.99612,-0.182622 1.18981,-0.204758 0.403982,-0.05534 1.372432,-0.0332 1.859424,0.04427 z M 3.155485,72.075737 c 0,0.01107 -0.066408,0.07748 -0.149418,0.154952 l -0.143884,0.132816 0.105146,-0.149418 c 0.088544,-0.127282 0.188156,-0.199224 0.188156,-0.13835 z" />
  <path
     style="fill:#000000;stroke:none;stroke-width:0.005534"
     inkscape:connector-curvature="0"
     id="path6"
     d="m 14.804555,33.525893 c -0.437186,0.121748 -0.60874,0.547866 -0.570002,1.427772 0.02214,0.536798 0.0332,0.575536 0.226894,0.863304 0.326506,0.492526 0.88544,0.686216 1.32816,0.453788 0.841168,-0.431652 1.151072,-1.278354 0.708352,-1.920298 -0.403982,-0.586604 -1.184276,-0.96845 -1.693404,-0.824566 z m 0.713886,0.481458 c 0.237962,0.09961 0.63641,0.459322 0.702818,0.630876 0.116214,0.298836 -0.149418,0.813498 -0.575536,1.123402 -0.531264,0.381846 -0.868838,0.08854 -0.91311,-0.796896 -0.02214,-0.459322 -0.0166,-0.492526 0.132816,-0.708352 0.13835,-0.199224 0.282234,-0.309904 0.426118,-0.320972 0.02214,-0.0055 0.127282,0.02767 0.226894,0.07194 z" />
  <path
     style="fill:#000000;stroke:none;stroke-width:0.005534"
     inkscape:connector-curvature="0"
     id="path8"
     d="m 96.818435,35.706289 c -0.492526,0.132816 -0.962916,0.271166 -1.13447,0.337574 -0.315438,0.116214 -0.736022,0.403982 -0.88544,0.592138 -0.07748,0.09961 -0.19369,0.243496 -0.260098,0.320972 -0.06641,0.07748 -0.149418,0.210292 -0.188156,0.287768 -0.04427,0.07748 -0.116214,0.199224 -0.171554,0.271166 -0.11068,0.154952 -0.354176,0.879906 -0.403982,1.228548 -0.04981,0.326506 -0.09961,0.376312 -0.403982,0.420584 -0.337574,0.04427 -0.509128,0.154952 -0.509128,0.326506 0,0.07748 -0.06087,0.293302 -0.132816,0.481458 -0.07194,0.19369 -0.182622,0.558934 -0.243496,0.819032 -0.22136,0.924178 -0.343108,1.488646 -0.343108,1.57719 0,0.04427 -0.03874,0.177088 -0.08301,0.287768 l -0.08301,0.199224 -0.11068,-0.121748 c -0.13835,-0.16602 -0.232428,-0.132816 -0.951848,0.35971 -0.841168,0.575536 -1.6602,1.13447 -2.589912,1.765346 -0.44272,0.298836 -1.073596,0.730488 -1.41117,0.962916 -0.33204,0.226894 -0.907576,0.614274 -1.27282,0.85777 -0.365244,0.24903 -0.669614,0.464856 -0.680682,0.486992 -0.01107,0.02767 -0.04427,0.04427 -0.07748,0.04427 -0.0332,0 -0.13835,0.06087 -0.237962,0.132816 -0.09961,0.07748 -0.575536,0.403982 -1.056994,0.730488 -0.481458,0.326506 -0.94078,0.641944 -1.018256,0.697284 -0.215826,0.160486 -1.981172,1.339228 -2.119522,1.41117 -0.06641,0.03874 -0.171554,0.105146 -0.232428,0.154952 -0.06087,0.04981 -0.215826,0.16602 -0.343108,0.254564 -0.232428,0.16602 -0.237962,0.177088 -0.24903,0.509128 -0.0055,0.188156 -0.0166,0.431652 -0.02214,0.536798 -0.06087,0.841168 -0.121748,2.042046 -0.160486,3.37574 -0.01107,0.47039 -0.03874,1.1068 -0.05534,1.41117 -0.132816,2.385154 -0.30437,8.710516 -0.30437,11.333632 v 1.422238 l 0.154952,-0.0332 c 0.326506,-0.07748 0.398448,-0.16602 0.398448,-0.509128 0,-0.171554 0.02767,-0.80243 0.05534,-1.394568 0.02767,-0.592138 0.06641,-1.455442 0.08301,-1.90923 0.0166,-0.459322 0.03874,-0.890974 0.05534,-0.96845 0.01107,-0.07748 0.03874,-0.63641 0.05534,-1.24515 0.0166,-0.60874 0.07748,-3.027098 0.13835,-5.36798 0.06087,-2.346416 0.121748,-4.310986 0.132816,-4.37186 0.0166,-0.06087 0.02767,-0.420584 0.0332,-0.80243 0.01107,-0.835634 0.05534,-1.516316 0.11068,-1.599326 0.04981,-0.08301 4.609822,0.675148 7.49857,1.239616 1.156606,0.232428 2.650786,0.509128 3.3204,0.625342 l 1.21748,0.210292 -0.01107,1.294956 c -0.01107,1.13447 -0.04981,2.440494 -0.09408,3.26506 -0.02767,0.403982 -0.143884,4.061956 -0.160486,4.825648 l -0.01107,0.702818 0.24903,0.07748 c 0.22136,0.07194 0.254564,0.07194 0.309904,-0.01107 0.03874,-0.06087 0.08301,-1.3835 0.127282,-3.962344 0.07748,-4.222442 0.132816,-6.092934 0.182622,-6.14274 0.07194,-0.07194 7.022646,1.178742 7.105655,1.278354 0.0609,0.07748 0.0609,0.769226 0,1.737676 -0.0166,0.287768 -0.04427,0.946314 -0.06088,1.46651 -0.154952,4.643026 -0.282234,7.614784 -0.431652,9.9612 -0.182622,2.767 -0.182622,2.767 -0.06641,2.805738 0.06087,0.0166 0.16602,0.0332 0.232428,0.03874 0.160486,0.0055 0.149418,0.08301 0.320962,-3.691178 0.0775,-1.71554 0.2269,-4.377394 0.33205,-5.92138 0.10514,-1.543986 0.24903,-3.65244 0.31543,-4.687298 l 0.12175,-1.88156 0.24903,-0.30437 c 0.22136,-0.265632 1.77641,-2.064182 2.25234,-2.60098 0.34311,-0.381846 2.18593,-2.512436 3.8572,-4.443802 0.93524,-1.084664 1.72107,-1.975638 1.73767,-1.975638 0.0332,0 0.0332,0.0332 -0.17709,4.4272 -0.3099,6.386236 -0.36524,7.349152 -0.52573,9.07576 -0.0885,0.990586 -0.16601,1.864958 -0.16601,1.942434 v 0.149418 l 0.55339,0.0055 0.55341,0.01107 v -3.823994 -3.81846 h 0.13281 0.12728 l 0.006,-1.095732 c 0,-0.962916 0.0111,-1.090198 0.0885,-1.073596 0.083,0.0166 0.0885,-0.337574 0.0885,-3.702246 0,-2.042046 -0.0221,-3.702246 -0.0387,-3.68011 -0.0221,0.0166 -0.0387,0.13835 -0.0387,0.271166 l -0.006,0.232428 -0.38738,-0.0055 c -0.5202,-0.01107 -1.11234,-0.07194 -1.3835,-0.143884 -0.18263,-0.04981 -0.57554,-0.08854 -1.07913,-0.105146 -0.0443,0 -0.25457,-0.02767 -0.47039,-0.05534 -0.2103,-0.02767 -0.57554,-0.06087 -0.80244,-0.07748 -0.22689,-0.0166 -0.55339,-0.04981 -0.71941,-0.07748 -0.86884,-0.143884 -1.057,-0.171554 -1.38904,-0.19369 -0.19369,-0.0166 -0.60321,-0.05534 -0.90758,-0.09408 l -0.55339,-0.06641 -0.0111,-0.254564 c -0.006,-0.13835 -0.0221,-0.33204 -0.0443,-0.420584 -0.0166,-0.09408 -0.0498,-0.287768 -0.0609,-0.431652 -0.0166,-0.143884 -0.0498,-0.326506 -0.0775,-0.403982 -0.0332,-0.07748 -0.0553,-0.237962 -0.0553,-0.35971 0,-0.121748 -0.0221,-0.210292 -0.0443,-0.19369 -0.0277,0.0166 -0.0443,-0.116214 -0.0387,-0.287768 0.006,-0.171554 -0.0111,-0.343108 -0.0387,-0.376312 -0.0221,-0.0332 -0.0387,-0.171554 -0.0332,-0.30437 0.0111,-0.464856 -0.0111,-0.603206 -0.12175,-0.713886 -0.0609,-0.06087 -0.0941,-0.11068 -0.0664,-0.11068 0.14941,-0.01107 -0.39845,-0.188156 -0.61428,-0.199224 -0.39844,-0.02214 -0.42611,-0.03874 -0.42611,-0.320972 0,-0.13835 -0.0221,-0.265632 -0.0553,-0.282234 -0.0277,-0.0166 -0.0553,-0.105146 -0.0553,-0.188156 0,-0.08301 -0.0498,-0.254564 -0.11068,-0.381846 -0.06087,-0.121748 -0.11068,-0.265632 -0.11068,-0.309904 0,-0.04427 -0.02767,-0.09961 -0.05534,-0.116214 -0.0332,-0.02214 -0.04981,-0.06641 -0.04427,-0.09961 0.0055,-0.03874 -0.05534,-0.171554 -0.13835,-0.298836 -0.08301,-0.132816 -0.149418,-0.260098 -0.149418,-0.287768 0,-0.02767 -0.03874,-0.07748 -0.08301,-0.116214 -0.04981,-0.03874 -0.07748,-0.105146 -0.06087,-0.149418 0.0166,-0.04427 0.01107,-0.06087 -0.0166,-0.04427 -0.02767,0.0166 -0.116214,-0.02767 -0.188156,-0.09408 -0.07748,-0.07194 -0.293302,-0.188156 -0.475924,-0.265632 -0.188156,-0.07748 -0.337574,-0.160486 -0.337574,-0.188156 0,-0.02214 -0.0332,-0.0332 -0.07748,-0.0166 -0.03874,0.0166 -0.09961,0.0055 -0.132816,-0.02767 -0.07194,-0.07194 -1.02379,-0.09961 -1.256218,-0.03874 z m 1.43884,0.785828 c 0.24903,0.07748 0.448254,0.182622 0.564468,0.30437 0.188156,0.188156 0.44272,0.686216 0.49806,0.973984 0.0166,0.09408 0.05534,0.204758 0.08854,0.243496 0.07194,0.08854 0.127282,0.896508 0.06087,0.902042 -0.02767,0.0055 -0.370778,0.0166 -0.769226,0.02767 -0.392914,0.01107 -0.85777,0.0332 -1.02379,0.04981 -0.16602,0.01107 -0.874372,0.03874 -1.571656,0.04981 -0.697284,0.0166 -1.339228,0.04427 -1.422238,0.06087 -0.354176,0.07748 -0.486992,-0.132816 -0.30437,-0.481458 0.04427,-0.07748 0.105146,-0.237962 0.143884,-0.35971 0.03874,-0.116214 0.116214,-0.2767 0.171554,-0.35971 0.06087,-0.07748 0.105146,-0.160486 0.105146,-0.182622 0,-0.0166 0.07194,-0.11068 0.16602,-0.210292 0.08854,-0.09961 0.16602,-0.204758 0.16602,-0.243496 0,-0.143884 0.509128,-0.475924 0.979518,-0.63641 1.040392,-0.348642 1.416704,-0.376312 2.147192,-0.13835 z m 2.423895,3.314866 c 0.0221,0.09961 0.0719,0.542332 0.12174,0.985052 0.0498,0.44272 0.0941,0.813498 0.0996,0.8301 0.0332,0.09961 -1.178745,1.21748 -1.317095,1.21748 -0.04427,0 -0.08301,0.0332 -0.08301,0.06641 -0.0055,0.06641 -0.282234,0.2767 -0.979518,0.736022 -0.160486,0.105146 -0.309904,0.19369 -0.337574,0.19369 -0.02767,0 -0.08854,0.04427 -0.13835,0.09961 -0.05534,0.05534 -0.215826,0.160486 -0.35971,0.226894 l -0.265632,0.127282 -0.204758,-0.13835 c -0.11068,-0.07194 -0.315438,-0.171554 -0.453788,-0.210292 -0.13835,-0.03874 -0.24903,-0.09408 -0.24903,-0.116214 0,-0.02214 -0.0332,-0.04427 -0.07194,-0.04427 -0.03874,0 -0.132816,-0.06087 -0.215826,-0.13835 -0.08301,-0.07748 -0.171554,-0.13835 -0.199224,-0.13835 -0.0332,0 -0.06641,-0.0332 -0.08301,-0.07748 -0.0166,-0.04427 -0.177088,-0.171554 -0.354176,-0.287768 -0.177088,-0.11068 -0.343108,-0.232428 -0.376312,-0.271166 -0.02767,-0.0332 -0.143884,-0.121748 -0.24903,-0.19369 -0.105146,-0.07748 -0.260098,-0.204758 -0.343108,-0.293302 -0.08854,-0.08301 -0.154952,-0.13835 -0.154952,-0.121748 0,0.0166 -0.0332,0.0055 -0.06641,-0.02214 -0.105146,-0.08301 -0.603206,-0.481458 -0.763692,-0.614274 -0.575536,-0.459322 -0.58107,-0.475924 -0.38738,-1.16214 0.06641,-0.226894 0.132816,-0.464856 0.149418,-0.531264 0.02767,-0.11068 0.06641,-0.116214 1.195344,-0.154952 0.647478,-0.02214 1.71554,-0.04981 2.385154,-0.06087 0.66408,-0.01107 1.21748,-0.0332 1.228548,-0.03874 0.0055,-0.01107 0.558934,-0.02214 1.228548,-0.0332 l 1.217483,-0.01107 z m -7.310417,2.313212 c 0.127282,0.116214 0.19369,0.160486 0.542332,0.41505 0.16602,0.121748 0.459322,0.35971 0.641944,0.531264 0.188156,0.16602 0.536798,0.453788 0.77476,0.63641 0.243496,0.177088 0.448254,0.343108 0.453788,0.365244 0.01107,0.02767 0.05534,0.04427 0.09408,0.04427 0.03874,0 0.08301,0.02214 0.09408,0.04427 0.03874,0.09961 0.536798,0.392914 0.730488,0.426118 0.143884,0.02767 0.226894,0.08301 0.265632,0.171554 0.0332,0.07194 0.143884,0.16602 0.243496,0.215826 0.16602,0.07748 0.204758,0.07748 0.448254,-0.0055 0.143884,-0.04981 0.315438,-0.13835 0.381846,-0.19369 0.06087,-0.05534 0.132816,-0.105146 0.160486,-0.105146 0.02214,0 0.127282,-0.06087 0.226894,-0.13835 0.09961,-0.07748 0.204758,-0.13835 0.232428,-0.13835 0.02767,0 0.08301,-0.03874 0.127282,-0.08854 0.03874,-0.04427 0.199224,-0.149418 0.348642,-0.226894 0.154952,-0.07748 0.293302,-0.160486 0.309904,-0.182622 0.0166,-0.02214 0.06641,-0.06087 0.116214,-0.08854 0.04981,-0.02767 0.232428,-0.182622 0.403982,-0.343108 0.177085,-0.154952 0.337575,-0.287768 0.359705,-0.287768 0.0221,0 0.11622,-0.06641 0.20476,-0.143884 0.30437,-0.265632 0.45379,-0.35971 0.49252,-0.298836 0.0664,0.11068 0.2767,2.689524 0.23797,2.938554 -0.0166,0.105146 -0.0166,0.30437 0.006,0.448254 0.0221,0.13835 0.0277,0.365244 0.0111,0.49806 l -0.0332,0.237962 -0.33204,0.03874 c -0.43165,0.04981 -1.549511,0.13835 -2.407281,0.182622 -0.226894,0.0166 -0.575536,0.03874 -0.77476,0.06087 -0.199224,0.02214 -0.459322,0.04427 -0.58107,0.05534 -0.121748,0.0166 -1.267286,0.04981 -2.54564,0.07748 -1.278354,0.02767 -2.479232,0.07194 -2.672922,0.08854 -0.420584,0.04427 -0.503594,-0.0055 -0.398448,-0.24903 0.03874,-0.09408 0.08854,-0.171554 0.116214,-0.171554 0.02767,0 0.04981,-0.04981 0.04981,-0.116214 0,-0.06087 0.02767,-0.160486 0.06087,-0.226894 0.0332,-0.06087 0.06641,-0.177088 0.07748,-0.254564 0.02767,-0.204758 0.254564,-1.13447 0.293302,-1.200878 0.02214,-0.0332 0.04427,-0.116214 0.04981,-0.19369 0.0166,-0.13835 0.105146,-0.47039 0.298836,-1.084664 0.05534,-0.188156 0.105146,-0.403982 0.105146,-0.481458 0,-0.07748 0.02767,-0.160486 0.05534,-0.177088 0.0332,-0.0166 0.05534,-0.116214 0.05534,-0.215826 0,-0.09961 0.0166,-0.199224 0.03874,-0.22136 0.02214,-0.02214 0.04427,-0.07194 0.04427,-0.105146 0.01107,-0.19369 0.105146,-0.686216 0.149418,-0.77476 0.06087,-0.11068 0.02214,-0.132816 0.44272,0.237962 z m -1.599326,1.6602 c -0.04427,0.13835 -0.09961,0.326506 -0.127282,0.420584 -0.0332,0.09408 -0.05534,0.19369 -0.05534,0.232428 0,0.0332 -0.02767,0.127282 -0.06641,0.215826 -0.0332,0.08301 -0.06641,0.177088 -0.06641,0.210292 -0.01107,0.09961 -0.160486,0.437186 -0.232428,0.52573 -0.03874,0.04427 -0.09408,0.271166 -0.132816,0.503594 -0.0332,0.232428 -0.11068,0.58107 -0.16602,0.77476 -0.287768,0.94078 -0.04427,1.372432 0.77476,1.372432 1.32816,0.0055 4.75924,-0.04981 5.052542,-0.07748 0.287768,-0.02767 0.370778,-0.0166 0.370778,0.03874 0,0.04981 0.0166,0.04981 0.04427,0.01107 0.02214,-0.0332 0.237962,-0.07748 0.481458,-0.09408 0.243496,-0.02214 0.492526,-0.04427 0.5534,-0.06087 0.06087,-0.01107 0.547866,-0.03874 1.07913,-0.06087 0.531264,-0.0166 1.167671,-0.06087 1.411171,-0.09408 0.24349,-0.0332 0.62534,-0.06087 0.8467,-0.06641 0.58107,-0.0055 0.56447,0.02767 0.54233,-1.32816 -0.0166,-0.614274 -0.0387,-1.173208 -0.0609,-1.250684 -0.0166,-0.07748 -0.0443,-0.348642 -0.0553,-0.60874 -0.0166,-0.260098 -0.0443,-0.570002 -0.0609,-0.686216 l -0.0387,-0.215826 0.32651,0.03874 c 0.54233,0.07194 1.01272,0.132816 1.65466,0.22136 0.79137,0.11068 1.057,0.13835 2.07525,0.22136 0.2601,0.02214 0.59768,0.06641 0.7471,0.09408 0.15495,0.02767 0.6198,0.08301 1.04039,0.127282 0.42058,0.03874 0.78582,0.09408 0.81349,0.121748 0.0277,0.02767 -0.0553,0.16602 -0.19922,0.320972 -0.13282,0.149418 -0.24349,0.293302 -0.24349,0.320972 0,0.02214 -0.0387,0.04427 -0.083,0.04427 -0.0443,0 -0.083,0.0332 -0.083,0.07194 0,0.04427 -0.14942,0.226894 -0.33204,0.41505 -0.18263,0.182622 -0.33205,0.35971 -0.33205,0.392914 0,0.0332 -0.0332,0.06087 -0.0664,0.06087 -0.0664,0.0055 -0.11622,0.05534 -0.38185,0.403982 -0.0941,0.121748 -0.13281,0.143884 -0.16602,0.08301 -0.0332,-0.04981 -0.0498,-0.0332 -0.0498,0.06641 0,0.09961 -0.16049,0.30437 -0.5534,0.708352 -0.30438,0.315438 -0.61981,0.603206 -0.70282,0.647478 -0.10515,0.05534 -0.12175,0.08301 -0.0609,0.08301 0.0664,0 0.0111,0.08301 -0.17708,0.2767 -0.15496,0.154952 -0.2767,0.30437 -0.2767,0.326506 0,0.02767 -0.0498,0.06087 -0.11068,0.07748 -0.072,0.0166 -0.0996,0.05534 -0.0775,0.116214 0.0332,0.07748 -0.0277,0.116214 -0.15495,0.09408 -0.0277,0 -0.0443,0.04427 -0.0443,0.105146 0,0.06087 -0.0387,0.11068 -0.083,0.11068 -0.0443,0 -0.083,0.03874 -0.083,0.08301 0,0.04427 -0.083,0.16602 -0.17708,0.265632 -0.0996,0.105146 -0.34311,0.370778 -0.54233,0.597672 -0.59768,0.680682 -0.85224,0.935246 -0.92972,0.935246 -0.0387,0 -0.0941,0.06641 -0.12175,0.143884 -0.0664,0.16602 -0.33203,0.503594 -0.6198,0.796896 -0.11622,0.11068 -0.21029,0.232428 -0.21029,0.260098 0,0.07748 -0.51467,0.597672 -0.57001,0.58107 -0.0277,-0.0055 -0.0332,0.01107 -0.0166,0.0332 0.0166,0.02767 -0.0166,0.09408 -0.0775,0.149418 -0.0609,0.05534 -0.11068,0.07748 -0.11621,0.04981 0,-0.02767 -0.0277,0.01107 -0.0553,0.08301 -0.0498,0.121748 -0.0609,0.127282 -0.12175,0.03874 -0.0609,-0.07748 -0.0664,-0.06641 -0.0664,0.08854 0,0.116214 -0.0277,0.177088 -0.0664,0.171554 -0.0387,-0.01107 -0.0553,0.0166 -0.0387,0.06087 0.0166,0.04981 -0.0221,0.11068 -0.0996,0.149418 -0.0719,0.03874 -0.16049,0.116214 -0.20476,0.177088 -0.0553,0.07748 -0.11068,0.09408 -0.22136,0.06641 -0.07748,-0.0166 -0.282231,-0.04427 -0.448251,-0.05534 -0.33204,-0.02214 -0.863304,-0.116214 -1.16214,-0.199224 -0.105146,-0.0332 -0.22136,-0.04981 -0.24903,-0.04427 -0.06641,0.0166 -0.575536,-0.05534 -0.69175,-0.09961 -0.04427,-0.0166 -0.143884,-0.03874 -0.22136,-0.04427 -0.343108,-0.0332 -1.483112,-0.210292 -1.6602,-0.254564 -0.41505,-0.105146 -1.71554,-0.326506 -2.26894,-0.381846 -0.315438,-0.03874 -0.603206,-0.07748 -0.63641,-0.09961 -0.02767,-0.0166 -0.19369,-0.03874 -0.35971,-0.04981 -0.16602,-0.01107 -0.343108,-0.0332 -0.38738,-0.04981 -0.09961,-0.04427 -0.171554,-0.06087 -0.509128,-0.105146 -0.149418,-0.0166 -0.531264,-0.08301 -0.85777,-0.143884 -1.040392,-0.188156 -2.429426,-0.420584 -2.767,-0.464856 -0.182622,-0.02214 -1.173208,-0.188156 -1.372432,-0.226894 -0.06087,-0.0166 -0.409516,-0.07194 -0.77476,-0.132816 -0.365244,-0.06087 -0.813498,-0.13835 -0.99612,-0.171554 -0.182622,-0.0332 -0.431652,-0.07194 -0.5534,-0.08854 -0.121748,-0.01107 -0.730488,-0.11068 -1.35583,-0.22136 -0.625342,-0.105146 -1.289422,-0.22136 -1.483112,-0.24903 -0.30437,-0.05534 -0.33204,-0.07194 -0.24903,-0.132816 0.05534,-0.04427 0.226894,-0.171554 0.376312,-0.287768 0.154952,-0.121748 0.392914,-0.287768 0.52573,-0.370778 0.13835,-0.08301 0.260098,-0.171554 0.2767,-0.19369 0.0166,-0.02214 0.116214,-0.08301 0.22136,-0.13835 0.105146,-0.05534 0.204758,-0.116214 0.22136,-0.132816 0.0166,-0.02214 0.215826,-0.160486 0.44272,-0.309904 0.226894,-0.149418 0.426118,-0.287768 0.44272,-0.30437 0.05534,-0.06641 1.239616,-0.8301 1.283888,-0.8301 0.02214,0 0.04427,-0.02214 0.04427,-0.04427 0,-0.04427 0.680682,-0.509128 0.74709,-0.509128 0.0166,0 0.199224,-0.116214 0.403982,-0.265632 0.204758,-0.143884 0.409516,-0.287768 0.464856,-0.315438 0.09961,-0.06087 1.21748,-0.807964 1.400102,-0.935246 0.06087,-0.04427 0.237962,-0.16602 0.38738,-0.265632 0.785828,-0.531264 1.239616,-0.846702 1.416704,-0.990586 0.11068,-0.08854 0.215826,-0.160486 0.232428,-0.160486 0.01107,0 0.448254,-0.282234 0.957382,-0.625342 0.846702,-0.570002 0.94078,-0.619808 0.96845,-0.514662 0.0166,0.06641 -0.0055,0.226894 -0.04427,0.365244 z" />
  <path
     style="fill:#000000;stroke:none;stroke-width:0.005534"
     inkscape:connector-curvature="0"
     id="path10"
     d="m 96.016005,52.861689 c 0,0.02767 0.06641,0.04981 0.154952,0.04981 0.08301,0 0.210292,0.0166 0.287768,0.0332 0.105146,0.02767 0.121748,0.02214 0.07748,-0.02767 -0.07194,-0.07748 -0.520196,-0.127282 -0.520196,-0.05534 z" />
  <path
     style="fill:#000000;stroke:none;stroke-width:0.005534"
     inkscape:connector-curvature="0"
     id="path12"
     d="m 101.05194,37.914355 c -0.27116,0.210292 -0.0719,0.232428 2.96069,0.30437 4.23905,0.105146 4.17817,0.105146 4.17817,-0.06087 0,-0.16602 -0.26563,-0.260098 -0.70835,-0.243496 -0.55893,0.0166 -0.36524,0.02214 -2.69505,-0.02767 -3.45322,-0.06641 -3.60817,-0.06641 -3.73546,0.02767 z" />
  <path
     style="fill:#000000;stroke:none;stroke-width:0.005534"
     inkscape:connector-curvature="0"
     id="path14"
     d="m 108.78848,43.321073 c 0.0387,0.0166 0.0885,0.01107 0.10514,-0.0055 0.0221,-0.0166 -0.0111,-0.0332 -0.0719,-0.02767 -0.0609,0 -0.0775,0.0166 -0.0332,0.0332 z" />
  <path
     style="fill:#000000;stroke:none;stroke-width:0.005534"
     inkscape:connector-curvature="0"
     id="path26"
     d="m 3.299369,71.666221 c -0.022136,0.02767 -0.011068,0.06641 0.016602,0.08301 0.02767,0.02214 0.066408,0.01107 0.08301,-0.0166 0.022136,-0.02767 0.011068,-0.06641 -0.016602,-0.08301 -0.02767,-0.02214 -0.066408,-0.01107 -0.08301,0.0166 z" />
  <path
     style="fill:#000000;stroke-width:0.38428262"
     d="m 24.756606,78.189664 c 0.947968,-1.743686 2.315157,-4.207901 3.038195,-5.476031 l 1.314617,-2.305696 1.992345,0.123548 c 1.09579,0.06791 1.992344,0.02254 1.992344,-0.100911 0,-0.123463 -0.920375,-0.6315 -2.045278,-1.128989 -2.390374,-1.057132 -3.427709,-2.237699 -4.315915,-4.911839 -0.706848,-2.128123 -0.539753,-5.037076 0.391713,-6.819298 0.708924,-1.356422 2.474187,-2.974863 3.784872,-3.470073 1.767357,-0.667752 5.223306,-0.494505 6.966205,0.349217 1.775494,0.859503 3.529895,3.263048 3.915994,5.364954 0.138473,0.753836 0.427799,1.484611 0.642944,1.623948 0.244957,0.15864 0.158055,0.486456 -0.232475,0.87699 -0.343008,0.343008 -0.736152,1.223337 -0.873656,1.956288 -0.137501,0.732949 -0.403684,1.332636 -0.591519,1.332636 -0.187833,0 -0.341515,0.225464 -0.341515,0.501039 0,0.275567 -0.619998,1.096978 -1.377776,1.825341 -0.757777,0.728363 -1.629874,1.80569 -1.937994,2.394057 -0.532489,1.016807 -0.502335,1.127646 0.609211,2.239193 0.806955,0.806946 1.171189,1.547369 1.175109,2.388778 0.0032,0.670652 0.266338,2.325159 0.584924,3.676681 0.318581,1.351523 0.507267,2.529291 0.419302,2.617257 -0.256651,0.25664 -1.291924,-2.943696 -1.806554,-5.584606 -0.334395,-1.715985 -0.715265,-2.589641 -1.294384,-2.969095 -0.892052,-0.584498 -6.665416,-1.80476 -7.142812,-1.509713 -0.161452,0.09978 -1.539408,2.430353 -3.062125,5.179039 -1.522716,2.748686 -2.939751,4.997619 -3.148963,4.997619 -0.209213,0 0.395223,-1.426649 1.343191,-3.170334 z m 11.442516,-7.647048 c 0.423534,-0.791382 0.381805,-0.816255 -0.994799,-0.592858 -1.722238,0.279484 -2.089793,0.569431 -1.330521,1.049618 0.941443,0.595384 1.858651,0.415214 2.32532,-0.45676 z m 0.814386,-2.344302 c 0.307752,-0.545394 0.490105,-2.364169 0.493874,-4.925912 l 0.006,-4.061279 1.689414,1.071026 c 0.929179,0.589063 1.827482,0.985693 1.996232,0.881398 0.495087,-0.305976 -0.677129,-3.636647 -1.644403,-4.672303 -3.452764,-3.696883 -10.186407,-2.739616 -12.046651,1.712571 -1.147967,2.747474 -0.482246,6.761966 1.473461,8.885404 1.238717,1.344947 2.868116,1.941703 5.348094,1.958685 1.885179,0.01296 2.265181,-0.107373 2.684003,-0.84959 z m 3.42286,-3.443234 c 1.009826,-1.978579 0.926048,-2.416257 -0.639281,-3.339824 -0.751824,-0.443588 -1.400302,-0.805579 -1.44106,-0.804426 -0.04076,0.0011 -0.113133,1.580493 -0.160834,3.509645 l -0.08673,3.507553 0.800114,-0.7236 c 0.440062,-0.397978 1.127567,-1.365189 1.527788,-2.149348 z"
     id="path1056"
     inkscape:connector-curvature="0"
     sodipodi:nodetypes="ssccscssssscccssssscccsccssssccscsccccssscccssccc" />
</svg>
