<?xml version="1.0" standalone="no"?>
<!DOCTYPE svg PUBLIC "-//W3C//DTD SVG 20010904//EN"
 "http://www.w3.org/TR/2001/REC-SVG-20010904/DTD/svg10.dtd">
<svg version="1.0" xmlns="http://www.w3.org/2000/svg"
 width="112.382687pt" height="82.800000pt" viewBox="0 0 112.382687 82.800000"
 preserveAspectRatio="xMidYMid meet">
<metadata>
Created by potrace 1.13, written by Peter Selinger 2001-2015
</metadata>
<g transform="translate(1.028142,83.729066) scale(0.005877,-0.005877)"
fill="#000000" stroke="none">
<path d="M848 14002 c-11 -2 -18 -13 -18 -26 0 -16 10 -27 38 -38 43 -19 384
-121 677 -203 110 -31 227 -65 260 -75 75 -25 437 -130 810 -236 28 -8 70 -21
95 -29 25 -7 81 -23 125 -35 44 -12 130 -37 190 -55 61 -19 214 -64 340 -100
127 -37 284 -83 350 -102 305 -88 328 -92 333 -55 4 28 -25 54 -50 46 -10 -3
-18 -1 -18 5 0 6 -7 11 -17 11 -20 0 -407 108 -508 142 -16 6 -77 23 -135 39
-58 17 -118 34 -135 38 -16 5 -84 25 -150 44 -66 20 -176 52 -245 72 -69 20
-201 59 -295 85 -195 56 -389 113 -555 163 -63 19 -180 54 -260 77 -80 23
-197 58 -260 77 -63 19 -124 37 -135 40 -11 3 -81 23 -155 45 -187 56 -262 75
-282 70z"/>
<path d="M4084 13142 c-6 -4 -16 -17 -23 -30 -10 -19 -8 -25 16 -47 l28 -24
955 7 c1751 13 5305 6 6330 -13 135 -2 511 -7 835 -10 325 -3 691 -7 815 -10
124 -3 353 -7 510 -10 473 -8 801 -15 1085 -20 599 -12 1171 -15 1200 -6 30 9
29 10 -25 16 -8 1 -87 5 -175 9 -88 4 -191 9 -230 11 -38 2 -196 7 -350 10
-154 3 -311 8 -350 10 -132 8 -470 15 -1495 30 -190 3 -493 7 -675 10 -181 3
-571 7 -865 10 -294 3 -715 7 -935 10 -429 5 -1262 14 -1960 20 -236 2 -1361
4 -2499 5 -1345 0 -2073 4 -2081 10 -15 13 -97 21 -111 12z"/>
<path d="M3981 12986 c-6 -12 -15 -148 -21 -336 -18 -549 -29 -862 -34 -970
-3 -58 -8 -179 -11 -270 -3 -91 -9 -289 -15 -440 -5 -151 -14 -450 -20 -665
-6 -214 -13 -444 -15 -510 -7 -175 -23 -730 -35 -1205 -5 -228 -12 -467 -15
-530 -3 -63 -7 -236 -10 -385 -3 -148 -7 -328 -10 -400 -6 -167 -13 -492 -20
-915 -3 -184 -8 -357 -10 -385 -3 -27 -7 -291 -10 -585 -4 -294 -8 -569 -10
-610 -2 -41 -7 -331 -10 -645 l-7 -570 -31 -34 c-34 -35 -252 -218 -342 -286
-53 -40 -85 -67 -275 -230 -107 -92 -234 -195 -242 -195 -2 0 -5 66 -7 148 -1
81 -4 170 -6 197 -3 47 -9 213 -20 605 -3 91 -8 338 -11 550 -3 211 -7 387
-10 391 -2 3 -6 154 -9 335 -3 181 -8 415 -10 519 -6 228 -14 841 -20 1390 -6
562 -6 2808 -1 3300 3 226 8 429 12 452 6 40 5 43 -27 62 -45 26 -41 21 -113
141 -118 199 -221 345 -291 416 -120 120 -285 215 -485 278 -204 65 -290 78
-512 77 -192 -1 -419 -21 -476 -42 -92 -34 -282 -129 -342 -170 -69 -47 -140
-112 -140 -129 0 -47 64 -54 112 -11 18 15 47 36 63 45 17 9 57 33 90 54 33
21 76 44 95 51 19 8 67 29 105 46 85 39 101 43 240 60 164 19 422 19 525 0
201 -38 354 -92 477 -169 140 -87 181 -130 307 -320 142 -213 185 -294 226
-420 l31 -99 -4 -631 c-13 -1727 -9 -2725 18 -4216 3 -151 7 -412 10 -580 3
-168 7 -399 10 -515 5 -193 16 -701 30 -1460 4 -165 11 -333 16 -372 6 -40 7
-78 4 -83 -4 -6 -42 -39 -85 -73 -42 -34 -162 -134 -266 -222 -104 -88 -203
-172 -220 -185 -17 -14 -98 -81 -179 -150 -125 -107 -223 -188 -310 -257 -11
-9 -49 -41 -85 -73 -36 -31 -76 -65 -89 -76 -13 -10 -29 -25 -36 -32 -8 -6
-16 -12 -19 -12 -3 0 -16 -10 -29 -22 -34 -34 -70 -64 -192 -163 -60 -49 -134
-109 -164 -134 -99 -85 -147 -126 -192 -162 -129 -107 -199 -165 -248 -207
-30 -26 -75 -63 -100 -82 -25 -19 -52 -43 -59 -52 -7 -10 -17 -18 -21 -18 -4
0 -29 -20 -56 -45 -27 -24 -52 -42 -56 -39 -4 2 -10 -4 -14 -15 -3 -11 -19
-26 -35 -33 -17 -7 -30 -19 -30 -25 0 -7 -4 -13 -8 -13 -4 0 -39 -29 -77 -65
-39 -35 -73 -65 -77 -65 -12 0 -9 -88 2 -95 26 -16 166 80 290 198 31 28 67
61 80 72 31 25 223 188 230 195 3 3 39 34 80 68 41 35 89 75 105 89 17 14 73
62 125 106 52 44 124 106 160 138 36 32 108 92 160 134 52 42 150 125 218 183
108 94 163 140 237 199 11 9 63 53 115 97 52 45 144 122 205 171 60 50 117 97
125 105 31 29 197 169 355 300 88 73 184 153 214 179 59 50 144 120 291 239
125 101 130 105 144 117 6 6 71 55 143 109 73 54 130 103 126 109 -3 6 -1 7 6
3 9 -6 63 23 81 44 3 3 47 36 98 74 50 38 92 70 92 72 0 2 -8 1 -17 -3 -12 -4
-9 4 10 21 15 15 27 31 27 36 0 5 9 12 20 15 14 4 20 15 20 35 0 16 4 31 8 34
4 3 577 7 1273 10 695 3 1372 8 1504 11 229 5 603 9 1975 20 1096 9 1401 15
1422 26 13 7 18 19 16 37 l-3 27 -95 -1 c-52 -1 -579 -4 -1170 -8 -591 -4
-1097 -9 -1125 -11 -27 -2 -628 -7 -1335 -11 -707 -4 -1332 -7 -1390 -8 -58
-1 -320 0 -584 2 l-478 2 6 747 c7 760 12 1169 21 1618 3 138 7 432 10 655 3
223 8 486 10 585 3 99 7 284 10 410 3 127 8 349 10 495 2 146 7 333 9 415 9
276 16 508 22 795 3 157 7 287 9 290 2 3 6 147 10 320 4 173 9 317 10 320 2 3
6 154 9 335 4 182 8 346 11 365 3 19 7 87 10 150 2 63 7 169 10 235 3 66 7
188 10 270 11 354 26 732 35 892 6 95 10 206 10 246 0 40 6 96 14 125 16 62 9
76 -45 90 -33 9 -38 7 -48 -12z m-376 -9676 c-3 -5 -20 -19 -38 -30 l-32 -22
35 31 c35 32 46 38 35 21z m-828 -547 c-9 -9 -19 -14 -23 -11 -10 10 6 28 24
28 15 0 15 -1 -1 -17z"/>
<path d="M12357 9959 c-123 -8 -189 -22 -244 -50 -20 -10 -46 -19 -56 -19 -11
0 -65 -24 -120 -52 -85 -45 -115 -68 -195 -150 -143 -146 -232 -284 -281 -438
-52 -161 -75 -461 -51 -660 28 -235 86 -395 205 -575 82 -123 148 -187 308
-299 37 -26 67 -53 67 -60 0 -7 11 -23 25 -36 32 -30 23 -46 -59 -105 -63 -45
-111 -67 -196 -90 -54 -15 -58 -34 -10 -57 43 -22 84 -23 141 -3 59 21 178 96
220 139 19 20 43 36 54 36 18 0 186 -46 190 -52 1 -2 -5 -54 -14 -116 l-17
-113 -355 1 c-400 1 -365 7 -409 -80 -12 -24 -44 -98 -70 -165 -27 -66 -62
-150 -78 -186 -30 -66 -78 -185 -127 -314 -15 -38 -64 -180 -110 -315 -45
-135 -96 -281 -113 -325 -108 -287 -153 -404 -227 -590 -108 -273 -147 -359
-361 -804 -46 -95 -84 -175 -84 -177 0 -2 -16 -38 -35 -80 -19 -41 -35 -77
-35 -80 0 -2 -38 -84 -83 -181 -113 -241 -113 -240 -207 -472 -78 -192 -82
-207 -69 -230 20 -35 55 -51 113 -51 56 0 129 -17 276 -65 171 -56 286 -77
695 -125 94 -11 201 -23 238 -26 44 -5 66 -11 63 -18 -83 -196 -188 -473 -301
-801 -46 -132 -95 -271 -110 -310 -14 -38 -34 -95 -44 -125 -22 -66 -65 -181
-167 -450 -14 -36 -39 -106 -56 -156 l-32 -91 23 -31 c21 -30 27 -32 84 -33
34 -1 66 -1 70 0 16 3 193 -40 222 -54 17 -8 63 -23 104 -34 58 -15 80 -17
100 -9 14 6 29 11 33 10 10 -2 -1 50 -14 66 -31 37 -349 132 -442 132 -23 0
-27 3 -21 18 3 9 22 62 41 117 19 55 47 127 61 160 14 33 31 74 38 90 8 17 23
62 35 100 27 90 59 182 75 220 7 17 32 86 55 155 23 69 45 134 50 145 5 11 32
90 60 175 71 214 161 452 177 468 7 7 13 20 13 28 0 8 9 40 21 72 12 31 24 73
28 92 l7 35 89 -2 c50 0 140 -4 201 -8 l111 -7 -13 -66 c-27 -140 -49 -455
-79 -1137 -9 -192 -18 -399 -20 -460 -3 -60 -10 -157 -15 -215 -13 -142 -13
-161 9 -189 30 -39 80 -41 221 -5 69 18 145 39 169 48 24 9 51 16 60 16 10 0
30 14 46 30 25 26 27 34 19 57 -5 16 -21 32 -36 37 -28 10 -51 5 -261 -53
l-108 -30 5 82 c4 45 8 109 11 142 2 33 7 143 10 245 3 102 8 223 10 270 5 75
10 206 31 745 5 133 30 390 39 405 9 15 -17 59 -39 67 -12 5 65 10 174 13 195
5 231 12 243 44 3 8 -2 25 -11 36 -17 21 -26 22 -357 26 -187 2 -358 8 -380
13 -32 8 -21 9 58 7 53 -2 97 1 97 5 0 5 -39 9 -87 9 -292 1 -415 6 -421 17
-11 17 -194 42 -392 53 -211 12 -319 30 -459 75 -58 19 -146 43 -194 54 -49
10 -90 21 -93 24 -10 10 116 317 236 572 23 50 84 182 135 295 51 113 121 264
155 335 129 270 163 344 222 480 32 77 71 166 84 198 27 62 95 240 171 447 25
69 49 130 53 135 5 6 56 152 114 325 108 325 142 419 265 725 97 241 134 325
143 331 4 3 138 5 297 4 252 0 481 -12 737 -36 l71 -7 6 -136 c3 -75 12 -183
21 -241 8 -58 25 -184 37 -280 11 -96 23 -177 24 -181 2 -3 15 -75 30 -160 18
-107 27 -207 31 -329 l5 -175 -52 -55 c-72 -75 -238 -276 -279 -336 -18 -27
-42 -59 -53 -71 l-20 -22 -51 26 c-100 51 -262 147 -341 202 -44 31 -148 99
-231 151 -170 106 -317 217 -310 234 3 6 18 43 34 81 26 62 100 205 352 675
37 69 75 139 86 156 17 30 17 33 0 58 -14 22 -24 27 -49 24 -36 -3 -39 -8
-275 -443 -73 -135 -216 -417 -240 -475 -38 -95 -37 -98 113 -219 68 -55 204
-151 235 -164 17 -8 144 -91 272 -178 177 -120 298 -183 406 -209 l43 -11 -6
-147 c-7 -188 -32 -906 -45 -1307 -5 -170 -12 -364 -15 -430 -3 -66 -10 -262
-15 -435 -16 -495 -39 -1107 -46 -1200 -6 -76 -4 -88 15 -111 29 -37 68 -43
87 -14 15 23 18 67 29 455 3 107 7 256 10 330 7 181 24 723 40 1280 3 107 8
256 10 330 2 74 9 317 15 540 12 429 24 697 32 705 11 11 236 16 242 6 4 -6 9
-59 11 -118 10 -228 17 -332 31 -438 50 -378 73 -694 76 -1055 l3 -274 -105
-38 c-128 -46 -290 -125 -297 -145 -3 -8 0 -19 8 -24 15 -10 96 -4 148 11 17
5 31 6 31 4 0 -3 12 3 28 14 30 21 142 70 182 79 13 4 33 14 44 25 11 10 28
18 37 18 10 0 21 6 25 12 11 17 6 526 -7 713 -9 146 -30 353 -50 505 -25 186
-38 328 -44 490 -3 96 -8 186 -11 200 l-5 26 378 -3 c208 -1 467 -2 577 -2
l199 -1 -7 -107 c-4 -60 -11 -155 -16 -213 -16 -169 -40 -475 -65 -795 -8
-110 -22 -279 -30 -375 -30 -341 -31 -358 -50 -595 -8 -104 -19 -241 -25 -303
-12 -133 -6 -152 44 -152 57 0 59 5 76 240 6 85 15 180 20 210 4 30 9 87 10
125 1 39 3 88 5 110 4 50 12 160 26 330 5 72 12 155 14 185 3 30 7 105 10 165
3 61 7 135 9 165 2 30 7 102 11 160 4 58 9 116 11 130 2 14 11 147 19 295 17
306 20 336 43 387 l17 37 95 1 c52 0 160 -5 240 -10 80 -5 201 -12 270 -15 69
-3 181 -9 250 -15 69 -5 202 -14 295 -20 288 -17 423 -28 610 -50 99 -11 197
-20 218 -20 l38 0 -5 -152 c-4 -84 -8 -169 -11 -188 -2 -19 -7 -98 -10 -175
-9 -237 -16 -358 -20 -395 -3 -19 -9 -138 -15 -265 -11 -246 -17 -335 -30
-430 -4 -33 -8 -107 -9 -164 -1 -58 -4 -107 -6 -111 -2 -3 -6 -71 -9 -150 -8
-181 -14 -230 -29 -230 -9 0 -9 -2 0 -8 10 -6 10 -15 1 -40 -9 -24 -10 -35 -2
-40 11 -7 2 -131 -11 -152 -4 -6 -1 -10 4 -10 6 0 11 -13 11 -30 0 -16 -5 -30
-11 -30 -6 0 -9 -6 -6 -13 3 -7 2 -32 -3 -55 -4 -25 -4 -39 2 -36 13 8 -2 -69
-16 -78 -8 -5 -7 -11 2 -20 16 -16 16 -90 0 -110 -7 -9 -20 -18 -28 -21 -10
-4 -7 -6 8 -6 22 -1 31 -25 12 -36 -5 -3 -10 -15 -10 -25 0 -10 -6 -20 -12
-23 -9 -3 -8 -9 5 -18 16 -13 17 -28 13 -139 -3 -69 -8 -168 -11 -221 -7 -92
-6 -96 19 -126 14 -16 22 -33 19 -37 -4 -4 0 -4 9 -1 9 4 19 2 23 -4 18 -29
85 21 85 63 0 16 4 25 10 21 6 -3 10 1 10 9 0 9 -4 16 -10 16 -5 0 -10 7 -10
15 0 8 6 14 13 13 13 -3 13 5 2 35 -5 12 -2 17 9 17 10 0 16 -9 16 -22 0 -23
1 -23 13 2 11 21 11 26 0 33 -18 11 -17 27 2 27 8 0 15 5 15 10 0 7 -7 7 -21
0 -11 -7 -22 -10 -24 -8 -8 8 -8 134 -1 157 6 18 10 21 17 10 6 -9 9 4 9 36
-1 45 -2 48 -15 31 -13 -17 -14 -16 -11 10 1 16 8 28 14 26 16 -3 15 15 0 21
-10 3 -9 8 2 22 9 11 10 16 3 11 -7 -4 -13 -3 -13 3 0 5 5 13 10 16 6 3 10 17
10 31 0 13 -4 24 -10 24 -5 0 -10 10 -10 23 0 18 2 19 10 7 7 -11 10 -7 11 20
1 19 1 46 0 60 -2 20 0 22 9 10 8 -11 9 -4 5 30 -3 25 -9 53 -12 64 -3 10 1
23 8 28 11 7 11 11 2 15 -16 6 -17 43 -2 43 13 0 7 198 -6 220 -6 9 -4 11 4 5
10 -5 11 2 7 29 -4 27 -2 36 8 36 10 0 14 12 12 43 -1 35 2 42 16 39 21 -3 14
23 -8 32 -17 6 -20 76 -3 76 8 0 8 4 2 13 -13 16 -16 87 -4 87 5 0 12 -6 14
-12 3 -7 6 -3 6 8 1 12 -5 27 -13 34 -17 13 -14 72 4 78 5 2 10 15 10 29 0 19
-4 24 -16 19 -8 -3 -12 -2 -9 4 3 5 8 108 10 227 2 120 6 259 9 308 4 50 8
164 11 254 2 90 7 178 10 195 2 17 7 101 10 186 9 273 16 422 26 557 5 73 8
136 7 141 -4 11 70 79 182 166 47 37 94 74 105 84 42 35 161 128 185 144 14 9
75 57 135 107 61 51 117 98 126 105 9 7 42 31 75 54 32 22 66 48 75 59 19 21
44 41 82 66 16 10 37 26 47 35 35 32 55 47 55 42 0 -2 11 7 25 20 37 36 80 72
119 100 18 14 52 43 75 65 23 22 61 56 85 75 24 19 70 58 101 85 32 28 84 73
116 100 32 28 79 68 104 91 25 22 77 67 115 99 39 31 95 81 125 109 66 62 140
120 160 128 13 5 14 -10 8 -113 -3 -65 -9 -135 -12 -156 -4 -21 -8 -81 -11
-133 -13 -267 -17 -332 -26 -410 -9 -85 -12 -125 -24 -320 -3 -58 -12 -163
-20 -235 -7 -71 -14 -159 -14 -195 -1 -63 -18 -294 -26 -355 -5 -36 -12 -122
-20 -233 -4 -45 -8 -99 -10 -120 -2 -20 -9 -111 -15 -202 -10 -156 -27 -359
-36 -425 -2 -16 -6 -64 -9 -105 -3 -41 -8 -95 -11 -120 -3 -25 -7 -79 -10
-120 -2 -41 -9 -111 -14 -154 -6 -44 -10 -114 -10 -156 0 -71 2 -78 28 -101
27 -24 101 -41 88 -20 -4 6 2 8 14 6 24 -5 38 21 21 38 -14 14 -15 57 -1 57
14 0 12 37 -2 43 -7 3 2 8 20 12 42 10 42 33 -1 26 -11 -2 -5 73 7 81 6 4 6
11 -1 20 -12 15 -12 66 1 86 9 15 10 171 2 180 -3 3 -2 10 4 17 9 11 29 206
37 360 8 180 10 202 15 211 2 5 6 45 7 89 1 44 6 123 11 175 28 291 36 387 49
610 6 91 15 223 21 293 5 70 9 131 9 135 -1 4 0 9 1 12 1 3 4 59 6 125 2 66 8
172 13 235 5 63 12 178 15 255 4 77 11 185 15 240 5 55 9 107 9 115 7 147 16
262 27 336 7 49 11 102 8 117 -6 31 -35 52 -83 60 -19 2 -44 7 -55 10 -12 3
-48 8 -80 12 -33 3 -82 10 -110 15 -27 5 -79 11 -115 14 -36 3 -123 12 -195
21 -71 8 -227 25 -345 36 -118 12 -249 25 -290 29 -228 24 -302 30 -470 40
-102 6 -309 11 -459 12 l-275 2 -7 -28 c-6 -22 -3 -33 16 -52 26 -26 30 -27
205 -25 228 3 739 -26 965 -54 116 -14 441 -49 575 -60 36 -4 112 -12 170 -20
58 -8 166 -22 241 -31 l136 -18 -31 -25 c-17 -14 -50 -44 -74 -65 -23 -22 -52
-47 -64 -55 -11 -9 -38 -32 -58 -51 -20 -19 -61 -55 -90 -80 -29 -25 -58 -49
-64 -55 -6 -5 -41 -35 -76 -65 -36 -30 -67 -57 -70 -60 -3 -3 -50 -44 -105
-90 -55 -47 -107 -92 -115 -101 -8 -9 -35 -31 -60 -50 -25 -18 -49 -39 -55
-45 -5 -6 -35 -31 -65 -55 -30 -25 -66 -54 -80 -66 -64 -54 -203 -163 -209
-163 -3 0 -19 -12 -36 -28 -75 -68 -154 -132 -163 -132 -6 0 -12 -3 -14 -8 -1
-4 -25 -25 -53 -47 -27 -22 -52 -42 -55 -45 -3 -3 -32 -25 -65 -50 -32 -25
-66 -52 -75 -60 -8 -9 -49 -41 -90 -72 -41 -31 -84 -65 -95 -75 -11 -10 -38
-31 -60 -47 -22 -17 -42 -33 -45 -36 -3 -3 -34 -28 -70 -55 -35 -28 -75 -60
-87 -72 -31 -30 -56 -36 -100 -24 -21 6 -74 11 -118 11 -44 0 -121 5 -172 10
-194 21 -446 40 -628 50 -104 5 -271 14 -370 20 -499 29 -656 32 -1772 34
-304 1 -553 2 -553 3 0 4 136 170 185 227 34 39 56 56 68 52 12 -3 17 2 17 17
0 14 35 56 96 117 53 52 153 163 222 245 70 83 144 168 165 190 22 22 51 56
65 75 14 19 36 46 49 60 24 28 108 130 138 171 35 46 132 162 172 206 21 22
47 52 57 65 11 12 47 55 80 94 34 39 86 103 116 142 47 61 70 84 70 69 0 -6
-66 -130 -115 -217 -75 -133 -148 -282 -220 -450 -18 -41 -49 -109 -68 -150
-69 -146 -127 -283 -127 -300 0 -10 14 -30 30 -43 17 -14 30 -30 30 -35 0 -5
8 -16 18 -24 22 -20 319 -121 432 -147 113 -26 429 -77 560 -91 58 -6 130 -15
160 -21 280 -50 1174 -99 1275 -70 43 12 95 61 95 89 0 12 7 33 16 46 14 22
14 25 -4 38 -17 11 -21 35 -31 178 -7 91 -16 192 -21 225 -5 33 -10 103 -11
155 -2 52 -6 111 -10 130 -4 19 -11 82 -14 140 -4 58 -9 119 -11 135 -2 17 -6
129 -9 250 -9 304 -18 400 -40 425 -14 16 -33 20 -104 22 l-86 3 -8 50 c-4 28
-12 79 -18 115 -17 116 -31 173 -67 283 -34 105 -53 136 -152 258 -16 20 -155
82 -235 105 -27 8 -97 17 -155 20 -179 10 -333 -41 -439 -146 -68 -67 -98
-102 -132 -155 -46 -72 -123 -284 -135 -374 l-7 -53 -71 3 c-116 4 -121 3
-134 -33 -6 -18 -28 -58 -47 -88 -20 -30 -50 -82 -67 -115 -38 -75 -36 -73
-54 -47 -8 12 -23 22 -32 22 -25 -1 -91 -64 -172 -165 -39 -49 -86 -106 -103
-125 -148 -164 -272 -310 -357 -421 -14 -18 -41 -51 -61 -73 -101 -114 -168
-191 -258 -296 -54 -63 -117 -133 -140 -155 l-41 -39 -1 34 c-1 19 -1 38 -1
41 2 13 -49 340 -67 434 -11 55 -27 159 -36 230 -9 72 -25 191 -36 265 -13 88
-20 185 -20 278 1 136 0 144 -22 166 -24 24 -12 22 -325 45 -56 4 -106 11
-112 17 -5 5 -4 51 2 117 l12 107 60 2 c34 1 70 1 81 0 36 -2 219 47 327 87
191 72 328 160 484 312 34 32 68 59 76 59 8 0 25 -12 39 -26 37 -40 194 -142
236 -153 68 -19 100 -11 88 21 -3 7 -29 29 -58 48 -60 40 -179 128 -221 164
l-29 24 31 49 c46 71 79 152 123 298 57 189 66 285 45 520 -16 190 -22 219
-78 395 -48 153 -122 275 -237 389 -60 61 -97 87 -176 128 -121 62 -280 116
-401 137 -75 13 -348 39 -364 35 -3 -1 -54 -5 -113 -10z m323 -104 c220 -18
428 -82 591 -181 100 -60 212 -209 267 -354 69 -181 92 -316 94 -534 0 -152
-5 -198 -38 -321 -49 -183 -116 -341 -151 -352 -19 -7 -223 252 -223 283 0 3
-9 18 -19 32 -37 52 -246 522 -256 575 -4 20 -16 49 -27 63 -11 14 -21 43 -22
64 -3 45 -29 80 -61 80 -21 0 -23 -6 -30 -77 -20 -226 -145 -593 -291 -856
-64 -115 -148 -257 -179 -302 -41 -61 -165 -231 -187 -257 l-23 -28 -45 30
c-116 76 -226 159 -279 210 -85 81 -188 263 -238 420 -59 183 -73 466 -35 692
32 189 79 306 173 433 59 80 230 248 274 270 22 10 51 26 65 35 106 69 357 98
640 75z m280 -1144 c81 -189 126 -280 203 -411 29 -49 127 -177 176 -229 30
-32 38 -48 32 -60 -14 -25 -162 -158 -237 -212 -37 -27 -99 -64 -138 -83 -274
-132 -495 -170 -688 -117 -60 16 -85 28 -80 35 5 6 38 49 73 96 35 47 88 113
117 148 30 35 50 67 46 74 -4 7 -3 8 4 4 7 -4 12 -1 12 7 0 8 6 20 14 27 8 6
12 19 9 27 -4 10 -2 14 4 10 15 -9 37 19 30 38 -4 8 -1 17 5 21 7 5 8 2 4 -7
-4 -8 0 -5 8 6 9 11 15 24 12 31 -2 6 4 17 15 24 10 8 21 26 24 42 4 15 10 30
15 33 9 6 56 101 94 191 33 80 107 305 136 418 23 87 24 88 36 60 7 -16 41
-94 74 -173z m2498 -830 c221 -61 295 -177 351 -551 10 -69 17 -127 16 -130
-5 -9 -357 16 -485 34 -155 21 -367 36 -528 36 l-132 0 6 28 c12 53 77 237 99
282 53 105 151 212 235 256 126 65 301 83 438 45z m-603 -721 c154 -5 334 -16
400 -25 66 -9 226 -25 355 -35 129 -11 278 -25 331 -32 l96 -12 7 -65 c3 -36
6 -149 7 -251 1 -102 4 -229 8 -283 3 -55 3 -101 -1 -104 -5 -2 -8 2 -8 10 0
16 -29 27 -75 27 -16 0 -82 -19 -145 -41 -63 -23 -141 -46 -172 -52 -32 -6
-58 -14 -58 -18 0 -7 -53 -24 -165 -54 -27 -8 -99 -27 -160 -44 -189 -51 -231
-58 -253 -38 -10 9 -56 40 -103 68 -83 50 -202 137 -249 181 -13 13 -34 30
-46 38 -126 88 -272 212 -343 292 -22 25 -22 29 -10 59 29 68 122 257 162 327
l42 73 50 -5 c28 -3 176 -10 330 -16z m-584 -543 c26 -29 115 -107 199 -173
84 -65 178 -141 209 -167 31 -27 94 -74 141 -104 47 -31 115 -75 151 -99 38
-25 78 -44 93 -44 15 0 125 25 244 56 120 31 261 67 316 80 54 13 128 37 165
53 36 16 110 44 164 61 68 23 97 37 97 48 0 10 3 13 10 6 5 -5 16 -99 25 -209
8 -110 20 -261 26 -335 27 -344 26 -331 8 -341 -23 -12 -311 -12 -459 1 -63 5
-165 11 -227 14 -101 5 -402 32 -463 41 -14 2 -98 13 -186 24 -89 11 -223 36
-299 55 -76 20 -188 45 -249 56 -281 52 -426 86 -444 104 -11 11 -10 20 7 52
11 21 36 80 56 129 21 50 40 95 44 100 4 6 27 55 50 110 67 157 255 535 266
535 5 0 31 -24 56 -53z m-3294 -3483 c-3 -3 -12 -4 -19 -1 -8 3 -5 6 6 6 11 1
17 -2 13 -5z m96 -11 c-7 -2 -19 -2 -25 0 -7 3 -2 5 12 5 14 0 19 -2 13 -5z
m60 -10 c-7 -2 -19 -2 -25 0 -7 3 -2 5 12 5 14 0 19 -2 13 -5z"/>
<path d="M12800 8300 c0 -5 5 -10 10 -10 6 0 10 5 10 10 0 6 -4 10 -10 10 -5
0 -10 -4 -10 -10z"/>
<path d="M14215 7020 c-3 -5 -1 -10 4 -10 6 0 11 5 11 10 0 6 -2 10 -4 10 -3
0 -8 -4 -11 -10z"/>
<path d="M3888 3513 c6 -2 18 -2 25 0 6 3 1 5 -13 5 -14 0 -19 -2 -12 -5z"/>
<path d="M16364 2538 c0 -10 1 -18 1 -18 0 0 8 9 17 19 16 18 15 20 -1 18 -9
0 -17 -9 -17 -19z"/>
<path d="M16580 2540 c6 -11 15 -20 20 -20 6 0 2 9 -7 20 -10 11 -19 20 -21
20 -1 0 2 -9 8 -20z"/>
<path d="M16398 2528 c5 -5 16 -8 23 -6 8 3 3 7 -10 11 -17 4 -21 3 -13 -5z"/>
<path d="M16550 2530 c-9 -6 -10 -10 -3 -10 6 0 15 5 18 10 8 12 4 12 -15 0z"/>
<path d="M16367 2513 c-9 -2 -15 -9 -12 -14 9 -14 22 -11 29 6 3 8 4 14 3 14
-1 -1 -10 -3 -20 -6z"/>
<path d="M16576 2507 c3 -10 9 -15 12 -12 3 3 0 11 -7 18 -10 9 -11 8 -5 -6z"/>
<path d="M16112 1730 c0 -19 2 -27 5 -17 2 9 2 25 0 35 -3 9 -5 1 -5 -18z"/>
<path d="M16311 1720 c0 -8 4 -22 9 -30 12 -18 12 -2 0 25 -6 13 -9 15 -9 5z"/>
<path d="M16324 1330 c0 -13 4 -16 10 -10 7 7 7 13 0 20 -6 6 -10 3 -10 -10z"/>
<path d="M16130 1310 c-8 -5 -11 -12 -7 -17 5 -4 12 -1 16 6 7 11 10 11 14 0
4 -10 6 -9 6 4 1 19 -7 21 -29 7z"/>
</g>
</svg>
