<?xml version="1.0" encoding="UTF-8" standalone="no"?>
<svg
   xmlns:dc="http://purl.org/dc/elements/1.1/"
   xmlns:cc="http://creativecommons.org/ns#"
   xmlns:rdf="http://www.w3.org/1999/02/22-rdf-syntax-ns#"
   xmlns:svg="http://www.w3.org/2000/svg"
   xmlns="http://www.w3.org/2000/svg"
   xmlns:sodipodi="http://sodipodi.sourceforge.net/DTD/sodipodi-0.dtd"
   xmlns:inkscape="http://www.inkscape.org/namespaces/inkscape"
   version="1.0"
   width="62.969097pt"
   height="127.18723pt"
   viewBox="0 0 62.969097 127.18723"
   preserveAspectRatio="xMidYMid meet"
   id="svg16"
   sodipodi:docname="010-hands.svg"
   inkscape:version="1.0.2 (e86c870879, 2021-01-15)">
  <defs
     id="defs20" />
  <sodipodi:namedview
     pagecolor="#ffffff"
     bordercolor="#666666"
     borderopacity="1"
     objecttolerance="10"
     gridtolerance="10"
     guidetolerance="10"
     inkscape:pageopacity="0"
     inkscape:pageshadow="2"
     inkscape:window-width="1600"
     inkscape:window-height="836"
     id="namedview18"
     showgrid="false"
     inkscape:zoom="1.8750237"
     inkscape:cx="41.158414"
     inkscape:cy="135.81953"
     inkscape:window-x="0"
     inkscape:window-y="0"
     inkscape:window-maximized="1"
     inkscape:current-layer="svg16"
     fit-margin-top="0"
     fit-margin-left="0"
     fit-margin-right="0"
     fit-margin-bottom="0"
     inkscape:document-rotation="0" />
  <metadata
     id="metadata2">
Created by potrace 1.16, written by Peter Selinger 2001-2019
<rdf:RDF>
  <cc:Work
     rdf:about="">
    <dc:format>image/svg+xml</dc:format>
    <dc:type
       rdf:resource="http://purl.org/dc/dcmitype/StillImage" />
    <dc:title></dc:title>
  </cc:Work>
</rdf:RDF>
</metadata>
  <g
     transform="matrix(0.1,0,0,-0.1,-15.544596,132)"
     fill="#000000"
     stroke="none"
     id="g14">
    <path
       fill="#000000"
       stroke="none"
       d="m 477,1300 c -22,-17 -26,-18 -37,-5 -7,8 -26,15 -41,15 -34,0 -45,-20 -51,-90 -3,-40 -7,-45 -33,-50 -42,-9 -75,-28 -75,-44 0,-20 34,-46 74,-57 26,-7 36,-15 36,-30 0,-37 29,-77 65,-90 33,-12 35,-16 35,-56 0,-49 10,-46 -130,-43 -103,2 -108,-1 -115,-68 -3,-32 -13,-109 -21,-172 -16,-124 -34,-382 -27,-390 15,-17 31,43 36,141 3,61 14,167 24,235 l 17,124 46,-178 c 52,-200 120,-412 131,-412 21,0 16,31 -25,162 -44,139 -108,389 -122,476 l -7,42 h 69 c 38,1 138,3 222,7 177,6 165,19 127,-126 C 599,398 541,135 550,126 c 17,-17 25,4 54,129 47,211 129,543 136,554 54.83516,64.16903 -35.36505,7.19442 -86,46 l -174,-8 v 47 c 0,43 2,47 35,61 27,11 41,26 56,60 16,36 29,49 59,61 68,27 59,84 -15,98 -31,6 -34,11 -45,58 -11,53 -33,88 -55,88 -7,0 -24,-9 -38,-20 z"
       id="path4"
       sodipodi:nodetypes="ccsccscscsccccccccsccccccsccccscccccsc" />
    <path
       fill="#ffffff"
       stroke="none"
       d="m 417,1266 c 12,-22 49,-23 71,-3 25,23 38,16 47,-24 9,-40 -4,-49 -75,-49 -73,0 -83,8 -75,54 8,38 19,46 32,22 z"
       id="path6" />
    <path
       fill="#ffffff"
       stroke="none"
       d="m 540,1158 c 0,-20 -150,-23 -157,-3 -2,6 28,10 77,10 44,0 80,-3 80,-7 z"
       id="path8" />
    <path
       fill="#ffffff"
       stroke="none"
       d="m 353,1128 c 5,-18 185,-18 219,0 28,15 59,13 65,-4 7,-20 -28,-27 -158,-32 -144,-5 -219,9 -184,34 23,17 52,18 58,2 z"
       id="path10" />
    <path
       fill="#ffffff"
       stroke="none"
       d="m 550,1045 c 0,-31 -47,-65 -87,-65 -44,0 -55,6 -72,37 -20,40 -15,43 74,43 70,0 85,-3 85,-15 z"
       id="path12" />
  </g>
  <g
     transform="matrix(-0.09990793,-0.00429023,0.00429023,-0.09990793,77.120151,132.40857)"
     fill="#000000"
     stroke="none"
     id="g92">
    <path
       fill="#000000"
       stroke="none"
       d="M 320,850 C 217,852 190.41154,864.05707 205,782 202,750 192,673 184,610 168,486 150,228 157,220 c 15,-17 31,43 36,141 3,61 14,167 24,235 l 17,124 30,48 -7,42 h 69 c 8.41678,10.5326 7.48158,39.84297 -6,40 z"
       id="path90"
       sodipodi:nodetypes="ccccccccccc" />
  </g>
  <path
     style="fill:#000000;stroke-width:0.707467"
     d="m -85.392318,103.05504 c -1.561972,-0.32676 -2.233898,-1.0559 -2.996082,-3.251101 -0.540393,-1.55643 -0.987327,-3.10519 -0.993187,-3.44171 -0.0059,-0.33652 2.456642,-3.15896 5.472221,-6.27211 5.19796,-5.36611 5.364214,-5.63489 3.1995,-5.17203 -2.907416,0.62163 -5.148416,-0.0814 -5.133144,-1.61043 0.01356,-1.34545 11.433697,-7.20387 14.043008,-7.20387 2.13602,0 6.261398,-1.80172 9.123038,-3.9844 2.456332,-1.87355 3.487955,-1.84926 2.753463,0.0649 -0.746231,1.94465 -6.761421,5.17132 -11.048051,5.9264 -2.290638,0.40346 -5.860155,1.70582 -7.932271,2.8941 -3.771083,2.16255 -3.433996,2.84711 0.69346,1.40827 1.207773,-0.42103 2.767491,-0.64235 3.466044,-0.49181 0.978684,0.21106 -0.31253,1.89767 -5.627711,7.35168 -3.793793,3.89287 -6.897806,7.29776 -6.897806,7.56645 0,1.25033 1.676132,0.13324 6.133388,-4.08736 2.657798,-2.51673 5.071125,-4.58607 5.362956,-4.59854 1.728328,-0.0737 -0.140904,2.5572 -4.775404,6.72144 -2.918303,2.6222 -5.306005,5.04274 -5.306005,5.378991 0,1.47105 1.789922,0.26795 6.984173,-4.694661 3.054555,-2.91831 5.75713,-5.30601 6.005719,-5.30601 1.425249,0 -0.142437,2.15672 -4.677151,6.43448 -2.821026,2.66119 -4.700236,4.848971 -4.176018,4.861761 0.524219,0.0118 3.156516,-2.103971 5.849546,-4.703851 3.296444,-3.18245 5.129895,-4.49363 5.610923,-4.01261 0.481034,0.48105 -0.576559,1.93554 -3.236551,4.45127 -2.173083,2.05522 -3.804078,3.883721 -3.624425,4.063391 0.70826,0.70826 10.673806,-9.537391 13.786777,-14.174281 2.935824,-4.37303 8.84682,-9.65457 10.805219,-9.65457 1.411459,0 0.499286,2.15477 -1.315317,3.10714 -2.406268,1.26283 -6.52829,5.59836 -8.550303,8.99312 -0.835185,1.40223 -4.196262,5.1202 -7.469056,8.26221 l -5.950528,5.712731 -3.783438,-0.0587 c -2.080885,-0.0324 -4.689529,-0.2485 -5.796987,-0.48007 z m -19.918372,-3.05059 c -5.43687,-2.923731 -15.31834,-10.196761 -17.61824,-12.967491 -1.87454,-2.25827 -4.20431,-4.00226 -7.25154,-5.42825 -2.53198,-1.18483 -4.48967,-2.5554 -4.48967,-3.14313 0,-0.75749 0.43484,-0.90544 1.5918,-0.54157 3.57462,1.12429 9.23454,4.89883 11.35778,7.57438 2.86064,3.60481 18.17898,13.94082 18.17898,12.26625 0,-0.14887 -2.08526,-1.62924 -4.6339,-3.28975 -3.12417,-2.03548 -4.40077,-3.25223 -3.91834,-3.73464 0.48242,-0.48243 2.58465,0.47412 6.45249,2.93599 5.38124,3.42515 7.62114,4.4373 6.769184,3.05883 -0.20148,-0.32603 -2.926334,-2.14036 -6.055224,-4.03186 -3.12889,-1.89147 -5.68889,-3.85325 -5.68889,-4.3595 0,-1.31896 0.74713,-1.15105 3.64733,0.81969 3.43708,2.33555 9.137501,5.65997 10.738001,6.26229 3.094274,1.16443 0.332867,-1.19633 -5.842051,-4.99442 -6.10681,-3.75621 -8.42182,-5.83787 -6.49229,-5.83787 0.41468,0 2.77895,1.23942 5.25394,2.75428 2.47499,1.51487 5.584609,3.28501 6.910267,3.93367 l 2.410288,1.17935 -1.768668,-1.43242 c -0.972767,-0.78782 -4.15637,-2.92844 -7.074677,-4.75692 -9.10451,-5.70452 -9.97209,-7.0658 -4.06793,-6.38295 l 3.7142,0.42955 -3.89107,-1.81332 c -2.14009,-0.99736 -5.64205,-2.07951 -7.78214,-2.4048 -4.37139,-0.66446 -8.21065,-1.94138 -12.80321,-4.25831 -3.77804,-1.906 -3.71033,-1.84882 -3.18865,-2.69294 0.24334,-0.39374 2.74079,0.32658 5.90745,1.70382 3.01723,1.31226 6.91849,2.575 8.66948,2.80611 4.16006,0.54908 16.969568,5.39862 16.974998,6.42657 0.0065,1.19901 -1.529298,2.23185 -3.717158,2.50016 -1.7377,0.21312 -1.25097,0.66428 4.42059,4.09765 l 6.37329,3.85817 -0.19252,2.95105 c -0.22919,3.51332 -1.456893,5.24128 -3.368679,4.74133 -0.763908,-0.19986 -1.388923,-0.0448 -1.388923,0.34427 0,1.04045 -2.588387,1.538451 -3.460958,0.66588 -0.5289,-0.52889 -1.12093,-0.41511 -2.00564,0.38554 -0.96989,0.877761 -1.57677,0.963071 -2.66972,0.375311 z m -27.10953,-40.297401 c -0.0959,-2.48819 -0.43451,-3.38882 -1.36559,-3.63213 -0.68094,-0.17805 0.0354,-0.32355 1.5918,-0.32355 1.55643,0 2.28936,0.14238 1.62874,0.31641 -0.86109,0.22698 -1.27563,1.25514 -1.46428,3.63214 l -0.26315,3.31572 z m 4.29733,-0.93621 c 0.007,-2.33464 0.1506,-3.52849 0.31924,-2.653 0.21766,1.13003 0.80539,1.5918 2.02605,1.5918 1.53542,0 1.70735,0.28387 1.60625,2.653 l -0.11323,2.653 -0.28853,-2.34189 c -0.36827,-2.98932 -2.45429,-2.8363 -3.11009,0.22816 -0.31346,1.46475 -0.44846,0.81046 -0.4397,-2.13104 z m 5.95134,3.41942 c -0.67831,-0.67831 -0.58152,-3.62176 0.13362,-4.06372 0.3329,-0.20575 0.45558,0.40895 0.27264,1.36597 -0.25578,1.33797 0.0539,1.89484 1.34027,2.40987 1.55188,0.6214 1.56628,0.67307 0.199,0.71469 -0.81064,0.0236 -1.68613,-0.16743 -1.94553,-0.42681 z m 6.07242,-0.0147 c 1.5181,-0.39672 1.60653,-1.34195 0.17687,-1.89056 -1.20258,-0.46148 -1.45863,-2.57403 -0.31198,-2.57403 0.41207,0 0.55107,0.3206 0.30889,0.71244 -0.24219,0.39188 0.0574,0.90347 0.66572,1.1369 1.78151,0.68362 1.39013,3.11758 -0.48576,3.02086 -1.19787,-0.0616 -1.28541,-0.16213 -0.35374,-0.40561 z m 3.83212,0.0147 c -0.67831,-0.67831 -0.58152,-3.62176 0.13362,-4.06372 0.3329,-0.20575 0.45559,0.40895 0.27264,1.36597 -0.25578,1.33797 0.0539,1.89484 1.34027,2.40987 1.55188,0.6214 1.56628,0.67307 0.199,0.71469 -0.81064,0.0236 -1.68613,-0.16743 -1.94553,-0.42681 z m 7.31049,-0.89562 c 0,-0.75198 0.64135,-1.57081 1.42521,-1.81961 0.78387,-0.24879 1.24262,-0.74776 1.01945,-1.10886 -0.22318,-0.36111 -0.0686,-0.65653 0.34346,-0.65653 0.41207,0 0.70586,1.19385 0.65287,2.653 -0.0596,1.6423 -0.21315,2.04659 -0.40293,1.0612 -0.3299,-1.71281 -1.24101,-2.07497 -2.02574,-0.80524 -0.26737,0.43261 -0.0474,1.06447 0.48885,1.40411 0.77109,0.48839 0.71608,0.6198 -0.26309,0.62835 -0.75577,0.006 -1.23807,-0.52179 -1.23807,-1.35642 z m 5.743446,-0.80336 c -0.07688,-2.31855 0.07935,-2.52439 1.916001,-2.52439 1.707175,0 1.954045,0.23877 1.687572,1.63284 -0.231637,1.21168 0.119355,1.81536 1.360763,2.34044 l 1.672898,0.70765 -1.768668,-0.16979 c -1.361503,-0.13059 -1.821136,-0.62738 -1.996573,-2.15731 -0.288352,-2.51451 -1.745366,-2.1219 -2.341393,0.63092 -0.435307,2.0105 -0.449068,1.99856 -0.5306,-0.46033 z m 11.415819,-1.72044 c 0.0071,-2.33464 0.150602,-3.52849 0.319235,-2.653 0.217664,1.13003 0.805399,1.5918 2.026057,1.5918 1.535416,0 1.707345,0.28387 1.60624,2.653 l -0.113225,2.653 -0.288528,-2.34189 c -0.368278,-2.98932 -2.454296,-2.8363 -3.110088,0.22816 -0.313462,1.46475 -0.448467,0.81046 -0.439709,-2.13104 z m 5.47969,2.5238 c 0,-0.75198 0.64134,-1.57081 1.425208,-1.81961 0.783865,-0.24879 1.242616,-0.74776 1.019446,-1.10886 -0.223177,-0.36111 -0.06863,-0.65653 0.34346,-0.65653 0.412073,0 0.70587,1.19385 0.65288,2.653 -0.05963,1.6423 -0.213154,2.04659 -0.402938,1.0612 -0.3299,-1.71281 -1.241003,-2.07497 -2.025741,-0.80524 -0.267363,0.43261 -0.0474,1.06447 0.488845,1.40411 0.771099,0.48839 0.716084,0.6198 -0.263089,0.62835 -0.755773,0.006 -1.238068,-0.52179 -1.238071,-1.35642 z m 5.035971,-0.932 c -0.07871,-2.49474 0.04292,-2.653 2.038702,-2.653 2.001036,0 2.115929,0.15181 2.009178,2.653 l -0.113224,2.653 -0.288529,-2.34189 c -0.368278,-2.98932 -2.454296,-2.8363 -3.110088,0.22816 -0.436528,2.03983 -0.455276,2.021 -0.536057,-0.53924 z m 6.552939,1.2735 c -0.695399,-1.81218 0.06353,-3.56773 1.639824,-3.79314 0.923442,-0.13206 1.661663,-0.84089 1.841967,-1.76867 0.165489,-0.85156 0.344248,0.21283 0.397237,2.36533 0.09123,3.70654 0.0014,3.92149 -1.696789,4.06204 -1.016822,0.084 -1.961595,-0.29065 -2.182239,-0.86556 z m 3.140241,-1.68265 c 0.16991,-1.15476 -0.137603,-1.53638 -1.238068,-1.53638 -0.948127,0 -1.464139,0.45711 -1.464139,1.29702 0,2.68952 2.311549,2.89428 2.702207,0.23936 z m 3.841866,2.22074 c 1.518098,-0.39671 1.606522,-1.34195 0.176866,-1.89056 -1.202573,-0.46148 -1.458626,-2.57403 -0.311978,-2.57403 0.41207,0 0.551067,0.3206 0.308886,0.71245 -0.24216,0.39188 0.05736,0.90346 0.665721,1.1369 1.781509,0.68362 1.390129,3.11757 -0.485762,3.02085 -1.197863,-0.0616 -1.285403,-0.16212 -0.353733,-0.40561 z m -55.830962,-3.37226 c 0,-0.56657 0.2653,-0.86612 0.58956,-0.66573 0.32425,0.20045 0.58955,0.66393 0.58955,1.03007 0,0.36615 -0.2653,0.66573 -0.58955,0.66573 -0.32426,0 -0.58956,-0.46354 -0.58956,-1.03007 z m 9.90454,0 c 0,-0.56657 0.2653,-0.86612 0.58956,-0.66573 0.32426,0.20045 0.58956,0.66393 0.58956,1.03007 0,0.36615 -0.2653,0.66573 -0.58956,0.66573 -0.32426,0 -0.58956,-0.46354 -0.58956,-1.03007 z m 16.271751,0 c 0,-0.56657 0.265301,-0.86612 0.589556,-0.66573 0.324256,0.20045 0.589556,0.66393 0.589556,1.03007 0,0.36615 -0.2653,0.66573 -0.589556,0.66573 -0.324255,0 -0.589556,-0.46354 -0.589556,-1.03007 z m -5.334571,-17.34851 c -4.16619,-1.064478 -8.46405,-2.519001 -9.55081,-3.232275 -1.08676,-0.713304 -4.18434,-1.971977 -6.88351,-2.79712 -4.97897,-1.522027 -6.93685,-3.183249 -3.75173,-3.183249 2.31099,0 9.68945,2.582462 11.14686,3.901388 1.28104,1.159332 16.574654,5.295686 19.580063,5.295686 2.215437,0 1.955917,-0.488034 -0.505789,-0.951189 -5.449455,-1.025238 -8.473672,-2.131451 -8.473672,-3.099561 0,-0.717755 0.394095,-0.896951 1.238068,-0.562997 1.956404,0.774146 10.289419,2.472156 11.850077,2.414645 0.778214,-0.02948 -1.605025,-0.84109 -5.296085,-1.805398 -7.329942,-1.915025 -7.420465,-1.954378 -6.801007,-2.956682 0.26362,-0.426544 1.29901,-0.452308 2.723846,-0.0678 5.969023,1.610873 12.019675,2.849678 12.342395,2.526955 0.373923,-0.373926 -2.655387,-1.275121 -8.628887,-2.567016 -1.945535,-0.420766 -4.111992,-0.939546 -4.814347,-1.152847 -1.465858,-0.445174 -1.171201,-2.168977 0.304243,-1.779899 0.535022,0.141198 3.00714,0.69093 5.493593,1.221884 2.486455,0.530925 5.192518,1.167586 6.013468,1.414787 0.991389,0.298522 1.255068,0.213125 0.785183,-0.254393 -0.389107,-0.387191 -2.776809,-1.240456 -5.306005,-1.896189 -2.529195,-0.655705 -6.031158,-1.568544 -7.78214,-2.028515 -3.545867,-0.931528 -4.243011,-2.600267 -1.414934,-3.386941 3.165173,-0.880414 -4.11817,-0.71463 -8.51672,0.193964 -5.53696,1.14365 -15.06346,-0.828945 -13.16618,-2.726225 0.21466,-0.214599 2.47896,0.02358 5.03181,0.53231 3.60455,0.716487 5.39036,0.741042 7.99331,0.109952 1.84348,-0.446972 5.87404,-0.898365 8.956808,-1.003071 6.373476,-0.216367 7.618385,0.732848 4.363953,3.327838 l -1.906972,1.520583 4.100242,0.917585 c 9.71895,2.17502 10.605329,2.615124 11.073198,5.498289 0.374468,2.307581 0.159622,2.882074 -1.719753,4.598625 -1.181222,1.078888 -2.57151,1.961606 -3.089524,1.961606 -0.518016,0 -1.125094,0.47754 -1.349069,1.0612 -0.598998,1.56096 -5.170846,1.22047 -14.039983,-1.04564 z m -38.6367,-27.024312 c -0.0959,-2.488192 -0.43451,-3.388827 -1.36559,-3.632137 -0.68094,-0.178046 0.0354,-0.323548 1.5918,-0.323548 1.55643,0 2.28936,0.142378 1.62874,0.316444 -0.86109,0.226979 -1.27563,1.255106 -1.46428,3.632137 l -0.26315,3.315693 z m 4.29733,-0.936215 c 0.007,-2.334642 0.1506,-3.5284927 0.31923,-2.653002 0.21767,1.130032 0.8054,1.591801 2.02606,1.591801 1.53542,0 1.70735,0.283872 1.60624,2.653003 l -0.11322,2.653002 -0.28853,-2.341894 c -0.36827,-2.989314 -2.45429,-2.836295 -3.11009,0.228159 -0.31346,1.464752 -0.44846,0.810462 -0.43971,-2.131039 z m 5.6581,1.414935 c 0.008,-1.556428 0.15273,-2.109844 0.32196,-1.229814 0.16923,0.88003 0.1628,2.153471 -0.0142,2.829869 -0.17708,0.676398 -0.31553,-0.04363 -0.30768,-1.600055 z m 3.53579,1.988455 c 1.5181,-0.396713 1.60653,-1.341948 0.17687,-1.890559 -1.20258,-0.461475 -1.45863,-2.574032 -0.31198,-2.574032 0.41207,0 0.55107,0.320601 0.30889,0.712479 -0.24219,0.391848 0.0574,0.903436 0.66572,1.13687 1.78151,0.68365 1.39013,3.117573 -0.48576,3.020856 -1.19787,-0.06161 -1.28541,-0.162128 -0.35374,-0.405614 z m 5.66129,-1.988455 c 0.008,-1.556428 0.15272,-2.109844 0.32195,-1.229814 0.16923,0.88003 0.16281,2.153471 -0.0142,2.829869 -0.17707,0.676398 -0.31553,-0.04363 -0.30768,-1.600055 z m 3.53579,1.988455 c 1.5181,-0.396713 1.60652,-1.341948 0.17686,-1.890559 -1.20257,-0.461475 -1.45862,-2.574032 -0.31198,-2.574032 0.41207,0 0.55108,0.320601 0.3089,0.712479 -0.24219,0.391848 0.0574,0.903436 0.66571,1.13687 1.78151,0.68365 1.39013,3.117573 -0.48576,3.020856 -1.19786,-0.06161 -1.2854,-0.162128 -0.35373,-0.405614 z m 6.19034,-0.879589 c 0,-0.751978 0.64134,-1.570813 1.4252,-1.819605 0.78387,-0.248793 1.24262,-0.747764 1.01945,-1.108867 -0.22317,-0.361103 -0.0686,-0.65653 0.34346,-0.65653 0.41207,0 0.70587,1.193851 0.65288,2.653003 -0.0596,1.642297 -0.21316,2.046585 -0.40294,1.061201 -0.3299,-1.712779 -1.241,-2.074972 -2.02574,-0.805246 -0.26736,0.432617 -0.0474,1.064473 0.48885,1.404117 0.7711,0.488388 0.71608,0.6198 -0.26309,0.628378 -0.75577,0.0059 -1.23807,-0.521816 -1.23807,-1.356451 z m 7.25472,-2.523801 c 0.007,-2.334642 0.1506,-3.5284927 0.31923,-2.653002 0.21767,1.130032 0.8054,1.591801 2.026059,1.591801 1.535419,0 1.707345,0.283872 1.606242,2.653003 l -0.113224,2.653002 -0.288529,-2.341894 c -0.368275,-2.989314 -2.454298,-2.836295 -3.110088,0.228159 -0.31346,1.464752 -0.44847,0.810462 -0.43971,-2.131039 z m 6.187154,2.523801 c 0,-0.751978 0.641343,-1.570813 1.425208,-1.819605 0.783865,-0.248793 1.242616,-0.747764 1.019448,-1.108867 -0.223176,-0.361103 -0.06859,-0.65653 0.343461,-0.65653 0.41207,0 0.705864,1.193851 0.652874,2.653003 -0.05963,1.642297 -0.213154,2.046585 -0.402938,1.061201 -0.329897,-1.712779 -1.241003,-2.074972 -2.025738,-0.805246 -0.267363,0.432617 -0.0474,1.064473 0.488848,1.404117 0.771098,0.488388 0.716081,0.6198 -0.263089,0.628378 -0.75577,0.0059 -1.238068,-0.521816 -1.238068,-1.356451 z M -90.016,15.084734 c -0.0787,-2.494736 0.04292,-2.653003 2.038697,-2.653003 2.001036,0 2.115929,0.151811 2.009178,2.653003 l -0.113225,2.653002 -0.288528,-2.341894 c -0.368275,-2.989314 -2.454296,-2.836295 -3.110088,0.228159 -0.436531,2.039834 -0.455276,2.020998 -0.536051,-0.539238 z m 6.552934,1.2735 c -0.695399,-1.812178 0.06352,-3.567728 1.639823,-3.793145 0.923443,-0.132061 1.661664,-0.840884 1.841968,-1.768668 0.165489,-0.8515547 0.344248,0.21283 0.397237,2.365328 0.09123,3.706539 0.0014,3.921491 -1.696789,4.062042 -1.016822,0.08401 -1.961595,-0.290652 -2.182239,-0.865557 z m 3.140241,-1.682652 c 0.16991,-1.154764 -0.137603,-1.536383 -1.238068,-1.536383 -0.948127,0 -1.464139,0.457112 -1.464139,1.297023 0,2.689525 2.311549,2.894278 2.702207,0.23936 z"
     id="path164" />
  <path
     style="fill:#000000;stroke-width:0.409503"
     d="m 55.420014,126.98244 c -0.844952,0.37317 -1.406965,0.25684 -2.505958,-0.51865 -0.779193,-0.54985 -1.511845,-1.12761 -1.628112,-1.28393 -0.116289,-0.1563 0.09001,-2.31458 0.458397,-4.79617 0.634992,-4.27749 0.62253,-4.45999 -0.239594,-3.51208 -1.157925,1.27312 -2.4492,1.69833 -2.957782,0.97395 -0.447457,-0.63746 2.9483,-7.24534 4.17569,-8.1255 1.004754,-0.7205 2.337534,-2.95955 2.947367,-4.95153 0.523453,-1.70984 1.016909,-2.0464 1.317084,-0.89825 0.304938,1.16646 -1.43613,4.71324 -3.197809,6.51436 -0.941391,0.96244 -2.181143,2.7791 -2.755014,4.037 -1.04441,2.28927 -0.654942,2.49758 0.801222,0.42851 0.426101,-0.60544 1.085119,-1.23566 1.46449,-1.40048 0.531553,-0.23085 0.493096,0.99806 -0.167385,5.35643 -0.471433,3.11085 -0.783007,5.75949 -0.692372,5.88587 0.42175,0.58814 0.833373,-0.5027 1.506342,-3.9915 0.401269,-2.08035 0.838451,-3.86779 0.971518,-3.97209 0.788121,-0.61765 0.796298,1.2504 0.02094,4.77248 -0.488232,2.21783 -0.794895,4.16182 -0.681474,4.31999 0.496209,0.69196 0.932341,-0.47772 1.701695,-4.56416 0.452437,-2.40307 0.91829,-4.43783 1.035222,-4.52168 0.670419,-0.48075 0.660493,1.06253 -0.02963,4.60435 -0.429321,2.20336 -0.57531,3.86635 -0.324413,3.69554 0.250567,-0.17128 0.775085,-2.05441 1.16488,-4.18575 0.477123,-2.60892 0.897278,-3.84414 1.2858,-3.78012 0.388536,0.064 0.381678,1.10493 -0.02096,3.18554 -0.32894,1.69976 -0.479362,3.11002 -0.334249,3.13393 0.572062,0.0943 1.803731,-8.08666 1.703947,-11.31784 -0.09411,-3.04731 0.904818,-7.52554 1.826023,-8.18613 0.663932,-0.4761 0.96169,0.84516 0.429373,1.90523 -0.705909,1.40568 -1.182427,4.83548 -0.988458,7.11438 0.08013,0.94131 -0.246755,3.82393 -0.726395,6.40584 l -0.87207,4.69438 -1.799479,1.24859 c -0.98975,0.68667 -2.289712,1.46495 -2.88876,1.72958 z"
     id="path166"
     sodipodi:nodetypes="csssscsscssscssscssssscssscsscsscccc" />
  <g
     transform="matrix(0.1,0,0,-0.1,-15.544596,132)"
     fill="#000000"
     stroke="none"
     id="g178">
    <path
       fill="#000000"
       stroke="none"
       d="m 477,1300 c -22,-17 -26,-18 -37,-5 -7,8 -26,15 -41,15 -34,0 -45,-20 -51,-90 -3,-40 -7,-45 -33,-50 -42,-9 -75,-28 -75,-44 0,-20 34,-46 74,-57 26,-7 36,-15 36,-30 0,-37 29,-77 65,-90 33,-12 35,-16 35,-56 0,-49 10,-46 -130,-43 -103,2 -108,-1 -115,-68 -3,-32 -13,-109 -21,-172 -16,-124 -34,-382 -27,-390 15,-17 31,43 36,141 3,61 14,167 24,235 l 17,124 46,-178 c 52,-200 120,-412 131,-412 21,0 16,31 -25,162 -44,139 -108,389 -122,476 l -7,42 h 69 c 38,1 138,3 222,7 177,6 165,19 127,-126 C 599,398 541,135 550,126 c 17,-17 25,4 54,129 47,211 129,543 136,554 54.83516,64.16903 -35.36505,7.19442 -86,46 l -174,-8 v 47 c 0,43 2,47 35,61 27,11 41,26 56,60 16,36 29,49 59,61 68,27 59,84 -15,98 -31,6 -34,11 -45,58 -11,53 -33,88 -55,88 -7,0 -24,-9 -38,-20 z"
       id="path168"
       sodipodi:nodetypes="ccsccscscsccccccccsccccccsccccscccccsc" />
    <path
       fill="#ffffff"
       stroke="none"
       d="m 417,1266 c 12,-22 49,-23 71,-3 25,23 38,16 47,-24 9,-40 -4,-49 -75,-49 -73,0 -83,8 -75,54 8,38 19,46 32,22 z"
       id="path170" />
    <path
       fill="#ffffff"
       stroke="none"
       d="m 540,1158 c 0,-20 -150,-23 -157,-3 -2,6 28,10 77,10 44,0 80,-3 80,-7 z"
       id="path172" />
    <path
       fill="#ffffff"
       stroke="none"
       d="m 353,1128 c 5,-18 185,-18 219,0 28,15 59,13 65,-4 7,-20 -28,-27 -158,-32 -144,-5 -219,9 -184,34 23,17 52,18 58,2 z"
       id="path174" />
    <path
       fill="#ffffff"
       stroke="none"
       d="m 550,1045 c 0,-31 -47,-65 -87,-65 -44,0 -55,6 -72,37 -20,40 -15,43 74,43 70,0 85,-3 85,-15 z"
       id="path176" />
  </g>
  <g
     transform="matrix(-0.09990793,-0.00429023,0.00429023,-0.09990793,77.120151,132.40857)"
     fill="#000000"
     stroke="none"
     id="g182">
    <path
       fill="#000000"
       stroke="none"
       d="M 320,850 C 217,852 190.41154,864.05707 205,782 202,750 192,673 184,610 168,486 150,228 157,220 c 15,-17 31,43 36,141 3,61 14,167 24,235 l 17,124 30,48 -7,42 h 69 c 8.41678,10.5326 7.48158,39.84297 -6,40 z"
       id="path180"
       sodipodi:nodetypes="ccccccccccc" />
  </g>
  <path
     style="fill:#000000;stroke-width:0.409503"
     d="m 55.420014,126.98244 c -0.844952,0.37317 -1.406965,0.25684 -2.505958,-0.51865 -0.779193,-0.54985 -1.511845,-1.12761 -1.628112,-1.28393 -0.116289,-0.1563 0.09001,-2.31458 0.458397,-4.79617 0.634992,-4.27749 0.62253,-4.45999 -0.239594,-3.51208 -1.157925,1.27312 -2.4492,1.69833 -2.957782,0.97395 -0.447457,-0.63746 2.9483,-7.24534 4.17569,-8.1255 1.004754,-0.7205 2.337534,-2.95955 2.947367,-4.95153 0.523453,-1.70984 1.016909,-2.0464 1.317084,-0.89825 0.304938,1.16646 -1.43613,4.71324 -3.197809,6.51436 -0.941391,0.96244 -2.181143,2.7791 -2.755014,4.037 -1.04441,2.28927 -0.654942,2.49758 0.801222,0.42851 0.426101,-0.60544 1.085119,-1.23566 1.46449,-1.40048 0.531553,-0.23085 0.493096,0.99806 -0.167385,5.35643 -0.471433,3.11085 -0.783007,5.75949 -0.692372,5.88587 0.42175,0.58814 0.833373,-0.5027 1.506342,-3.9915 0.401269,-2.08035 0.838451,-3.86779 0.971518,-3.97209 0.788121,-0.61765 0.796298,1.2504 0.02094,4.77248 -0.488232,2.21783 -0.794895,4.16182 -0.681474,4.31999 0.496209,0.69196 0.932341,-0.47772 1.701695,-4.56416 0.452437,-2.40307 0.91829,-4.43783 1.035222,-4.52168 0.670419,-0.48075 0.660493,1.06253 -0.02963,4.60435 -0.429321,2.20336 -0.57531,3.86635 -0.324413,3.69554 0.250567,-0.17128 0.775085,-2.05441 1.16488,-4.18575 0.477123,-2.60892 0.897278,-3.84414 1.2858,-3.78012 0.388536,0.064 0.381678,1.10493 -0.02096,3.18554 -0.32894,1.69976 -0.479362,3.11002 -0.334249,3.13393 0.572062,0.0943 1.803731,-8.08666 1.703947,-11.31784 -0.09411,-3.04731 0.904818,-7.52554 1.826023,-8.18613 0.663932,-0.4761 0.96169,0.84516 0.429373,1.90523 -0.705909,1.40568 -1.182427,4.83548 -0.988458,7.11438 0.08013,0.94131 -0.246755,3.82393 -0.726395,6.40584 l -0.87207,4.69438 -1.799479,1.24859 c -0.98975,0.68667 -2.289712,1.46495 -2.88876,1.72958 z"
     id="path184"
     sodipodi:nodetypes="csssscsscssscssscssssscssscsscsscccc" />
</svg>
