<?xml version="1.0" encoding="UTF-8" standalone="no"?>
<svg
   xmlns:dc="http://purl.org/dc/elements/1.1/"
   xmlns:cc="http://creativecommons.org/ns#"
   xmlns:rdf="http://www.w3.org/1999/02/22-rdf-syntax-ns#"
   xmlns:svg="http://www.w3.org/2000/svg"
   xmlns="http://www.w3.org/2000/svg"
   xmlns:sodipodi="http://sodipodi.sourceforge.net/DTD/sodipodi-0.dtd"
   xmlns:inkscape="http://www.inkscape.org/namespaces/inkscape"
   version="1.0"
   width="127.751843pt"
   height="124.711700pt"
   viewBox="0 0 127.751843 124.711700"
   preserveAspectRatio="xMidYMid meet"
   id="svg30"
   sodipodi:docname="050-prep.svg"
   inkscape:version="1.0.2 (e86c870879, 2021-01-15)">
  <defs
     id="defs34" />
  <sodipodi:namedview
     pagecolor="#ffffff"
     bordercolor="#666666"
     borderopacity="1"
     objecttolerance="10"
     gridtolerance="10"
     guidetolerance="10"
     inkscape:pageopacity="0"
     inkscape:pageshadow="2"
     inkscape:window-width="1600"
     inkscape:window-height="836"
     id="namedview32"
     showgrid="false"
     inkscape:zoom="1.3055017"
     inkscape:cx="-41.895947"
     inkscape:cy="89.390196"
     inkscape:window-x="0"
     inkscape:window-y="0"
     inkscape:window-maximized="1"
     inkscape:current-layer="svg30"
     inkscape:document-rotation="0" />
  <metadata
     id="metadata2">
Created by potrace 1.16, written by Peter Selinger 2001-2019
<rdf:RDF>
  <cc:Work
     rdf:about="">
    <dc:format>image/svg+xml</dc:format>
    <dc:type
       rdf:resource="http://purl.org/dc/dcmitype/StillImage" />
    <dc:title />
  </cc:Work>
</rdf:RDF>
</metadata>
  <path
     style="fill:#000000;stroke-width:0.24"
     d="m 26.163252,-12.280767 c -0.799087,-0.104426 -1.845624,-0.421585 -2.325636,-0.704799 -0.822327,-0.485185 -0.984584,-0.498582 -2.808492,-0.231891 -1.212398,0.177276 -2.540585,0.212131 -3.554363,0.09328 -0.890241,-0.104371 -1.72662,-0.156397 -1.85862,-0.115612 -0.132,0.04078 -1.229251,0.259209 -2.438336,0.485387 -1.920234,0.35921 -2.299751,0.368642 -3,0.07456 -0.976686,-0.410175 -1.936692,-1.29445 -2.877158,-2.650193 -0.778298,-1.121966 -1.244323,-1.26998 -1.700203,-0.540001 -0.164871,0.264001 -0.38058,0.480001 -0.479353,0.480001 -0.382416,0 -3.062311,-2.210105 -2.933203,-2.419006 0.222517,-0.36004 0.537044,-0.261101 1.586341,0.499005 0.546662,0.396 1.06015,0.72 1.141083,0.72 0.136948,0 1.893147,-2.175675 2.259172,-2.798786 0.09819,-0.16715 -0.31718,-0.631832 -1.037289,-1.16044 -1.067715,-0.783775 -1.563973,-1.560774 -0.996845,-1.560774 0.258742,0 3.167235,2.194729 3.599907,2.716465 0.178264,0.214958 0.718264,0.459097 1.2,0.542529 0.481736,0.08343 1.277181,0.409373 1.767655,0.72431 0.736081,0.472645 1.050333,0.539727 1.8,0.384233 0.891259,-0.184861 0.920505,-0.226303 1.565246,-2.217959 0.361359,-1.116268 0.841001,-2.164578 1.065871,-2.329578 0.600968,-0.440965 1.383012,-0.365973 1.877112,0.18 0.555045,0.613318 1.364954,0.613318 1.92,0 0.550119,-0.607876 1.661557,-0.618443 2.258526,-0.02147 0.25219,0.25219 0.583627,1.08919 0.736528,1.86 0.152901,0.77081 0.330775,1.587112 0.395276,1.814003 0.122137,0.429639 1.676969,0.99309 2.070043,0.750157 0.123982,-0.07662 1.00436,-0.33397 1.956396,-0.57188 2.049651,-0.512199 3.50323,-1.305098 3.50323,-1.910945 0,-0.571201 1.47352,-1.529119 1.732749,-1.126439 0.10879,0.168988 -0.0119,0.450078 -0.294132,0.685048 -0.263239,0.219158 -0.478617,0.456744 -0.478617,0.527968 0,0.143542 1.172582,1.868158 1.887182,2.775637 l 0.458359,0.582076 1.227785,-0.882076 c 1.370875,-0.984875 1.710019,-1.077087 1.699468,-0.462076 -0.0041,0.240235 -0.64614,0.860061 -1.5,1.44815 -1.480288,1.019536 -1.496133,1.02406 -1.891264,0.54 -0.219159,-0.268482 -0.516159,-0.48815 -0.66,-0.48815 -0.143842,0 -0.26153,-0.27 -0.26153,-0.6 0,-0.33 -0.08472,-0.6 -0.188254,-0.6 -0.103541,0 -0.378528,-0.322108 -0.611086,-0.715795 l -0.422832,-0.715796 -1.248914,0.690131 c -0.686901,0.379572 -1.842914,0.821 -2.568914,0.980952 -1.472285,0.324372 -3.001584,0.918924 -2.822997,1.09751 0.06403,0.06404 0.418991,0.0014 0.788793,-0.139205 1.642488,-0.624473 1.342939,1.191953 -0.343543,2.083213 -1.002319,0.529697 -1.021661,0.558991 -0.369086,0.558991 0.485987,0 0.991238,-0.296953 1.716755,-1.008995 0.802294,-0.787392 1.091638,-0.945445 1.317442,-0.719642 0.225801,0.225803 0.08107,0.510795 -0.659006,1.297624 -0.896045,0.952654 -0.621207,0.887458 0.539431,-0.127962 0.599352,-0.524363 1.517712,-0.386017 1.064284,0.160329 -0.203611,0.245336 -0.142788,0.311549 0.272969,0.29716 0.350861,-0.01214 0.748668,-0.35124 1.155965,-0.985362 0.655077,-1.019896 1.789845,-1.923919 1.996092,-1.590205 0.161467,0.261259 -1.491487,2.562371 -2.654731,3.695704 -0.984447,0.959132 -1.080571,0.976625 -3.575256,0.650619 z m 2.083502,-1.36927 c 0.298529,-0.380654 0.29004,-0.389143 -0.09061,-0.09061 -0.231,0.181163 -0.42,0.370163 -0.42,0.42 0,0.197529 0.197085,0.07039 0.510614,-0.329386 z m -16.425042,-0.682948 c -0.50433,-0.468773 -0.880266,-1.027354 -0.838253,-1.245509 0.06053,-0.314292 0.273032,-0.21942 1.034429,0.461817 0.971745,0.869439 2.006987,1.517906 2.167309,1.357584 0.04837,-0.04837 -0.61434,-0.607739 -1.472689,-1.243042 -1.56333,-1.157089 -1.842027,-1.72714 -0.824213,-1.685853 l 0.543573,0.02205 -0.56745,-0.428028 c -0.471083,-0.355338 -1.877597,-0.92762 -3.808277,-1.549511 -0.217666,-0.07011 -0.576037,0.194288 -0.906417,0.66874 l -0.546416,0.7847 0.565607,0.48 c 0.311085,0.264 0.801277,0.872859 1.089317,1.35302 0.28804,0.480161 0.670715,0.995024 0.850389,1.144141 0.352412,0.292476 1.184334,0.101292 0.982227,-0.225725 -0.337197,-0.545596 0.463489,-0.403313 1.351873,0.240228 1.339129,0.97006 1.504326,0.911385 0.378991,-0.134611 z m 10.937406,-0.09389 c 2.61372,-0.658649 3.882238,-1.379173 1.858323,-1.055536 -0.620616,0.09924 -1.085575,0.04801 -1.318478,-0.145287 -0.289053,-0.239893 -0.593039,-0.222293 -1.546395,0.08954 -1.475118,0.482486 -2.624587,0.48919 -4.816572,0.02809 -1.983915,-0.41733 -2.639855,-0.717591 -2.639855,-1.208414 0,-0.206739 -0.222443,-0.348549 -0.54,-0.344257 -0.482256,0.0065 -0.495088,0.03346 -0.12,0.251925 0.528577,0.307868 0.535088,0.683705 0.01839,1.061523 -0.363183,0.265566 -0.337957,0.335369 0.26367,0.729569 1.71895,1.1263 5.672081,1.391387 8.840915,0.59285 z m -1.262978,-1.882071 c 0.801741,-0.306444 1.1009,-0.559126 1.161119,-0.980729 0.06532,-0.457306 -9.36e-4,-0.53644 -0.340155,-0.40627 -1.335613,0.512522 -3.357001,0.437313 -6.367336,-0.236908 -0.512684,-0.114825 -0.65283,-0.03912 -0.772139,0.417123 -0.192418,0.735808 0.03809,0.92715 1.560915,1.295682 1.774941,0.429546 3.484795,0.397597 4.757596,-0.0889 z m 2.575,-0.666095 c -0.07975,-0.07975 -0.28675,-0.08828 -0.46,-0.01895 -0.191456,0.07661 -0.134586,0.133484 0.145,0.145 0.253,0.01042 0.39475,-0.0463 0.315,-0.126052 z m -1.936841,-1.590301 c 0.491986,-0.491986 0.181937,-2.026421 -0.559217,-2.767575 l -0.570265,-0.570265 -0.732752,0.616571 c -0.877603,0.738454 -1.900571,0.794428 -2.495924,0.13657 -0.905564,-1.000636 -1.631303,-0.419402 -1.964954,1.573702 -0.11369,0.679135 -0.05411,0.754543 0.801065,1.01393 1.565457,0.474826 1.832286,0.507317 3.524766,0.429203 1.044428,-0.0482 1.770428,-0.205283 1.997281,-0.432136 z"
     id="path150" />
  <path
     style="fill:#000000;stroke-width:0.507489"
     d="m -23.906005,-32.656591 c 0.59668,2.521277 0.91468,5.31269 0.851,7.470103 -0.0559,1.894516 -0.0115,3.665932 0.0987,3.936479 0.11021,0.270553 0.77238,2.541695 1.47147,5.046987 1.11027,3.978831 1.20003,4.776547 0.70949,6.305776 -0.6842,2.132927 -2.37014,4.318014 -5.05285,6.548762 -2.220099,1.846086 -2.446079,2.85502397 -0.82443,3.68091997 0.58646,0.298734 1.0812,0.71330803 1.0994,0.92136703 0.0704,0.80557 -4.091692,6.857734 -4.555522,6.624242 -0.799398,-0.402434 -0.648918,-1.083195 0.759043,-3.433518 0.73351,-1.224465 1.32146,-2.365786 1.30656,-2.536281 -0.0252,-0.288466 -4.931671,-3.587289 -6.311661,-4.243582 -0.370178,-0.176076 -1.272544,0.784486 -2.253465,2.39874197 C -38.06269,2.456883 -39.60805,3.64532 -39.712479,2.45067 c -0.04764,-0.545047 4.039986,-7.075933 5.059345,-8.083428 0.419987,-0.415106 0.834835,-1.597566 0.921916,-2.627699 0.08704,-1.030137 0.627165,-2.765768 1.200262,-3.856947 0.860091,-1.637592 0.943527,-2.311916 0.477932,-3.862456 -0.553525,-1.8434 -0.646208,-1.89738 -4.960359,-2.888789 -2.417966,-0.555648 -4.714561,-1.372974 -5.103551,-1.816259 -1.03959,-1.184716 -1.025593,-2.845931 0.03352,-3.987291 1.189746,-1.282135 1.040611,-2.988218 -0.353554,-4.044485 -1.381787,-1.046895 -1.608708,-3.386199 -0.461108,-4.753642 0.484804,-0.577674 2.18691,-1.429977 3.782468,-1.894 1.595557,-0.464025 3.282349,-0.989032 3.748418,-1.166685 0.882546,-0.336395 2.021995,-1.882411 2.021995,-1.882411 0,0 0.445501,-0.652979 1.908258,-1.829011 0.123112,-0.146666 -0.07421,-0.882865 -0.438486,-1.635962 3.525859,-3.724713 5.69704,1.014616 5.69704,1.014616 2.050398,5.139181 1.286029,4.338141 2.272378,8.207188 z m -0.65442,19.600861 c -0.8946,1.148697 -2.00203,2.043471 -2.46928,1.995177 -0.67321,-0.06964 -0.51247,-0.534753 0.78234,-2.264072 1.65253,-2.207076 2.8279,-4.507229 2.46066,-4.815432 -0.11081,-0.09296 -1.16708,1.406017 -2.34729,3.331121 -2.149539,3.50623 -3.293075,3.774635 -3.037687,1.635854 l 0.657592,-2.796996 -0.688233,0.05592 -1.181953,3.276927 c -0.423348,1.173719 -1.608296,4.125978 -2.562794,8.30748 -0.107603,0.471423 0.515341,1.177647 1.575605,1.786233 l 1.753594,1.006534 0.906974,-1.279849 c 0.49883,-0.703902 1.691129,-1.848617 2.649549,-2.543789 0.95842,-0.695182 1.97251,-1.596092 2.25355,-2.002047 0.5512,-0.796208 3.905927,-9.752748 -0.350311,-2.369261 -1.0872,0.810785 -1.240979,-0.560318 -0.04895,-2.550195 1.79684,-2.999509 1.64283,-3.336692 -0.35335,-0.773563 z m -2.21181,-23.022394 c -1.868739,-5.384527 -3.620112,-7.923988 -2.565682,-3.720197 0.323332,1.289054 0.301032,2.277927 -0.06326,2.804132 -0.452109,0.653066 -0.359059,1.290172 0.473372,3.240999 1.287992,3.018497 1.513772,5.438622 0.946103,10.140954 -0.51379,4.255971 -1.025501,5.693001 -2.05943,5.783388 -0.435492,0.03807 -0.693256,0.532749 -0.625742,1.200905 0.102498,1.01467 0.161651,1.036739 0.552773,0.206413 0.551192,-1.170139 1.341699,-1.253061 2.232709,-0.234206 0.626299,0.716141 0.768699,0.650149 1.488289,-0.689762 2.05604,-3.828406 1.88651,-12.204503 -0.37912,-18.732623 z m -3.731993,3.007073 c -0.793158,-1.632442 -1.380522,-2.216094 -2.279718,-2.265309 -0.975346,-0.05339 -1.129841,0.100753 -0.793175,0.791346 1.32557,2.719098 1.539365,6.991008 0.673444,13.456445 -0.147472,1.101109 0.0378,1.382389 1.020861,1.549698 1.585409,0.269841 1.946029,-0.250968 2.441927,-3.526663 0.578,-3.818016 0.195846,-7.413948 -1.063338,-10.005526 z m -4.870617,-0.928789 c -1.126966,-0.945775 -4.302165,-0.01011 -5.726936,1.687618 l -1.096254,1.306273 1.433736,1.430013 c 1.717167,1.712688 2.023448,3.857264 0.747291,5.232525 -1.941088,2.091827 -0.583078,3.513574 3.676837,3.849398 1.451543,0.114426 1.599415,-0.02496 1.988342,-1.874156 0.711954,-3.385072 0.731266,-3.953133 0.255064,-7.503965 -0.293857,-2.191216 -0.758441,-3.691613 -1.27808,-4.127706 z"
     id="path152"
     sodipodi:nodetypes="ccssssccssscssscssscssssscccccccscssccssccssscscccsscsscscccccssscsccsscssssss" />
  <g
     id="g334">
    <g
       transform="matrix(0.1,0,0,-0.1,-18.570981,129.38797)"
       fill="#000000"
       stroke="none"
       id="g28">
      <path
         fill="#000000"
         stroke="none"
         d="m 447,1262 c -15,-16 -24,-52 -26,-98 -1,-17 -11,-22 -53,-30 -42,-7 -54,-13 -56,-30 -2,-16 6,-23 37,-34 33,-10 41,-19 46,-44 12,-59 17,-66 59,-91 40,-23 44,-29 49,-77 4,-28 4,-55 1,-59 -3,-5 -59,-9 -124,-9 -73,0 -121,-4 -125,-11 -4,-5 -13.03114,-45.76558 -18.03114,-104.76558 -5,-59 -20.69609,-123.8608 -25.69609,-159.8608 -6,-36 -18.77604,-254.73484 -22.77604,-311.73484 -7,-98 56.65575,20.01855 74.65575,24.01855 16,3 -31.25442,153.08575 -25.25442,225.08575 C 251.89806,626.74308 273,641 279,645 c 4,2 19,-56 35,-128 29.88727,-48.36119 35.10109,-206.9437 84.46217,-228.59142 C 380.01405,412.37463 393.22304,328.18481 355,500 c -8,36 -23,103 -34,150 -12,47 -21,90 -21,96 0,7 75,11 225,12 l 226,2 -6,-37 C 712.84804,614.94938 674.87872,276.74853 676.54859,277.05436 745.79548,450.84951 693.66877,305.52919 741,513 c 11,49 22,115 26,148 3,32 9,59 12,59 3,0 51.88531,-91.72302 92.88531,-174.72302 22.46475,-89.47926 27.39524,-103.21316 15.83205,-152.1051 -11.56319,-48.89194 -52.48126,-110.02025 -46.64098,-114.1679 11.68055,-8.29531 96.44463,-80.10414 96.44463,-80.10414 0,0 27.89841,218.99787 -21.10159,316.99787 C 867.41942,612.89771 791,780 782,787 c -10,9 -47,11 -128,6 l -114,-6 v 62 c 0,55 3,62 23,70 38,15 75,57 82,93 5,27 15,39 41,51 19,9 34,24 34,34 0,14 -3,13 -23,-5 -32,-30 -57,-29 -57,4 0,23 3,25 30,19 17,-4 30,-2 30,3 0,11 -24,22 -49,22 -11,0 -17,9 -19,30 -1,17 -10,48 -18,70 -18,45 -41,51 -69,20 l -18,-20 -14,20 c -17,25 -45,26 -66,2 z"
         id="path4"
         sodipodi:nodetypes="cccccccccscscccccccccsccccccscsscccccscccscscsscccccc" />
      <path
         fill="#ffffff"
         stroke="none"
         d="m 508,1238 24,-23 15,23 c 20,29 37,28 51,-3 24,-52 19,-55 -73,-55 -81,0 -85,1 -85,22 0,19 25,58 38,58 3,0 17,-10 30,-22 z"
         id="path6" />
      <path
         fill="#ffffff"
         stroke="none"
         d="m 464,1162 c 2,-4 -4,-13 -15,-20 -16,-11 -19,-9 -19,8 0,19 24,28 34,12 z"
         id="path8" />
      <path
         fill="#ffffff"
         stroke="none"
         d="m 614,1153 c 9,-23 4,-24 -22,-4 -21,16 -22,17 -3,18 11,1 22,-5 25,-14 z"
         id="path10" />
      <path
         fill="#ffffff"
         stroke="none"
         d="m 554,1124 c 24,-9 19,-24 -6,-20 -13,3 -36,5 -53,5 -23,1 -27,4 -15,11 17,11 51,13 74,4 z"
         id="path12" />
      <path
         fill="#ffffff"
         stroke="none"
         d="m 410,1100 c -12,-22 -31,-25 -62,-9 -27,14 -7,29 40,29 30,0 32,-2 22,-20 z"
         id="path14" />
      <path
         fill="#ffffff"
         stroke="none"
         d="m 608,1043 c 6,-84 -80,-123 -147,-67 -40,33 -43,74 -6,74 14,0 25,5 25,11 0,5 -4,8 -8,5 -4,-2 -14,-1 -21,4 -29,17 0,25 76,20 l 78,-5 z"
         id="path16" />
      <path
         fill="#ffffff"
         stroke="none"
         d="m 1150,791 c 0,-5 15,-12 33,-16 20,-5 26,-9 15,-12 -24,-6 -100,16 -93,27 8,12 45,13 45,1 z"
         id="path24" />
      <path
         fill="#000000"
         stroke="none"
         d="m 495,1060 c -3,-5 1,-10 10,-10 9,0 13,5 10,10 -3,6 -8,10 -10,10 -2,0 -7,-4 -10,-10 z"
         id="path26" />
    </g>
    <rect
       style="fill:#f9f9f9;stroke-width:0.75"
       id="rect36"
       width="28.679468"
       height="2.2215538"
       x="18.824495"
       y="4.706521" />
    <rect
       style="fill:#f9f9f9;stroke-width:0.75"
       id="rect38"
       width="28.679468"
       height="2.2215538"
       x="21.087307"
       y="8.4220705" />
    <rect
       style="fill:#f9f9f9;stroke-width:0.357093"
       id="rect40"
       width="9.5121975"
       height="1.5184081"
       x="15.508054"
       y="12.380587" />
    <rect
       style="fill:#f9f9f9;stroke-width:0.357093"
       id="rect42"
       width="9.5121975"
       height="1.5184081"
       x="40.00386"
       y="13.05578" />
    <rect
       style="fill:#f9f9f9;stroke-width:0.357093"
       id="rect44"
       width="9.5121975"
       height="1.5184081"
       x="48.435452"
       y="20.375801" />
    <rect
       style="fill:#f9f9f9;stroke-width:0.357093"
       id="rect46"
       width="9.5121975"
       height="1.5184081"
       x="48.435452"
       y="20.375801" />
    <rect
       style="fill:#f9f9f9;stroke-width:0.357093"
       id="rect48"
       width="9.5121975"
       height="1.5184081"
       x="14.063251"
       y="15.404281" />
    <rect
       style="fill:#f9f9f9;stroke-width:0.357093"
       id="rect50"
       width="9.5121975"
       height="1.5184081"
       x="9.0290508"
       y="17.943993" />
    <rect
       style="fill:#f9f9f9;stroke-width:0.357093"
       id="rect52"
       width="9.5121975"
       height="1.5184081"
       x="10.618256"
       y="21.861069" />
    <rect
       style="fill:#f9f9f9;stroke-width:0.357093"
       id="rect54"
       width="9.5121975"
       height="1.5184081"
       x="-11.136014"
       y="50.866314"
       transform="rotate(-79.756458)" />
    <rect
       style="fill:#f9f9f9;stroke-width:0.357093"
       id="rect56"
       width="9.5121975"
       height="1.5184081"
       x="-23.872938"
       y="19.918333"
       transform="rotate(-79.756458)" />
    <rect
       style="fill:#f9f9f9;stroke-width:0.357093"
       id="rect58"
       width="9.5121975"
       height="1.5184081"
       x="-1.6937029"
       y="28.358156"
       transform="rotate(-79.756458)" />
    <rect
       style="fill:#f9f9f9;stroke-width:0.357093"
       id="rect60"
       width="9.5121975"
       height="1.5184081"
       x="1.0186235"
       y="38.463917"
       transform="rotate(-79.756458)" />
    <rect
       style="fill:#f9f9f9;stroke-width:0.357093"
       id="rect62"
       width="9.5121975"
       height="1.5184081"
       x="-5.7336893"
       y="40.169563"
       transform="rotate(-79.756458)" />
    <rect
       style="fill:#f9f9f9;stroke-width:0.357093"
       id="rect64"
       width="9.5121975"
       height="1.5184081"
       x="-8.0288601"
       y="29.730698"
       transform="rotate(-79.756458)" />
    <rect
       style="fill:#f9f9f9;stroke-width:0.337164"
       id="rect66"
       width="8.5079384"
       height="1.5134411"
       x="-21.138008"
       y="33.039265"
       transform="matrix(0.19882363,-0.98003529,0.98729034,0.158927,0,0)" />
    <rect
       style="fill:#f9f9f9;stroke-width:0.413588"
       id="rect68"
       width="8.7061405"
       height="2.2254498"
       x="-23.922783"
       y="40.84594"
       transform="matrix(0.28768854,-0.95772402,0.9941422,0.10808002,0,0)" />
    <path
       style="fill:#000000;stroke-width:0.507489"
       d="m 52.967898,122.19921 c -1.698076,-0.14276 -3.939545,-0.71084 -4.981045,-1.26234 -1.784233,-0.94479 -2.128271,-0.95729 -5.954939,-0.21637 -2.543683,0.49248 -5.345812,0.69542 -7.498781,0.54307 -1.890614,-0.13377 -3.662358,-0.16225 -3.937208,-0.0633 -0.274856,0.099 -2.571309,0.6672 -5.103231,1.26267 -4.021123,0.9457 -4.821859,1.00258 -6.329622,0.44956 -2.102978,-0.77134 -4.216886,-2.54571 -6.335421,-5.31789 -1.753217,-2.29414 -2.75201,-2.56142 -3.6439017,-0.97511 -0.322595,0.57368 -0.757171,1.05095 -0.965803,1.06058 -0.807784,0.0372 -6.683658,-4.37026 -6.431291,-4.82409 0.434975,-0.78217 1.10897,-0.60382 3.3993999,0.8996 1.1932691,0.78325 2.3094441,1.41764 2.4804021,1.40976 0.289262,-0.0133 3.7870697,-4.77997 4.4995557,-6.1318 0.191155,-0.36262 -0.731483,-1.30373 -2.3040367,-2.3502 -2.331642,-1.55163 -3.455514,-3.14455 -2.25758,-3.19976 0.546538,-0.0252 6.9037997,4.32756 7.8685247,5.38749 0.397477,0.4367 1.561876,0.89983 2.587554,1.0292 1.025689,0.12933 2.737638,0.74038 3.804326,1.35786 1.600837,0.92671 2.271159,1.03781 3.839535,0.63637 1.864604,-0.47724 1.92235,-0.56763 3.090339,-4.83736 0.654616,-2.39307 1.565698,-4.65411 2.024605,-5.02454 1.226467,-0.98999 2.885701,-0.90768 3.98254,0.19747 1.232122,1.24147 2.942895,1.16262 4.055603,-0.18692 1.102835,-1.33757 3.449492,-1.46809 4.768583,-0.26523 0.557248,0.50815 1.338831,2.24387 1.736845,3.85716 0.398015,1.61329 0.853209,3.32024 1.011544,3.79323 0.299816,0.89563 3.638935,1.93443 4.445573,1.38302 0.254494,-0.17383 2.088987,-0.80323 4.076808,-1.39845 4.279601,-1.28146 7.272793,-3.09781 7.213813,-4.37754 -0.05561,-1.20654 2.963638,-3.3734 3.550412,-2.54806 0.246225,0.34637 0.01868,0.95185 -0.5546,1.47566 -0.5347,0.48855 -0.966515,1.01137 -0.95958,1.16182 0.01398,0.30319 2.658709,3.83194 4.25651,5.67923 l 1.024857,1.18489 2.507561,-1.98275 c 2.799808,-2.2138 3.507211,-2.44159 3.544793,-1.14149 0.01473,0.50785 -1.281106,1.87961 -3.027455,3.20496 -3.027541,2.29768 -3.060569,2.30877 -3.942336,1.32476 -0.489067,-0.54578 -1.137806,-0.98087 -1.441638,-0.96686 -0.303839,0.014 -0.578722,-0.54485 -0.610842,-1.24192 -0.03213,-0.69705 -0.237368,-1.25913 -0.456061,-1.24904 -0.218707,0.0101 -0.830922,-0.64354 -1.360483,-1.45248 l -0.962838,-1.4708 -2.570885,1.57934 c -1.413987,0.86864 -3.812852,1.91362 -5.330804,2.32216 -3.07832,0.82851 -6.250767,2.23326 -5.856153,2.5931 0.141479,0.12904 0.88517,-0.0378 1.65261,-0.37084 3.408625,-1.47897 2.952729,2.38702 -0.522848,4.43381 -2.065625,1.21645 -2.103628,1.28022 -0.725199,1.21669 1.026548,-0.0473 2.064879,-0.72377 3.52806,-2.29843 1.618025,-1.74132 2.213818,-2.10334 2.712765,-1.64836 0.498933,0.45498 0.220972,1.07106 -1.265681,2.80512 -1.799966,2.09952 -1.225773,1.93505 1.126978,-0.32281 1.214957,-1.16596 3.168273,-0.96314 2.26369,0.23504 -0.406208,0.53804 -0.271268,0.67199 0.60552,0.60112 0.739944,-0.0598 1.547215,-0.81481 2.345811,-2.19391 1.284421,-2.2181 3.593372,-4.23814 4.061518,-3.55331 0.366507,0.53612 -2.900998,5.55768 -5.247777,8.06486 -1.986066,2.12182 -2.187404,2.16813 -7.488653,1.72238 z m 4.267664,-3.09515 c 0.593521,-0.83312 0.574763,-0.85023 -0.20023,-0.18256 -0.470293,0.40517 -0.851124,0.82278 -0.846273,0.92805 0.01923,0.41723 0.423156,0.1295 1.046494,-0.74548 z m -34.761014,0.15649 c -1.110935,-0.94109 -1.959406,-2.08438 -1.891941,-2.54925 0.09723,-0.66977 0.555373,-0.49004 2.229983,0.87479 2.137249,1.7419 4.387119,3.01087 4.710164,2.65661 0.09744,-0.10689 -1.356831,-1.22391 -3.231771,-2.48229 -3.414867,-2.29192 -4.059049,-3.4689 -1.905108,-3.48078 l 1.150332,-0.006 -1.240297,-0.84887 c -1.02966,-0.70472 -4.056349,-1.77661 -8.195057,-2.90227 -0.466596,-0.1269 -1.197837,0.46648 -1.849515,1.50082 l -1.077795,1.71071 1.241458,0.95884 c 0.6828,0.52736 1.777509,1.76572 2.432675,2.75192 0.655187,0.9862 1.51363,2.03648 1.907679,2.33398 0.772868,0.58348 2.511539,0.0984 2.052778,-0.57244 -0.765393,-1.11962 0.939765,-0.89703 2.87894,0.37583 2.923072,1.91867 3.266304,1.77866 0.787436,-0.32124 z m 23.093877,-1.26315 c 5.456824,-1.64572 8.06616,-3.29118 3.822563,-2.41052 -1.30126,0.27005 -2.288379,0.2071 -2.799158,-0.17853 -0.63392,-0.47858 -1.274314,-0.41181 -3.257724,0.33969 -3.068912,1.16277 -5.496275,1.28883 -10.171284,0.52826 -4.231241,-0.68838 -5.646011,-1.25876 -5.693801,-2.29553 -0.02013,-0.43669 -0.503788,-0.71458 -1.174156,-0.6746 -1.018026,0.0607 -1.042509,0.11888 -0.228971,0.54382 1.146482,0.59884 1.196824,1.39209 0.142188,2.24045 -0.741291,0.59632 -0.681211,0.74131 0.627973,1.5154 3.740613,2.21174 12.116596,2.38682 18.732367,0.39157 z m -2.851051,-3.8525 c 1.663679,-0.72535 2.270993,-1.28822 2.357146,-2.18463 0.09345,-0.97232 -0.0542,-1.13303 -0.758058,-0.82504 -2.771311,1.21262 -7.0484,1.25055 -13.472756,0.11948 -1.094113,-0.19263 -1.382774,-0.0191 -1.59037,0.95626 -0.334812,1.57297 0.170726,1.9547 3.423256,2.58489 3.791016,0.73453 7.399622,0.50058 10.040791,-0.65096 z m 5.374311,-1.65768 c -0.17622,-0.16069 -0.614294,-0.15856 -0.973501,0.005 -0.396956,0.18046 -0.271288,0.29506 0.320399,0.29217 0.535424,-0.003 0.829321,-0.13624 0.653101,-0.29693 z m -4.246004,-3.17062 c 0.991321,-1.08711 0.187027,-4.29811 -1.450671,-5.79149 l -1.260085,-1.14905 -1.487765,1.37372 c -1.781858,1.64528 -3.937215,1.8631 -5.258831,0.53147 -2.01023,-2.02547 -3.486623,-0.72708 -3.997351,3.51542 -0.174023,1.44561 -0.04084,1.59909 1.7908,2.06373 3.35293,0.85056 3.919716,0.89322 7.487128,0.56345 2.201447,-0.2035 3.71968,-0.60598 4.176775,-1.10725 z"
       id="path154" />
  </g>
  <g
     id="g274"
     transform="translate(-129.8181,19.987639)">
    <g
       transform="matrix(0.1,0,0,-0.1,-18.570981,129.38797)"
       fill="#000000"
       stroke="none"
       id="g238">
      <path
         fill="#000000"
         stroke="none"
         d="m 447,1262 c -15,-16 -24,-52 -26,-98 -1,-17 -11,-22 -53,-30 -42,-7 -54,-13 -56,-30 -2,-16 6,-23 37,-34 33,-10 41,-19 46,-44 12,-59 17,-66 59,-91 40,-23 44,-29 49,-77 4,-28 4,-55 1,-59 -3,-5 -59,-9 -124,-9 -73,0 -121,-4 -125,-11 -4,-5 -11,-58 -16,-117 -5,-59 -13,-136 -18,-172 -6,-36 -13,-112 -17,-169 -7,-98 -6,-103 12,-99 16,3 20,16 26,88 14,175 31,331 37,335 4,2 19,-56 35,-128 15,-73 36,-170 47,-217 11,-47 25,-107 31,-135 12,-52 24,-75 39,-75 15,0 11,29 -26,191 -20,85 -42,183 -50,219 -8,36 -23,103 -34,150 -12,47 -21,90 -21,96 0,7 75,11 225,12 l 226,2 -6,-37 C 725,610 688,432 636,205 605,74 604,57 627,62 c 16,3 26,40 77,283 10,44 26,120 37,168 11,49 22,115 26,148 3,32 9,59 12,59 3,0 40,-68 81,-151 116,-235 121,-241 158,-170 6,11 19.75,34.25 37.375,62.875 8.8125,14.3125 18.5938,29.96875 28.8594,46.10938 C 1094.5,524.125 1105.25,540.75 1116,557 c 49.5948,13.31421 -32.396,55.31057 -73.1736,77.35895 -19,-27 44.5184,-16.17497 6.6853,-110.36493 C 1039.3108,498.59766 1023.5,481 1016,468 c -15,-27 -31,-48 -35,-48 -3,0 -46,80 -95,178 -49,97 -95,182 -104,189 -10,9 -47,11 -128,6 l -114,-6 v 62 c 0,55 3,62 23,70 38,15 75,57 82,93 5,27 15,39 41,51 19,9 34,24 34,34 0,14 -3,13 -23,-5 -32,-30 -57,-29 -57,4 0,23 3,25 30,19 17,-4 30,-2 30,3 0,11 -24,22 -49,22 -11,0 -17,9 -19,30 -1,17 -10,48 -18,70 -18,45 -41,51 -69,20 l -18,-20 -14,20 c -17,25 -45,26 -66,2 z"
         id="path214"
         sodipodi:nodetypes="cccccccccscsccccccscscscsccccccccsccssccscsccccscccscscsscccccc" />
      <path
         fill="#ffffff"
         stroke="none"
         d="m 508,1238 24,-23 15,23 c 20,29 37,28 51,-3 24,-52 19,-55 -73,-55 -81,0 -85,1 -85,22 0,19 25,58 38,58 3,0 17,-10 30,-22 z"
         id="path216" />
      <path
         fill="#ffffff"
         stroke="none"
         d="m 464,1162 c 2,-4 -4,-13 -15,-20 -16,-11 -19,-9 -19,8 0,19 24,28 34,12 z"
         id="path218" />
      <path
         fill="#ffffff"
         stroke="none"
         d="m 614,1153 c 9,-23 4,-24 -22,-4 -21,16 -22,17 -3,18 11,1 22,-5 25,-14 z"
         id="path220" />
      <path
         fill="#ffffff"
         stroke="none"
         d="m 554,1124 c 24,-9 19,-24 -6,-20 -13,3 -36,5 -53,5 -23,1 -27,4 -15,11 17,11 51,13 74,4 z"
         id="path222" />
      <path
         fill="#ffffff"
         stroke="none"
         d="m 410,1100 c -12,-22 -31,-25 -62,-9 -27,14 -7,29 40,29 30,0 32,-2 22,-20 z"
         id="path224" />
      <path
         fill="#ffffff"
         stroke="none"
         d="m 608,1043 c 6,-84 -80,-123 -147,-67 -40,33 -43,74 -6,74 14,0 25,5 25,11 0,5 -4,8 -8,5 -4,-2 -14,-1 -21,4 -29,17 0,25 76,20 l 78,-5 z"
         id="path226" />
      <path
         fill="#000000"
         stroke="none"
         d="m 495,1060 c -3,-5 1,-10 10,-10 9,0 13,5 10,10 -3,6 -8,10 -10,10 -2,0 -7,-4 -10,-10 z"
         id="path236" />
    </g>
    <rect
       style="fill:#f9f9f9;stroke-width:0.75"
       id="rect240"
       width="28.679468"
       height="2.2215538"
       x="18.824495"
       y="4.706521" />
    <rect
       style="fill:#f9f9f9;stroke-width:0.75"
       id="rect242"
       width="28.679468"
       height="2.2215538"
       x="21.087307"
       y="8.4220705" />
    <rect
       style="fill:#f9f9f9;stroke-width:0.357093"
       id="rect244"
       width="9.5121975"
       height="1.5184081"
       x="15.508054"
       y="12.380587" />
    <rect
       style="fill:#f9f9f9;stroke-width:0.357093"
       id="rect246"
       width="9.5121975"
       height="1.5184081"
       x="40.00386"
       y="13.05578" />
    <rect
       style="fill:#f9f9f9;stroke-width:0.357093"
       id="rect248"
       width="9.5121975"
       height="1.5184081"
       x="48.435452"
       y="20.375801" />
    <rect
       style="fill:#f9f9f9;stroke-width:0.357093"
       id="rect250"
       width="9.5121975"
       height="1.5184081"
       x="48.435452"
       y="20.375801" />
    <rect
       style="fill:#f9f9f9;stroke-width:0.357093"
       id="rect252"
       width="9.5121975"
       height="1.5184081"
       x="14.063251"
       y="15.404281" />
    <rect
       style="fill:#f9f9f9;stroke-width:0.357093"
       id="rect254"
       width="9.5121975"
       height="1.5184081"
       x="9.0290508"
       y="17.943993" />
    <rect
       style="fill:#f9f9f9;stroke-width:0.357093"
       id="rect256"
       width="9.5121975"
       height="1.5184081"
       x="10.618256"
       y="21.861069" />
    <rect
       style="fill:#f9f9f9;stroke-width:0.357093"
       id="rect258"
       width="9.5121975"
       height="1.5184081"
       x="-11.136014"
       y="50.866314"
       transform="rotate(-79.756458)" />
    <rect
       style="fill:#f9f9f9;stroke-width:0.357093"
       id="rect260"
       width="9.5121975"
       height="1.5184081"
       x="-23.872938"
       y="19.918333"
       transform="rotate(-79.756458)" />
    <rect
       style="fill:#f9f9f9;stroke-width:0.357093"
       id="rect262"
       width="9.5121975"
       height="1.5184081"
       x="-1.6937029"
       y="28.358156"
       transform="rotate(-79.756458)" />
    <rect
       style="fill:#f9f9f9;stroke-width:0.357093"
       id="rect264"
       width="9.5121975"
       height="1.5184081"
       x="1.0186235"
       y="38.463917"
       transform="rotate(-79.756458)" />
    <rect
       style="fill:#f9f9f9;stroke-width:0.357093"
       id="rect266"
       width="9.5121975"
       height="1.5184081"
       x="-5.7336893"
       y="40.169563"
       transform="rotate(-79.756458)" />
    <rect
       style="fill:#f9f9f9;stroke-width:0.357093"
       id="rect268"
       width="9.5121975"
       height="1.5184081"
       x="-8.0288601"
       y="29.730698"
       transform="rotate(-79.756458)" />
    <rect
       style="fill:#f9f9f9;stroke-width:0.337164"
       id="rect270"
       width="8.5079384"
       height="1.5134411"
       x="-21.138008"
       y="33.039265"
       transform="matrix(0.19882363,-0.98003529,0.98729034,0.158927,0,0)" />
    <rect
       style="fill:#f9f9f9;stroke-width:0.413588"
       id="rect272"
       width="8.7061405"
       height="2.2254498"
       x="-23.922783"
       y="40.84594"
       transform="matrix(0.28768854,-0.95772402,0.9941422,0.10808002,0,0)" />
  </g>
  <g
     id="g392"
     transform="translate(73.954471,-68.97258)">
    <g
       transform="matrix(0.1,0,0,-0.1,-18.570981,129.38797)"
       fill="#000000"
       stroke="none"
       id="g354">
      <path
         fill="#000000"
         stroke="none"
         d="m 447,1262 c -15,-16 -24,-52 -26,-98 -1,-17 -11,-22 -53,-30 -42,-7 -54,-13 -56,-30 -2,-16 6,-23 37,-34 33,-10 41,-19 46,-44 12,-59 17,-66 59,-91 40,-23 44,-29 49,-77 4,-28 4,-55 1,-59 -3,-5 -59,-9 -124,-9 -73,0 -121,-4 -125,-11 -4,-5 -13.03114,-45.76558 -18.03114,-104.76558 -5,-59 -20.69609,-123.8608 -25.69609,-159.8608 -6,-36 -18.77604,-254.73484 -22.77604,-311.73484 -7,-98 56.65575,20.01855 74.65575,24.01855 16,3 -31.25442,153.08575 -25.25442,225.08575 C 251.89806,626.74308 273,641 279,645 c 4,2 19,-56 35,-128 29.88727,-48.36119 35.10109,-206.9437 84.46217,-228.59142 C 380.01405,412.37463 393.22304,328.18481 355,500 c -8,36 -23,103 -34,150 -12,47 -21,90 -21,96 0,7 75,11 225,12 l 226,2 -6,-37 C 712.84804,614.94938 674.87872,276.74853 676.54859,277.05436 745.79548,450.84951 693.66877,305.52919 741,513 c 11,49 22,115 26,148 3,32 9,59 12,59 3,0 51.88531,-91.72302 92.88531,-174.72302 22.46475,-89.47926 27.39524,-103.21316 15.83205,-152.1051 -11.56319,-48.89194 -52.48126,-110.02025 -46.64098,-114.1679 11.68055,-8.29531 96.44463,-80.10414 96.44463,-80.10414 0,0 27.89841,218.99787 -21.10159,316.99787 C 867.41942,612.89771 791,780 782,787 c -10,9 -47,11 -128,6 l -114,-6 v 62 c 0,55 3,62 23,70 38,15 75,57 82,93 5,27 15,39 41,51 19,9 34,24 34,34 0,14 -3,13 -23,-5 -32,-30 -57,-29 -57,4 0,23 3,25 30,19 17,-4 30,-2 30,3 0,11 -24,22 -49,22 -11,0 -17,9 -19,30 -1,17 -10,48 -18,70 -18,45 -41,51 -69,20 l -18,-20 -14,20 c -17,25 -45,26 -66,2 z"
         id="path336"
         sodipodi:nodetypes="cccccccccscscccccccccsccccccscsscccccscccscscsscccccc" />
      <path
         fill="#ffffff"
         stroke="none"
         d="m 508,1238 24,-23 15,23 c 20,29 37,28 51,-3 24,-52 19,-55 -73,-55 -81,0 -85,1 -85,22 0,19 25,58 38,58 3,0 17,-10 30,-22 z"
         id="path338" />
      <path
         fill="#ffffff"
         stroke="none"
         d="m 464,1162 c 2,-4 -4,-13 -15,-20 -16,-11 -19,-9 -19,8 0,19 24,28 34,12 z"
         id="path340" />
      <path
         fill="#ffffff"
         stroke="none"
         d="m 614,1153 c 9,-23 4,-24 -22,-4 -21,16 -22,17 -3,18 11,1 22,-5 25,-14 z"
         id="path342" />
      <path
         fill="#ffffff"
         stroke="none"
         d="m 554,1124 c 24,-9 19,-24 -6,-20 -13,3 -36,5 -53,5 -23,1 -27,4 -15,11 17,11 51,13 74,4 z"
         id="path344" />
      <path
         fill="#ffffff"
         stroke="none"
         d="m 410,1100 c -12,-22 -31,-25 -62,-9 -27,14 -7,29 40,29 30,0 32,-2 22,-20 z"
         id="path346" />
      <path
         fill="#ffffff"
         stroke="none"
         d="m 608,1043 c 6,-84 -80,-123 -147,-67 -40,33 -43,74 -6,74 14,0 25,5 25,11 0,5 -4,8 -8,5 -4,-2 -14,-1 -21,4 -29,17 0,25 76,20 l 78,-5 z"
         id="path348" />
      <path
         fill="#ffffff"
         stroke="none"
         d="m 1150,791 c 0,-5 15,-12 33,-16 20,-5 26,-9 15,-12 -24,-6 -100,16 -93,27 8,12 45,13 45,1 z"
         id="path350" />
      <path
         fill="#000000"
         stroke="none"
         d="m 495,1060 c -3,-5 1,-10 10,-10 9,0 13,5 10,10 -3,6 -8,10 -10,10 -2,0 -7,-4 -10,-10 z"
         id="path352" />
    </g>
    <rect
       style="fill:#f9f9f9;stroke-width:0.75"
       id="rect356"
       width="28.679468"
       height="2.2215538"
       x="18.824495"
       y="4.706521" />
    <rect
       style="fill:#f9f9f9;stroke-width:0.75"
       id="rect358"
       width="28.679468"
       height="2.2215538"
       x="21.087307"
       y="8.4220705" />
    <rect
       style="fill:#f9f9f9;stroke-width:0.357093"
       id="rect360"
       width="9.5121975"
       height="1.5184081"
       x="15.508054"
       y="12.380587" />
    <rect
       style="fill:#f9f9f9;stroke-width:0.357093"
       id="rect362"
       width="9.5121975"
       height="1.5184081"
       x="40.00386"
       y="13.05578" />
    <rect
       style="fill:#f9f9f9;stroke-width:0.357093"
       id="rect364"
       width="9.5121975"
       height="1.5184081"
       x="48.435452"
       y="20.375801" />
    <rect
       style="fill:#f9f9f9;stroke-width:0.357093"
       id="rect366"
       width="9.5121975"
       height="1.5184081"
       x="48.435452"
       y="20.375801" />
    <rect
       style="fill:#f9f9f9;stroke-width:0.357093"
       id="rect368"
       width="9.5121975"
       height="1.5184081"
       x="14.063251"
       y="15.404281" />
    <rect
       style="fill:#f9f9f9;stroke-width:0.357093"
       id="rect370"
       width="9.5121975"
       height="1.5184081"
       x="9.0290508"
       y="17.943993" />
    <rect
       style="fill:#f9f9f9;stroke-width:0.357093"
       id="rect372"
       width="9.5121975"
       height="1.5184081"
       x="10.618256"
       y="21.861069" />
    <rect
       style="fill:#f9f9f9;stroke-width:0.357093"
       id="rect374"
       width="9.5121975"
       height="1.5184081"
       x="-11.136014"
       y="50.866314"
       transform="rotate(-79.756458)" />
    <rect
       style="fill:#f9f9f9;stroke-width:0.357093"
       id="rect376"
       width="9.5121975"
       height="1.5184081"
       x="-23.872938"
       y="19.918333"
       transform="rotate(-79.756458)" />
    <rect
       style="fill:#f9f9f9;stroke-width:0.357093"
       id="rect378"
       width="9.5121975"
       height="1.5184081"
       x="-1.6937029"
       y="28.358156"
       transform="rotate(-79.756458)" />
    <rect
       style="fill:#f9f9f9;stroke-width:0.357093"
       id="rect380"
       width="9.5121975"
       height="1.5184081"
       x="1.0186235"
       y="38.463917"
       transform="rotate(-79.756458)" />
    <rect
       style="fill:#f9f9f9;stroke-width:0.357093"
       id="rect382"
       width="9.5121975"
       height="1.5184081"
       x="-5.7336893"
       y="40.169563"
       transform="rotate(-79.756458)" />
    <rect
       style="fill:#f9f9f9;stroke-width:0.357093"
       id="rect384"
       width="9.5121975"
       height="1.5184081"
       x="-8.0288601"
       y="29.730698"
       transform="rotate(-79.756458)" />
    <rect
       style="fill:#f9f9f9;stroke-width:0.337164"
       id="rect386"
       width="8.5079384"
       height="1.5134411"
       x="-21.138008"
       y="33.039265"
       transform="matrix(0.19882363,-0.98003529,0.98729034,0.158927,0,0)" />
    <rect
       style="fill:#f9f9f9;stroke-width:0.413588"
       id="rect388"
       width="8.7061405"
       height="2.2254498"
       x="-23.922783"
       y="40.84594"
       transform="matrix(0.28768854,-0.95772402,0.9941422,0.10808002,0,0)" />
    <path
       style="fill:#000000;stroke-width:0.507489"
       d="m 52.967898,122.19921 c -1.698076,-0.14276 -3.939545,-0.71084 -4.981045,-1.26234 -1.784233,-0.94479 -2.128271,-0.95729 -5.954939,-0.21637 -2.543683,0.49248 -5.345812,0.69542 -7.498781,0.54307 -1.890614,-0.13377 -3.662358,-0.16225 -3.937208,-0.0633 -0.274856,0.099 -2.571309,0.6672 -5.103231,1.26267 -4.021123,0.9457 -4.821859,1.00258 -6.329622,0.44956 -2.102978,-0.77134 -4.216886,-2.54571 -6.335421,-5.31789 -1.753217,-2.29414 -2.75201,-2.56142 -3.6439017,-0.97511 -0.322595,0.57368 -0.757171,1.05095 -0.965803,1.06058 -0.807784,0.0372 -6.683658,-4.37026 -6.431291,-4.82409 0.434975,-0.78217 1.10897,-0.60382 3.3993999,0.8996 1.1932691,0.78325 2.3094441,1.41764 2.4804021,1.40976 0.289262,-0.0133 3.7870697,-4.77997 4.4995557,-6.1318 0.191155,-0.36262 -0.731483,-1.30373 -2.3040367,-2.3502 -2.331642,-1.55163 -3.455514,-3.14455 -2.25758,-3.19976 0.546538,-0.0252 6.9037997,4.32756 7.8685247,5.38749 0.397477,0.4367 1.561876,0.89983 2.587554,1.0292 1.025689,0.12933 2.737638,0.74038 3.804326,1.35786 1.600837,0.92671 2.271159,1.03781 3.839535,0.63637 1.864604,-0.47724 1.92235,-0.56763 3.090339,-4.83736 0.654616,-2.39307 1.565698,-4.65411 2.024605,-5.02454 1.226467,-0.98999 2.885701,-0.90768 3.98254,0.19747 1.232122,1.24147 2.942895,1.16262 4.055603,-0.18692 1.102835,-1.33757 3.449492,-1.46809 4.768583,-0.26523 0.557248,0.50815 1.338831,2.24387 1.736845,3.85716 0.398015,1.61329 0.853209,3.32024 1.011544,3.79323 0.299816,0.89563 3.638935,1.93443 4.445573,1.38302 0.254494,-0.17383 2.088987,-0.80323 4.076808,-1.39845 4.279601,-1.28146 7.272793,-3.09781 7.213813,-4.37754 -0.05561,-1.20654 2.963638,-3.3734 3.550412,-2.54806 0.246225,0.34637 0.01868,0.95185 -0.5546,1.47566 -0.5347,0.48855 -0.966515,1.01137 -0.95958,1.16182 0.01398,0.30319 2.658709,3.83194 4.25651,5.67923 l 1.024857,1.18489 2.507561,-1.98275 c 2.799808,-2.2138 3.507211,-2.44159 3.544793,-1.14149 0.01473,0.50785 -1.281106,1.87961 -3.027455,3.20496 -3.027541,2.29768 -3.060569,2.30877 -3.942336,1.32476 -0.489067,-0.54578 -1.137806,-0.98087 -1.441638,-0.96686 -0.303839,0.014 -0.578722,-0.54485 -0.610842,-1.24192 -0.03213,-0.69705 -0.237368,-1.25913 -0.456061,-1.24904 -0.218707,0.0101 -0.830922,-0.64354 -1.360483,-1.45248 l -0.962838,-1.4708 -2.570885,1.57934 c -1.413987,0.86864 -3.812852,1.91362 -5.330804,2.32216 -3.07832,0.82851 -6.250767,2.23326 -5.856153,2.5931 0.141479,0.12904 0.88517,-0.0378 1.65261,-0.37084 3.408625,-1.47897 2.952729,2.38702 -0.522848,4.43381 -2.065625,1.21645 -2.103628,1.28022 -0.725199,1.21669 1.026548,-0.0473 2.064879,-0.72377 3.52806,-2.29843 1.618025,-1.74132 2.213818,-2.10334 2.712765,-1.64836 0.498933,0.45498 0.220972,1.07106 -1.265681,2.80512 -1.799966,2.09952 -1.225773,1.93505 1.126978,-0.32281 1.214957,-1.16596 3.168273,-0.96314 2.26369,0.23504 -0.406208,0.53804 -0.271268,0.67199 0.60552,0.60112 0.739944,-0.0598 1.547215,-0.81481 2.345811,-2.19391 1.284421,-2.2181 3.593372,-4.23814 4.061518,-3.55331 0.366507,0.53612 -2.900998,5.55768 -5.247777,8.06486 -1.986066,2.12182 -2.187404,2.16813 -7.488653,1.72238 z m 4.267664,-3.09515 c 0.593521,-0.83312 0.574763,-0.85023 -0.20023,-0.18256 -0.470293,0.40517 -0.851124,0.82278 -0.846273,0.92805 0.01923,0.41723 0.423156,0.1295 1.046494,-0.74548 z m -34.761014,0.15649 c -1.110935,-0.94109 -1.959406,-2.08438 -1.891941,-2.54925 0.09723,-0.66977 0.555373,-0.49004 2.229983,0.87479 2.137249,1.7419 4.387119,3.01087 4.710164,2.65661 0.09744,-0.10689 -1.356831,-1.22391 -3.231771,-2.48229 -3.414867,-2.29192 -4.059049,-3.4689 -1.905108,-3.48078 l 1.150332,-0.006 -1.240297,-0.84887 c -1.02966,-0.70472 -4.056349,-1.77661 -8.195057,-2.90227 -0.466596,-0.1269 -1.197837,0.46648 -1.849515,1.50082 l -1.077795,1.71071 1.241458,0.95884 c 0.6828,0.52736 1.777509,1.76572 2.432675,2.75192 0.655187,0.9862 1.51363,2.03648 1.907679,2.33398 0.772868,0.58348 2.511539,0.0984 2.052778,-0.57244 -0.765393,-1.11962 0.939765,-0.89703 2.87894,0.37583 2.923072,1.91867 3.266304,1.77866 0.787436,-0.32124 z m 23.093877,-1.26315 c 5.456824,-1.64572 8.06616,-3.29118 3.822563,-2.41052 -1.30126,0.27005 -2.288379,0.2071 -2.799158,-0.17853 -0.63392,-0.47858 -1.274314,-0.41181 -3.257724,0.33969 -3.068912,1.16277 -5.496275,1.28883 -10.171284,0.52826 -4.231241,-0.68838 -5.646011,-1.25876 -5.693801,-2.29553 -0.02013,-0.43669 -0.503788,-0.71458 -1.174156,-0.6746 -1.018026,0.0607 -1.042509,0.11888 -0.228971,0.54382 1.146482,0.59884 1.196824,1.39209 0.142188,2.24045 -0.741291,0.59632 -0.681211,0.74131 0.627973,1.5154 3.740613,2.21174 12.116596,2.38682 18.732367,0.39157 z m -2.851051,-3.8525 c 1.663679,-0.72535 2.270993,-1.28822 2.357146,-2.18463 0.09345,-0.97232 -0.0542,-1.13303 -0.758058,-0.82504 -2.771311,1.21262 -7.0484,1.25055 -13.472756,0.11948 -1.094113,-0.19263 -1.382774,-0.0191 -1.59037,0.95626 -0.334812,1.57297 0.170726,1.9547 3.423256,2.58489 3.791016,0.73453 7.399622,0.50058 10.040791,-0.65096 z m 5.374311,-1.65768 c -0.17622,-0.16069 -0.614294,-0.15856 -0.973501,0.005 -0.396956,0.18046 -0.271288,0.29506 0.320399,0.29217 0.535424,-0.003 0.829321,-0.13624 0.653101,-0.29693 z m -4.246004,-3.17062 c 0.991321,-1.08711 0.187027,-4.29811 -1.450671,-5.79149 l -1.260085,-1.14905 -1.487765,1.37372 c -1.781858,1.64528 -3.937215,1.8631 -5.258831,0.53147 -2.01023,-2.02547 -3.486623,-0.72708 -3.997351,3.51542 -0.174023,1.44561 -0.04084,1.59909 1.7908,2.06373 3.35293,0.85056 3.919716,0.89322 7.487128,0.56345 2.201447,-0.2035 3.71968,-0.60598 4.176775,-1.10725 z"
       id="path390" />
  </g>
  <g
     id="g454"
     transform="translate(-161.51809,-114.02443)">
    <g
       transform="matrix(0.1,0,0,-0.1,-18.570981,129.38797)"
       fill="#000000"
       stroke="none"
       id="g418">
      <path
         fill="#000000"
         stroke="none"
         d="m 447,1262 c -15,-16 -24,-52 -26,-98 -1,-17 -11,-22 -53,-30 -42,-7 -54,-13 -56,-30 -2,-16 6,-23 37,-34 33,-10 41,-19 46,-44 12,-59 17,-66 59,-91 40,-23 44,-29 49,-77 4,-28 4,-55 1,-59 -3,-5 -59,-9 -124,-9 -73,0 -121,-4 -125,-11 -4,-5 -11,-58 -16,-117 -5,-59 -13,-136 -18,-172 -6,-36 -13,-112 -17,-169 -7,-98 -6,-103 12,-99 16,3 20,16 26,88 14,175 31,331 37,335 4,2 19,-56 35,-128 15,-73 36,-170 47,-217 11,-47 25,-107 31,-135 12,-52 24,-75 39,-75 15,0 11,29 -26,191 -20,85 -42,183 -50,219 -8,36 -23,103 -34,150 -12,47 -21,90 -21,96 0,7 75,11 225,12 l 226,2 -6,-37 C 725,610 688,432 636,205 605,74 604,57 627,62 c 16,3 26,40 77,283 10,44 26,120 37,168 11,49 22,115 26,148 3,32 9,59 12,59 3,0 40,-68 81,-151 116,-235 121,-241 158,-170 12,22 55,93 98,158 42,65 82,128 90,139 11,19 25,22 111,26 132,7 135,9 131,71 -3,45 -6,52 -28,57 -19,5 -26,14 -31,43 -7,46 -27,84 -46,92 -8,3 -27,-2 -43,-11 -25,-15 -30,-15 -50,-1 -45,31 -82,-10 -92,-102 -2,-18 -11,-27 -32,-32 -59,-16 -86,-67 -47,-88 10,-6 37,-13 60,-17 22,-4 41,-10 41,-14 0,-4 -31,-51 -68,-106 -38,-54 -81,-120 -96,-146 -15,-27 -31,-48 -35,-48 -3,0 -46,80 -95,178 -49,97 -95,182 -104,189 -10,9 -47,11 -128,6 l -114,-6 v 62 c 0,55 3,62 23,70 38,15 75,57 82,93 5,27 15,39 41,51 19,9 34,24 34,34 0,14 -3,13 -23,-5 -32,-30 -57,-29 -57,4 0,23 3,25 30,19 17,-4 30,-2 30,3 0,11 -24,22 -49,22 -11,0 -17,9 -19,30 -1,17 -10,48 -18,70 -18,45 -41,51 -69,20 l -18,-20 -14,20 c -17,25 -45,26 -66,2 z"
         id="path394" />
      <path
         fill="#ffffff"
         stroke="none"
         d="m 508,1238 24,-23 15,23 c 20,29 37,28 51,-3 24,-52 19,-55 -73,-55 -81,0 -85,1 -85,22 0,19 25,58 38,58 3,0 17,-10 30,-22 z"
         id="path396" />
      <path
         fill="#ffffff"
         stroke="none"
         d="m 464,1162 c 2,-4 -4,-13 -15,-20 -16,-11 -19,-9 -19,8 0,19 24,28 34,12 z"
         id="path398" />
      <path
         fill="#ffffff"
         stroke="none"
         d="m 614,1153 c 9,-23 4,-24 -22,-4 -21,16 -22,17 -3,18 11,1 22,-5 25,-14 z"
         id="path400" />
      <path
         fill="#ffffff"
         stroke="none"
         d="m 554,1124 c 24,-9 19,-24 -6,-20 -13,3 -36,5 -53,5 -23,1 -27,4 -15,11 17,11 51,13 74,4 z"
         id="path402" />
      <path
         fill="#ffffff"
         stroke="none"
         d="m 410,1100 c -12,-22 -31,-25 -62,-9 -27,14 -7,29 40,29 30,0 32,-2 22,-20 z"
         id="path404" />
      <path
         fill="#ffffff"
         stroke="none"
         d="m 608,1043 c 6,-84 -80,-123 -147,-67 -40,33 -43,74 -6,74 14,0 25,5 25,11 0,5 -4,8 -8,5 -4,-2 -14,-1 -21,4 -29,17 0,25 76,20 l 78,-5 z"
         id="path406" />
      <path
         fill="#ffffff"
         stroke="none"
         d="m 1240,925 c 16,-20 39,-19 62,2 23,20 38,8 41,-33 2,-25 -2,-29 -27,-32 -17,-2 -49,-1 -73,3 -39,6 -43,9 -43,34 0,42 17,53 40,26 z"
         id="path408" />
      <path
         fill="#ffffff"
         stroke="none"
         d="m 1313,825 c 24,1 36,-2 34,-9 -5,-15 -106,-20 -141,-6 -40,15 -23,29 26,20 24,-5 60,-7 81,-5 z"
         id="path410" />
      <path
         fill="#ffffff"
         stroke="none"
         d="m 1424,804 c 9,-3 16,-10 16,-14 0,-23 -177,-49 -207,-31 -15,10 -10,11 27,10 82,-4 110,1 127,21 20,23 17,22 37,14 z"
         id="path412" />
      <path
         fill="#ffffff"
         stroke="none"
         d="m 1150,791 c 0,-5 15,-12 33,-16 20,-5 26,-9 15,-12 -24,-6 -100,16 -93,27 8,12 45,13 45,1 z"
         id="path414" />
      <path
         fill="#000000"
         stroke="none"
         d="m 495,1060 c -3,-5 1,-10 10,-10 9,0 13,5 10,10 -3,6 -8,10 -10,10 -2,0 -7,-4 -10,-10 z"
         id="path416" />
    </g>
    <rect
       style="fill:#f9f9f9;stroke-width:0.75"
       id="rect420"
       width="28.679468"
       height="2.2215538"
       x="18.824495"
       y="4.706521" />
    <rect
       style="fill:#f9f9f9;stroke-width:0.75"
       id="rect422"
       width="28.679468"
       height="2.2215538"
       x="21.087307"
       y="8.4220705" />
    <rect
       style="fill:#f9f9f9;stroke-width:0.357093"
       id="rect424"
       width="9.5121975"
       height="1.5184081"
       x="15.508054"
       y="12.380587" />
    <rect
       style="fill:#f9f9f9;stroke-width:0.357093"
       id="rect426"
       width="9.5121975"
       height="1.5184081"
       x="40.00386"
       y="13.05578" />
    <rect
       style="fill:#f9f9f9;stroke-width:0.357093"
       id="rect428"
       width="9.5121975"
       height="1.5184081"
       x="48.435452"
       y="20.375801" />
    <rect
       style="fill:#f9f9f9;stroke-width:0.357093"
       id="rect430"
       width="9.5121975"
       height="1.5184081"
       x="48.435452"
       y="20.375801" />
    <rect
       style="fill:#f9f9f9;stroke-width:0.357093"
       id="rect432"
       width="9.5121975"
       height="1.5184081"
       x="14.063251"
       y="15.404281" />
    <rect
       style="fill:#f9f9f9;stroke-width:0.357093"
       id="rect434"
       width="9.5121975"
       height="1.5184081"
       x="9.0290508"
       y="17.943993" />
    <rect
       style="fill:#f9f9f9;stroke-width:0.357093"
       id="rect436"
       width="9.5121975"
       height="1.5184081"
       x="10.618256"
       y="21.861069" />
    <rect
       style="fill:#f9f9f9;stroke-width:0.357093"
       id="rect438"
       width="9.5121975"
       height="1.5184081"
       x="-11.136014"
       y="50.866314"
       transform="rotate(-79.756458)" />
    <rect
       style="fill:#f9f9f9;stroke-width:0.357093"
       id="rect440"
       width="9.5121975"
       height="1.5184081"
       x="-23.872938"
       y="19.918333"
       transform="rotate(-79.756458)" />
    <rect
       style="fill:#f9f9f9;stroke-width:0.357093"
       id="rect442"
       width="9.5121975"
       height="1.5184081"
       x="-1.6937029"
       y="28.358156"
       transform="rotate(-79.756458)" />
    <rect
       style="fill:#f9f9f9;stroke-width:0.357093"
       id="rect444"
       width="9.5121975"
       height="1.5184081"
       x="1.0186235"
       y="38.463917"
       transform="rotate(-79.756458)" />
    <rect
       style="fill:#f9f9f9;stroke-width:0.357093"
       id="rect446"
       width="9.5121975"
       height="1.5184081"
       x="-5.7336893"
       y="40.169563"
       transform="rotate(-79.756458)" />
    <rect
       style="fill:#f9f9f9;stroke-width:0.357093"
       id="rect448"
       width="9.5121975"
       height="1.5184081"
       x="-8.0288601"
       y="29.730698"
       transform="rotate(-79.756458)" />
    <rect
       style="fill:#f9f9f9;stroke-width:0.337164"
       id="rect450"
       width="8.5079384"
       height="1.5134411"
       x="-21.138008"
       y="33.039265"
       transform="matrix(0.19882363,-0.98003529,0.98729034,0.158927,0,0)" />
    <rect
       style="fill:#f9f9f9;stroke-width:0.413588"
       id="rect452"
       width="8.7061405"
       height="2.2254498"
       x="-23.922783"
       y="40.84594"
       transform="matrix(0.28768854,-0.95772402,0.9941422,0.10808002,0,0)" />
  </g>
  <path
     style="fill:#000000;stroke-width:0.567516"
     d="m -22.756351,49.526449 c 0.31177,2.880554 0.276887,6.02213 -0.09349,8.407189 -0.325223,2.094424 -0.522049,4.066188 -0.437352,4.381702 0.0847,0.315521 0.503946,2.927614 0.931624,5.804653 0.679221,4.569228 0.668003,5.466858 -0.08876,7.095572 -1.055517,2.271683 -3.229827,4.462078 -6.516517,6.564666 -2.719928,1.740027 -3.110846,2.828169 -1.426171,3.969883 0.609247,0.412955 1.100624,0.941706 1.091915,1.175101 -0.0338,0.903655 -5.492921,7.041035 -5.975157,6.71751 -0.83112,-0.557602 -0.569571,-1.292082 1.319245,-3.704446 0.984024,-1.256787 1.794982,-2.441537 1.802135,-2.632792 0.01211,-0.323589 -4.973914,-4.66565 -6.414002,-5.585598 -0.386295,-0.246805 -1.521023,0.693692 -2.83373,2.348628 -1.946363,2.453793 -3.826226,3.557817 -3.776136,2.217703 0.02286,-0.611413 5.46586,-7.290336 6.736926,-8.266658 0.523693,-0.402263 1.148288,-1.65671 1.388024,-2.787666 0.239693,-1.130968 1.080146,-2.981821 1.867655,-4.112996 1.181874,-1.697615 0.0495,-2.721951 1.066911,-4.219457 1.290047,-1.898799 -0.453452,-2.195141 -5.102785,-3.894567 -2.605826,-0.95247 -5.040625,-2.178443 -5.410672,-2.72436 -0.988963,-1.459006 -0.74265,-3.300377 0.591127,-4.419716 1.498284,-1.257396 1.569817,-3.171215 0.169565,-4.536951 -1.387817,-1.353619 -1.314627,-3.980879 0.148741,-5.33879 0.6182,-0.573647 2.625295,-1.282915 4.460219,-1.576142 1.834925,-0.293231 3.779556,-0.641451 4.321395,-0.77383 1.026023,-0.250664 2.505156,-1.807855 2.505156,-1.807855 0,0 0.58505,-0.662667 2.371532,-1.764401 0.156982,-0.14564 0.04031,-0.989954 -0.259272,-1.876211 4.429811,-3.643185 6.180587,1.917292 6.180587,1.917292 1.561204,5.98738 0.82433,4.992343 1.381298,9.422537 z m -3.449185,21.658565 c -1.152246,1.150334 -2.505377,1.989344 -3.017137,1.870842 -0.737332,-0.170795 -0.494357,-0.664565 1.182631,-2.40357 2.140295,-2.219436 3.764054,-4.60844 3.399374,-5.001448 -0.110042,-0.118544 -1.490342,1.398007 -3.067368,3.370179 -2.872268,3.591955 -4.178445,3.730918 -3.597934,1.393167 l 1.428494,-2.781241 0.928974,-1.964526 -0.687905,-0.17541 -3.089522,5.34731 c -0.698041,1.208161 -2.357793,4.354832 -3.997833,8.862102 -0.184889,0.508149 0.408229,1.378331 1.500171,2.200927 l 1.805988,1.360484 1.184198,-1.294143 c 0.6513,-0.711764 2.133324,-1.816321 3.293381,-2.45455 1.160058,-0.63824 2.41047,-1.497025 2.778714,-1.908437 0.722235,-0.806911 5.68898,-10.279204 -0.05956,-2.677642 -1.319015,0.748623 -1.299173,-0.794142 0.299963,-2.836545 2.410512,-3.078688 2.286461,-3.474228 -0.284617,-0.907449 z m 0.744097,-25.853351 c -1.325548,-6.234383 -2.916112,-9.295524 -2.330105,-4.484434 0.179695,1.475277 0.01757,2.569451 -0.459758,3.102728 -0.592395,0.661846 -0.577656,1.381718 0.07501,3.662036 1.00984,3.528313 0.924156,6.245094 -0.359007,11.384028 -1.161368,4.651126 -2.116614,6.185673 -3.276437,6.14233 -0.409799,-0.951918 -1.318929,-1.207572 -1.469564,-1.115601 -0.150634,0.09197 -0.686428,0.227982 0.796198,2.350137 0.245628,0.35158 -1.055248,1.17406 -0.635134,1.534609 0.405527,0.34803 1.096487,-0.397223 1.371162,-0.830727 0.193544,-0.305459 0.449683,-0.722123 0.738262,-1.1557 0.288578,-0.433577 0.609594,-0.884067 0.93289,-1.257177 0.646593,-0.746219 1.302307,-1.182919 1.725876,-0.555756 0.595464,0.881652 -0.275731,3.449093 0.708885,2.06227 2.813277,-3.962437 3.788805,-13.280263 2.181732,-20.838737 z m -4.558844,2.818241 c -0.653318,-1.921576 -1.223985,-2.650806 -2.214912,-2.830336 -1.074845,-0.194743 -1.267689,-0.04516 -0.990058,0.767901 1.093129,3.201315 0.736889,7.971208 -1.122158,15.02508 -0.316607,1.201323 -0.150102,1.539175 0.917476,1.861395 1.721713,0.519672 2.194216,-0.0081 3.199546,-3.574008 1.171774,-4.156243 1.247291,-8.199448 0.210108,-11.250042 z m -5.275497,-1.707247 c -1.119111,-1.206011 -4.772357,-0.608895 -6.589164,1.077004 l -1.397897,1.297169 1.392238,1.78595 c 1.667466,2.138984 1.709387,4.561197 0.102284,5.909923 -2.444472,2.051467 -1.135114,3.817724 3.545113,4.782164 1.594763,0.328624 1.778209,0.1945 2.466667,-1.803369 1.260264,-3.657233 1.360611,-4.28488 1.325503,-8.291106 -0.02165,-2.472237 -0.328726,-4.201646 -0.844744,-4.757735 z"
     id="path456"
     sodipodi:nodetypes="ccssssccssscssscssscssssscccccccscsscccssccssscsccccscsscssacssccccssscsccsscsssssss"
     inkscape:transform-center-x="9.1531163"
     inkscape:transform-center-y="-6.345321" />
  <path
     style="fill:#000000;stroke-width:0.507489"
     d="m 59.111933,-57.63001 c -2.365146,1.057804 -5.047792,1.892382 -7.179032,2.233415 -1.871528,0.299495 -3.603366,0.674491 -3.848522,0.833357 -0.24516,0.158877 -2.352335,1.234222 -4.682621,2.389637 -3.700891,1.834993 -4.467733,2.072398 -6.061731,1.876592 -2.223267,-0.273113 -4.68517,-1.520525 -7.378394,-3.738568 -2.228811,-1.835557 -3.262212,-1.868805 -3.770165,-0.121283 -0.183751,0.631991 -0.498455,1.195552 -0.699436,1.252353 -0.778179,0.219855 -7.502107,-2.736578 -7.359506,-3.235899 0.245786,-0.86057 0.942679,-0.840097 3.514899,0.103332 1.340067,0.491499 2.571228,0.855562 2.735926,0.809031 0.278659,-0.07872 2.601389,-5.515687 2.98794,-6.994088 0.103719,-0.396582 -1.008692,-1.103325 -2.777953,-1.764949 -2.623303,-0.980995 -4.079851,-2.276752 -2.925827,-2.602821 0.526513,-0.148762 7.706781,2.644965 8.887183,3.457856 0.486345,0.334919 1.725536,0.521239 2.753774,0.414075 1.028234,-0.107205 2.834266,0.0987 4.013392,0.457551 1.76958,0.538562 2.447609,0.494379 3.883677,-0.253057 1.707309,-0.8886 1.742998,-0.989745 1.909853,-5.413199 0.09351,-2.479226 0.46678,-4.888176 0.829471,-5.353224 0.969324,-1.242864 2.603831,-1.539879 3.923171,-0.712978 1.482068,0.928893 3.130134,0.463233 3.906946,-1.103917 0.769922,-1.553237 3.025479,-2.213768 4.583464,-1.342235 0.658168,0.368179 1.81384,1.880796 2.568153,3.361382 0.754315,1.480584 1.585604,3.039384 1.847308,3.463992 0.495555,0.804036 2.227436,1.634156 2.227436,1.634156 0,0 0.724792,0.315483 2.153702,1.532416 0.167107,0.0935 0.853397,-0.238059 1.525054,-0.736786 4.318543,2.76683 0.06905,5.786272 0.06905,5.786272 -4.664887,2.975591 -4.020979,2.074865 -7.637207,3.767587 z m -19.377259,3.023881 c -1.295772,-0.66392 -2.381917,-1.584414 -2.421885,-2.052449 -0.05753,-0.674353 0.429445,-0.60346 2.370456,0.344987 2.477254,1.210478 4.956678,1.934807 5.19074,1.516394 0.07059,-0.126244 -1.599522,-0.883452 -3.711424,-1.682697 -3.846448,-1.455678 -4.324037,-2.528816 -2.175238,-2.67804 l 2.870636,0.122747 -0.183681,-0.665622 -3.440187,-0.548071 c -1.232195,-0.196305 -4.354005,-0.808054 -8.640247,-0.963464 -0.48323,-0.01751 -1.060452,0.726546 -1.45995,1.881941 l -0.660719,1.91093 1.426923,0.651541 c 0.784793,0.358344 2.132344,1.315452 2.994536,2.126906 0.862202,0.811452 1.936914,1.639106 2.388277,1.839243 0.885265,0.392522 10.311262,2.012519 2.261902,-0.787347 -0.999855,-0.916333 0.318275,-1.32389 2.496018,-0.525152 3.282693,1.203999 3.585113,0.98963 0.693805,-0.491824 z m 22.202202,-6.479581 c 4.939885,-2.843036 7.106885,-5.03855 3.174558,-3.216328 -1.205811,0.558768 -2.181399,0.721851 -2.766463,0.462428 -0.726113,-0.321959 -1.334565,-0.111367 -3.09523,1.071311 -2.724264,1.829927 -5.059428,2.504456 -9.784941,2.826477 -4.276953,0.291448 -5.784341,0.0576 -6.06655,-0.941171 -0.118866,-0.420682 -0.653032,-0.581356 -1.296763,-0.390041 -0.977583,0.290503 -0.988197,0.352741 -0.09936,0.581628 1.252593,0.322563 1.481932,1.083602 0.647746,2.149481 -0.586337,0.749212 -0.494871,0.876752 0.956,1.332981 4.145446,1.303561 12.341961,-0.429899 18.331004,-3.876753 z m -3.652134,-3.103574 c 1.455247,-1.084538 1.918717,-1.770717 1.79885,-2.663246 -0.130012,-0.968116 -0.310335,-1.091048 -0.925756,-0.631135 -2.423121,1.810833 -6.579622,2.820003 -13.092909,3.178863 -1.109259,0.06112 -1.350914,0.295737 -1.331367,1.292742 0.03151,1.6079 0.610582,1.864726 3.921218,1.739083 3.858741,-0.146443 7.319702,-1.194545 9.629973,-2.916308 z m 0.0012,-4.958383 c 0.718256,-1.283998 -0.794878,-4.228108 -2.729168,-5.310131 l -1.48829,-0.832536 -1.136558,1.675939 c -1.361221,2.007247 -3.410642,2.709309 -5.000356,1.712951 -2.41802,-1.515501 -3.560624,0.0845 -3.093614,4.332038 0.159135,1.447324 0.323723,1.56651 2.213031,1.602641 3.4585,0.06614 4.020145,-0.02116 7.419209,-1.153211 2.097561,-0.698582 3.48456,-1.435645 3.815746,-2.027691 z"
     id="path125"
     sodipodi:nodetypes="ccssssccssscssscssscssssscccccccscssccssccssscscccsscsscscccccssscsccsscssssss" />
</svg>
