<?xml version="1.0" encoding="UTF-8" standalone="no"?>
<svg
   xmlns:dc="http://purl.org/dc/elements/1.1/"
   xmlns:cc="http://creativecommons.org/ns#"
   xmlns:rdf="http://www.w3.org/1999/02/22-rdf-syntax-ns#"
   xmlns:svg="http://www.w3.org/2000/svg"
   xmlns="http://www.w3.org/2000/svg"
   xmlns:sodipodi="http://sodipodi.sourceforge.net/DTD/sodipodi-0.dtd"
   xmlns:inkscape="http://www.inkscape.org/namespaces/inkscape"
   version="1.0"
   width="148.777193pt"
   height="173.357025pt"
   viewBox="0 0 148.777193 173.357025"
   preserveAspectRatio="xMidYMid meet"
   id="svg26"
   sodipodi:docname="010-prep.svg"
   inkscape:version="1.0.2 (e86c870879, 2021-01-15)">
  <defs
     id="defs30" />
  <sodipodi:namedview
     pagecolor="#ffffff"
     bordercolor="#666666"
     borderopacity="1"
     objecttolerance="10"
     gridtolerance="10"
     guidetolerance="10"
     inkscape:pageopacity="0"
     inkscape:pageshadow="2"
     inkscape:window-width="1600"
     inkscape:window-height="836"
     id="namedview28"
     showgrid="false"
     inkscape:zoom="2.6563677"
     inkscape:cx="11.65926"
     inkscape:cy="92.515282"
     inkscape:window-x="0"
     inkscape:window-y="0"
     inkscape:window-maximized="1"
     inkscape:current-layer="svg26" />
  <metadata
     id="metadata2">
Created by potrace 1.16, written by Peter Selinger 2001-2019
<rdf:RDF>
  <cc:Work
     rdf:about="">
    <dc:format>image/svg+xml</dc:format>
    <dc:type
       rdf:resource="http://purl.org/dc/dcmitype/StillImage" />
    <dc:title></dc:title>
  </cc:Work>
</rdf:RDF>
</metadata>
  <g
     id="g224"
     transform="translate(-108.00073,5.4780664)">
    <path
       fill="#000000"
       stroke="none"
       d="m 18.435516,2.37349 c -4,1.2 -6.3,5.2 -6.3,11.2 0,3.9 0.5,4.9 3.4,7.5 1.9,1.6 3.9,3.1 4.5,3.3 0.6,0.2 1.2,2 1.3,3.9 l 0.3,3.5 -5.7,0.3 c -4.3,0.2 -5.8,0.7 -6.2,2 -5.7,18.7 -7.7,28.6 -8.2,39.7 -0.4,11.3 0.2,15.5 2.2,14.2 0.5,-0.3 1,-6.1 1.2,-12.9 0.2,-9.3 0.9,-14.6 2.8,-21.8 3.3,-12.3 4,-13.5 4.9,-8.5 0.3,2.2 2.3,10.7 4.3,18.8 l 3.7,14.8 -3.8,18.7 c -5.3,26.5 -5.5,28.6 -6.3,48.8 -0.7,17.8 -0.6,18.3 1.6,21.4 1.6,2.2 2.6,2.8 3.3,2.1 0.7,-0.7 0.5,-1.7 -0.8,-3.1 -2.1,-2.3 -2.2,-9.8 -0.5,-33.6 0.7,-10.9 6.9,-46.1 7.7,-43.8 3.7,11.3 7.7,30.3 8.8,41.4 2.8,29.9 4.1,36.2 7.6,39.6 2.8,2.7 5.3,2.7 3.4,0 -3.7,-5 -4.5,-7 -5.5,-14.6 -0.6,-4.7 -1.5,-14.1 -2,-20.9 -0.9,-11.3 -2,-17.3 -7.9,-44.5 l -2,-8.9 5,-19.5 c 2.7,-10.7 5.3,-20.2 5.8,-21 0.5,-0.9 1.5,2.7 2.6,9.8 l 1.8,11.3 7.3,8.8 c 4,4.8 7.8,9 8.3,9.4 0.6,0.3 1.1,1.7 1.1,3 0,4.3 8.6,9.4 20.8,12.6 6.1,1.5 8.2,1.7 10.4,0.8 3.7,-1.5 4.5,-4.5 2,-7.2 -1.6,-1.9 -1.9,-3.2 -1.4,-8.5 0.5,-7.3 -0.2,-8.5 -5,-8.4 -2,0 -3.9,-0.6 -5.1,-1.9 -2.9,-3.1 -5.3,-2.3 -9.2,2.8 -2.7,3.6 -4.5,5 -7,5.4 -3.1,0.5 -3.8,0.1 -7.8,-4 -6.2,-6.5 -10.6,-12.5 -11.6,-15.8 -0.5,-1.5 -1.7,-7.3 -2.6,-12.8 -2.5,-14.9 -2.5,-14.9 -9,-14.2 -5.3,0.5 -5.5,0.5 -5.5,-1.8 0,-1.3 -0.3,-3 -0.6,-3.9 -0.4,-1.1 0.2,-1.9 1.9,-2.5 8.1,-3.1 9.2,-16 1.7,-20.4 -3.1,-1.9 -4.9,-2 -9.7,-0.6 z"
       id="path4"
       style="stroke-width:0.1" />
    <path
       fill="#ffffff"
       stroke="none"
       d="m 28.135516,7.27349 c 4.3,4.3 1.7,12 -4.6,13.6 -6.1,1.5 -10.8,-7.3 -6.9,-13.2 2,-3.1 8.5,-3.4 11.5,-0.4 z"
       id="path6"
       style="stroke-width:0.1" />
    <path
       fill="#ffffff"
       stroke="none"
       d="m 28.235516,54.17349 c -2.7,10.6 -5.1,19.5 -5.4,19.7 -0.7,0.8 -8.7,-33.1 -8.7,-37.3 0,-0.9 2.8,-1.3 9.3,-1.5 5,-0.2 9.3,-0.3 9.5,-0.2 0.1,0 -2,8.7 -4.7,19.3 z"
       id="path8"
       style="stroke-width:0.1" />
    <path
       fill="#ffffff"
       stroke="none"
       d="m 78.135516,74.77349 c 0.9,1.1 2.2,1.4 4.2,1 2.8,-0.7 2.8,-0.6 2.8,4.1 v 4.7 l -3.6,-0.6 c -4.4,-0.7 -12.4,-4.5 -12.4,-5.9 0,-0.5 0.9,-2.3 2.1,-3.9 2.2,-3.1 4,-2.9 6.9,0.6 z"
       id="path10"
       style="stroke-width:0.1" />
    <path
       fill="#ffffff"
       stroke="none"
       d="m 63.935516,84.07349 c 3.7,3.9 13.5,7.5 19,6.9 3.1,-0.3 4.2,-0.1 4.2,0.9 0,3.5 -16.9,-0.1 -24.2,-5.1 -2.1,-1.4 -3.8,-3.2 -3.8,-4 0,-2.3 1.9,-1.8 4.8,1.3 z"
       id="path12"
       style="stroke-width:0.1" />
    <path
       fill="#ffffff"
       stroke="none"
       d="m 69.635516,82.67349 c 1.1,0.8 4.9,2.3 8.5,3.4 5.7,1.8 6.1,2.1 3,2.1 -4.1,0 -14.2,-3.8 -14.8,-5.7 -0.5,-1.6 0.9,-1.5 3.3,0.2 z"
       id="path14"
       style="stroke-width:0.1" />
  </g>
  <path
     fill="#000000"
     stroke="none"
     d="m 123.43552,11.77349 c -8.3,3.6 -8.2,15.4 0.2,20.3 2.8,1.7 3.5,2.8 3.5,5.2 0,3 0,3 -5.4,3 -6.5,0 -6,-1 -8,15.8 -1.4,11.1 -2,13.4 -6.6,23.3 -2.7,6 -5,11.2 -5,11.4 0,0.3 0.6,0.5 1.3,0.5 0.8,0 3.7,-4.8 6.6,-10.6 4.5,-9.3 5.3,-11.8 6.3,-20.5 0.6,-5.5 1.4,-9.6 1.8,-9.2 0.6,0.8 1.6,3.9 6.4,21.6 l 2.4,8.8 -3.8,10.7 c -2.1,5.9 -5.9,16.5 -8.4,23.7 -2.6,7.1 -4.4,13.5 -4.1,14.2 0.3,0.9 2.5,1.3 6.3,1.3 h 5.9 l 0.6,6.7 c 0.4,3.8 0.7,11.5 0.7,17.2 0,8.2 -0.3,10.8 -1.6,12.2 -1,1.1 -1.4,2.5 -1,3.6 0.6,1.5 1,1.3 3.2,-1.2 2.5,-3 2.5,-3 2.1,-20.8 -0.4,-16.8 -0.3,-17.7 1.4,-17.7 1.7,0 1.9,1 2,11.2 0.1,19.9 1.5,28.8 4.6,28.8 1.1,0 1.3,-0.6 0.8,-2.3 -1.7,-5.4 -2.3,-13.1 -2.2,-25.2 l 0.2,-13 5.8,-0.3 c 3.1,-0.2 5.7,-0.7 5.7,-1.1 0,-0.8 -7.3,-24 -12.5,-39.9 l -2.4,-7.2 3.9,-12.4 c 2.1,-6.8 4.2,-14 4.5,-16 1.3,-6.4 2.5,-2.7 2.5,7.3 0,8.7 3,28.4 4.5,30 0.3,0.2 0.9,0 1.4,-0.5 0.5,-0.5 0.3,-3.6 -0.5,-7.4 -0.8,-3.6 -1.9,-13.7 -2.5,-22.5 -1.4,-22.1 -0.7,-20.5 -7.9,-20.5 h -6 v -4 c 0,-2.7 0.4,-4 1.4,-4 0.7,0 2.5,-0.9 3.9,-2 5.5,-4.4 3.9,-15.3 -2.8,-18.4 -4,-1.9 -5.1,-1.9 -9.2,-0.1 z"
     id="path16"
     style="stroke-width:0.1" />
  <path
     fill="#ffffff"
     stroke="none"
     d="m 133.13552,16.27349 c 5.2,5.2 2.6,12.3 -4.7,12.8 -3.4,0.3 -4.4,-0.1 -6.2,-2.4 -2.8,-3.5 -2.7,-6.9 0.4,-9.9 3,-3.1 7.7,-3.3 10.5,-0.5 z"
     id="path18"
     style="stroke-width:0.1" />
  <path
     fill="#ffffff"
     stroke="none"
     d="m 138.13552,43.97349 c -0.1,2.7 -8,30.3 -9,31.6 -0.4,0.4 -1.5,-2.3 -2.5,-6 -0.9,-3.7 -2.8,-10.4 -4.1,-14.9 -3.6,-12 -3.9,-11.4 6.6,-11.4 5,0 9,0.3 9,0.7 z"
     id="path20"
     style="stroke-width:0.1" />
  <path
     fill="#ffffff"
     stroke="none"
     d="m 135.03552,106.67349 c 3.4,10.9 6.1,20 5.9,20.1 -0.8,0.7 -26.8,1.4 -26.8,0.7 0,-0.5 1.8,-6 4.1,-12.3 2.2,-6.3 5.4,-15.4 7.1,-20.2 1.7,-4.9 3.1,-8.7 3.3,-8.5 0.2,0.2 3.1,9.2 6.4,20.2 z"
     id="path22"
     style="stroke-width:0.1" />
  <g
     transform="matrix(0.0933966,0,0,-0.0933966,-2.051226,181.51152)"
     fill="#000000"
     stroke="none"
     id="g193">
    <path
       fill="#000000"
       stroke="none"
       d="m 785,1852 c -40,-25 -51,-40 -59,-84 -10,-53 16,-111 59,-131 32,-15 35,-20 35,-62 v -45 h -53 c -32,0 -61,-6 -75,-16 -12,-8 -56,-64 -98,-124 -41,-60 -79,-112 -83,-114 -4,-3 -36,22 -70,55 -61,58 -63,61 -51,89 7,17 13,52 13,80 1,62 -24,100 -79,118 -77,26 -158,-8 -193,-80 -40,-83 -21,-157 49,-193 38,-20 124,-20 140,0 7,8 18,15 24,15 7,0 43,-32 82,-70 38,-39 75,-69 81,-68 7,2 50,55 96,118 45,63 87,115 92,115 12,0 104,-377 107,-440 1,-27 -8,-115 -20,-195 C 766,716 758,609 754,440 748,215 744,185 718,149 c -6,-9 -8,-25 -4,-35 7,-17 10,-16 35,14 l 28,33 7,232 c 6,219 26,438 46,503 5,18 9,22 9,10 2,-45 78,-327 132,-486 81,-242 102,-294 122,-298 18,-4 24,26 8,44 -12,13 -85,211 -121,329 -34,111 -80,292 -110,429 -19,87 -19,90 -1,155 10,36 36,127 56,201 20,74 40,141 44,148 10,18 72,-355 77,-461 4,-107 10,-119 42,-99 10,7 10,33 -3,138 -9,71 -20,145 -25,164 -5,19 -21,102 -35,183 -14,82 -30,157 -36,168 -9,18 -19,20 -72,17 l -62,-3 -3,45 c -2,43 -1,46 36,63 60,27 78,89 47,163 -10,23 -26,39 -49,49 -46,19 -65,19 -101,-3 z"
       id="path181" />
    <path
       fill="#ffffff"
       stroke="none"
       d="m 893,1798 c 17,-21 23,-83 9,-105 -26,-40 -110,-32 -131,13 -21,47 -14,82 22,104 37,24 73,19 100,-12 z"
       id="path183" />
    <path
       fill="#ffffff"
       stroke="none"
       d="m 352,1560 c 18,-22 24,-82 12,-114 -3,-9 -15,-16 -26,-16 -15,0 -18,-5 -13,-20 14,-43 -103,-59 -149,-21 -8,7 -19,25 -26,42 -17,41 10,113 54,140 42,27 122,21 148,-11 z"
       id="path185" />
    <path
       fill="#ffffff"
       stroke="none"
       d="m 950,1495 c 0,-2 -20,-73 -45,-157 -24,-84 -49,-177 -56,-207 -14,-65 -18,-59 -49,74 -13,55 -33,141 -45,190 l -22,90 56,6 c 76,8 161,10 161,4 z"
       id="path187" />
    <path
       fill="#000000"
       stroke="none"
       d="m 211,1536 c -53,-56 -32,-146 33,-146 55,0 93,55 86,125 -4,48 -81,62 -119,21 z"
       id="path189" />
    <path
       fill="#ffffff"
       stroke="none"
       d="m 297,1504 c 3,-8 1,-26 -5,-40 -9,-18 -19,-24 -42,-24 -26,0 -30,4 -30,28 0,15 5,33 12,40 17,17 58,15 65,-4 z"
       id="path191" />
  </g>
</svg>
