<?xml version="1.0" encoding="UTF-8" standalone="no"?>
<svg
   xmlns:dc="http://purl.org/dc/elements/1.1/"
   xmlns:cc="http://creativecommons.org/ns#"
   xmlns:rdf="http://www.w3.org/1999/02/22-rdf-syntax-ns#"
   xmlns:svg="http://www.w3.org/2000/svg"
   xmlns="http://www.w3.org/2000/svg"
   xmlns:sodipodi="http://sodipodi.sourceforge.net/DTD/sodipodi-0.dtd"
   xmlns:inkscape="http://www.inkscape.org/namespaces/inkscape"
   version="1.0"
   width="116.111868pt"
   height="82.800000pt"
   viewBox="0 0 116.111868 82.800000"
   preserveAspectRatio="xMidYMid meet"
   id="svg64"
   sodipodi:docname="030.svg"
   inkscape:version="0.92.5 (2060ec1f9f, 2020-04-08)">
  <defs
     id="defs68" />
  <sodipodi:namedview
     pagecolor="#ffffff"
     bordercolor="#666666"
     borderopacity="1"
     objecttolerance="10"
     gridtolerance="10"
     guidetolerance="10"
     inkscape:pageopacity="0"
     inkscape:pageshadow="2"
     inkscape:window-width="1600"
     inkscape:window-height="823"
     id="namedview66"
     showgrid="false"
     inkscape:zoom="48.370201"
     inkscape:cx="116.04267"
     inkscape:cy="28.892024"
     inkscape:window-x="0"
     inkscape:window-y="34"
     inkscape:window-maximized="0"
     inkscape:current-layer="svg64" />
  <metadata
     id="metadata2">
Created by potrace 1.13, written by Peter Selinger 2001-2015
<rdf:RDF>
  <cc:Work
     rdf:about="">
    <dc:format>image/svg+xml</dc:format>
    <dc:type
       rdf:resource="http://purl.org/dc/dcmitype/StillImage" />
  </cc:Work>
</rdf:RDF>
</metadata>
  <path
     style="fill:#000000;stroke:none;stroke-width:0.006014"
     inkscape:connector-curvature="0"
     id="path4"
     d="m 14.547399,1.500094 c 0,0.072168 0.198462,0.156364 0.998324,0.433008 0.866016,0.3007 2.712314,0.99231 3.06714,1.154688 0.168392,0.078182 0.499162,0.198462 0.739722,0.27063 0.234546,0.066154 1.058464,0.354826 1.828256,0.637484 0.769792,0.282658 1.720004,0.63147 2.116928,0.775806 0.396924,0.144336 1.912452,0.697624 3.36784,1.23287 1.455388,0.535246 3.181406,1.154688 3.836932,1.38322 0.655526,0.222518 1.196786,0.42098 1.2028,0.433008 0.006,0.00601 0.06014,0.108252 0.114266,0.216504 0.09622,0.18042 0.102238,0.463078 0.07217,3.45805 -0.01203,1.792172 -0.03608,4.125604 -0.05413,5.184068 -0.01804,1.058464 -0.04811,9.850932 -0.06615,19.539486 -0.0421,15.99724 -0.05413,17.627034 -0.138322,17.71123 -0.108252,0.108252 -1.377206,1.214828 -1.870354,1.635808 -0.18042,0.156364 -0.817904,0.697624 -1.407276,1.2028 -1.74406,1.497486 -1.840284,1.575668 -1.86434,1.485458 -0.01203,-0.0421 -0.108252,-0.998324 -0.216504,-2.122942 -0.102238,-1.124618 -0.198462,-2.153012 -0.21049,-2.28532 -0.01804,-0.132308 -0.12028,-1.268954 -0.24056,-2.52588 -0.114266,-1.256926 -0.222518,-2.4056 -0.24056,-2.55595 -0.01804,-0.15035 -0.0842,-0.93217 -0.15035,-1.74406 -0.168392,-1.978606 -0.234546,-2.73637 -0.27063,-3.09721 -0.01203,-0.168392 -0.0842,-0.96224 -0.15035,-1.77413 -0.06615,-0.81189 -0.174406,-2.080844 -0.24056,-2.82658 -0.156364,-1.798186 -0.222518,-2.573992 -0.33077,-3.93917 -0.04811,-0.63147 -0.102238,-1.280982 -0.12028,-1.44336 -0.01804,-0.168392 -0.05413,-0.655526 -0.09021,-1.08252 -0.03007,-0.433008 -0.09622,-1.280982 -0.15035,-1.89441 -0.04811,-0.613428 -0.126294,-1.65385 -0.18042,-2.31539 -0.04811,-0.66154 -0.126294,-1.720004 -0.174406,-2.34546 -0.05413,-0.63147 -0.108252,-1.359164 -0.126294,-1.62378 -0.04811,-0.775806 -0.264616,-3.692596 -0.36084,-4.907424 -0.162378,-2.068816 -0.15035,-1.98462 -0.354826,-2.19511 -0.102238,-0.108252 -0.318742,-0.408952 -0.475106,-0.679582 -0.890072,-1.497486 -1.888396,-2.423642 -3.379868,-3.15735 -1.130632,-0.553288 -1.83427,-0.703638 -3.33777,-0.715666 -2.4056,-0.01804 -3.403924,0.228532 -5.86365,1.437346 -1.154688,0.57133 -1.527556,0.81189 -2.567978,1.695948 -0.835946,0.703638 -0.974268,0.920142 -1.617766,2.417628 l -0.318742,0.75175 v 0.84196 c -0.00601,0.463078 0.042098,1.479444 0.102238,2.25525 0.096224,1.365178 0.15035,1.990634 0.402938,5.17204 0.066154,0.81189 0.138322,1.659864 0.15035,1.89441 0.066154,0.829932 0.709652,8.293306 0.87203,10.04338 0.306714,3.325742 0.414966,4.498472 0.48112,5.17204 0.036084,0.33077 0.21049,2.086858 0.39091,3.9091 0.18042,1.816228 0.414966,4.053436 0.51119,4.96155 0.102238,0.908114 0.21049,1.936508 0.24056,2.28532 0.06014,0.595386 0.168392,1.629794 0.3007,2.85665 0.03007,0.294686 0.084196,0.81189 0.12028,1.14266 0.036084,0.33077 0.078182,0.697624 0.09021,0.81189 0.09021,0.72168 0.24056,2.038746 0.36084,3.18742 0.054126,0.51119 0.108252,0.974268 0.12028,1.02238 0.012028,0.04811 0.066154,0.493148 0.12028,0.99231 0.054126,0.493148 0.12028,1.076506 0.15035,1.29301 0.03007,0.216504 0.084196,0.703638 0.12028,1.08252 0.036084,0.378882 0.09021,0.84196 0.12028,1.02238 0.03007,0.18042 0.084196,0.6014 0.12028,0.93217 0.03608,0.33077 0.09021,0.775806 0.12028,0.99231 0.138322,0.99231 0.138322,0.974268 -0.0421,1.184758 -0.09622,0.108252 -0.204476,0.198462 -0.246574,0.198462 -0.042098,0 -0.072168,0.03608 -0.072168,0.0842 0,0.04811 -0.03007,0.108252 -0.072168,0.132308 -0.042098,0.03007 -0.054126,0.01203 -0.024056,-0.0421 0.024056,-0.04811 0.00601,-0.03608 -0.042098,0.01804 -0.048112,0.06014 -0.108252,0.0842 -0.132308,0.06014 -0.03007,-0.02406 -0.03007,0.006 -0.012028,0.06014 0.024056,0.06014 0.018042,0.108252 -0.012028,0.108252 -0.024056,0 -0.132308,0.0842 -0.24056,0.18042 -0.108252,0.108252 -0.222518,0.168392 -0.264616,0.144336 -0.042098,-0.02406 -0.054126,-0.02406 -0.03007,0.006 0.054126,0.06014 -0.174406,0.282658 -1.040422,1.02238 -0.342798,0.3007 -0.860002,0.745736 -1.14266,0.99231 -0.282658,0.246574 -0.66154,0.577344 -0.84196,0.727694 -0.18042,0.156364 -0.847974,0.739722 -1.491472,1.29301 -0.637484,0.559302 -1.184758,1.010352 -1.214828,0.998324 -0.03007,-0.006 -0.054126,0.01203 -0.054126,0.04811 0,0.0842 -0.607414,0.63147 -0.697624,0.625456 -0.042098,-0.006 -0.072168,0.01203 -0.066154,0.03608 0.00601,0.02406 -0.012028,0.04811 -0.036084,0.05413 -0.024056,0 -0.126294,0.09021 -0.222518,0.192448 -0.114266,0.132308 -0.204476,0.18042 -0.276644,0.15035 -0.084196,-0.03007 -0.09021,-0.02406 -0.024056,0.05413 0.066154,0.0842 0.042098,0.114266 -0.072168,0.09622 -0.03007,0 -0.048112,0.03007 -0.048112,0.07217 0,0.108252 -0.21049,0.294686 -0.264616,0.24056 -0.024056,-0.02406 -0.024056,0 -0.00601,0.05413 0.024056,0.05413 0.012028,0.114266 -0.024056,0.138322 -0.102238,0.06014 -0.078182,0.138322 0.06014,0.216504 0.084196,0.0421 0.114266,0.0421 0.09021,0 -0.024056,-0.03007 0.036084,-0.102238 0.126294,-0.15035 0.09021,-0.04811 0.252588,-0.162378 0.348812,-0.258602 0.102238,-0.09622 0.613428,-0.547274 1.14266,-1.010352 0.529232,-0.457064 1.274968,-1.106576 1.65385,-1.44336 0.378882,-0.33077 0.853988,-0.739722 1.046436,-0.9021 0.198462,-0.168392 0.426994,-0.366854 0.51119,-0.45105 0.09021,-0.0842 0.36084,-0.33077 0.607414,-0.54126 0.246574,-0.216504 0.463078,-0.402938 0.48112,-0.42098 0.042098,-0.0421 0.890072,-0.775806 1.08252,-0.938184 0.084196,-0.07217 0.42098,-0.366854 0.75175,-0.655526 0.33077,-0.288672 0.87203,-0.757764 1.2028,-1.046436 0.33077,-0.282658 0.938184,-0.817904 1.35315,-1.178744 0.42098,-0.366854 0.944198,-0.823918 1.17273,-1.02238 0.228532,-0.198462 0.553288,-0.48112 0.72168,-0.63147 0.168392,-0.15035 0.775806,-0.679582 1.347136,-1.17273 0.577344,-0.499162 1.497486,-1.29301 2.04476,-1.77413 0.553288,-0.48112 1.178744,-1.02238 1.389234,-1.2028 0.21049,-0.18042 0.823918,-0.709652 1.35315,-1.17273 0.535246,-0.463078 1.425318,-1.23287 1.98462,-1.71399 0.559302,-0.48112 1.244898,-1.076506 1.53357,-1.32308 0.282658,-0.246574 0.769792,-0.667554 1.08252,-0.93217 1.136646,-0.974268 1.599724,-1.371192 1.92448,-1.65385 0.715666,-0.619442 1.65385,-1.425318 1.89441,-1.62378 0.138322,-0.114266 0.847974,-0.709652 1.569654,-1.32308 1.65385,-1.401262 1.870354,-1.56364 2.07483,-1.56364 0.198462,0 0.342798,-0.198462 0.24056,-0.324756 -0.102238,-0.126294 -0.01203,-0.276644 0.168392,-0.276644 0.318742,0 5.063788,-0.156364 7.403234,-0.24056 0.878044,-0.03608 1.786158,-0.06014 2.020704,-0.06014 0.336784,0 0.463078,-0.02406 0.57133,-0.114266 0.318742,-0.258602 0.186434,-0.264616 -2.934832,-0.162378 -1.611752,0.05413 -3.680568,0.108252 -4.588682,0.126294 -0.908114,0.01804 -1.876368,0.04811 -2.146998,0.06615 l -0.493148,0.03007 -0.03007,-0.198462 c -0.01804,-0.108252 -0.03007,-0.860002 -0.02406,-1.671892 0.006,-0.81189 0.006,-7.03638 0,-13.8322 0,-6.79582 0.006,-13.308982 0.01804,-14.46367 0.01203,-1.160702 0.03608,-4.02938 0.05413,-6.37484 0.0421,-4.66085 0.07818,-6.910086 0.132308,-7.950508 l 0.03608,-0.673568 5.478754,-0.00601 c 12.112196,-0.018042 31.39308,-0.00601 36.156168,0.024056 7.349108,0.054126 12.38884,0.096224 14.88465,0.126294 6.898058,0.09021 10.097506,0.144336 10.91541,0.18042 0.366853,0.012028 1.473433,0.042098 2.465743,0.066154 0.99231,0.018042 2.0628,0.048112 2.37553,0.06014 0.59539,0.024056 0.86602,-0.036084 0.93217,-0.204476 0.0842,-0.222518 -0.0541,-0.246574 -2.1049,-0.276644 C 101.37753,8.04934 98.671231,8.001228 95.766469,7.95913 94.708005,7.941088 91.352193,7.917032 88.309109,7.892976 85.266025,7.874934 81.832031,7.850878 80.671329,7.83885 79.516641,7.826822 69.731863,7.814794 58.930719,7.814794 31.879747,7.814794 32.396951,7.820808 32.282685,7.712556 32.234573,7.664444 32.090237,7.62836 31.963943,7.62836 31.705341,7.62836 31.404641,7.514094 31.127997,7.303604 31.019745,7.219408 30.827297,7.129198 30.694989,7.099128 30.442401,7.038988 26.689665,5.67381 25.763509,5.306956 24.723087,4.89199 23.646581,4.495066 22.546019,4.116184 21.583779,3.785414 20.838043,3.520798 20.020139,3.20807 19.905873,3.165972 19.472865,3.009608 19.057899,2.859258 18.642933,2.708908 17.915239,2.438278 17.434119,2.257858 15.732157,1.61436 15.172855,1.43394 14.854113,1.43394 c -0.174406,0 -0.306714,0.03007 -0.306714,0.066154 z m 2.46574,12.112196 c 0.823918,0.108252 1.154688,0.216504 1.95455,0.613428 1.196786,0.595386 1.978606,1.299024 2.724342,2.453712 0.21049,0.33077 0.505176,0.775806 0.649512,0.99231 l 0.264616,0.39091 0.18042,2.43567 c 0.09622,1.341122 0.222518,2.934832 0.27063,3.54826 0.04811,0.613428 0.132308,1.677906 0.186434,2.37553 0.04811,0.69161 0.114266,1.557626 0.144336,1.92448 0.03007,0.36084 0.126294,1.551612 0.21049,2.64616 0.192448,2.43567 0.354826,4.45036 0.745736,9.20142 0.102238,1.220842 0.264616,3.199448 0.366854,4.39022 0.09622,1.190772 0.288672,3.409938 0.42098,4.93148 0.132308,1.521542 0.282658,3.241546 0.33077,3.81889 0.04811,0.577344 0.132308,1.455388 0.18042,1.95455 0.04811,0.493148 0.126294,1.359164 0.18042,1.92448 0.05413,0.559302 0.138322,1.124618 0.186434,1.256926 0.04811,0.126294 0.0842,0.24056 0.07217,0.246574 -0.01203,0.006 -0.439022,0.372868 -0.950212,0.817904 -0.51119,0.445036 -1.515528,1.305038 -2.22518,1.918466 -0.709652,0.607414 -1.371192,1.184758 -1.47343,1.268954 -0.168392,0.15035 -1.341122,1.166716 -4.26994,3.69861 -0.697624,0.595386 -1.587696,1.359164 -1.98462,1.695948 -0.396924,0.33077 -1.02238,0.860002 -1.389234,1.166716 -0.36084,0.306714 -0.75175,0.63147 -0.853988,0.715666 -0.108252,0.09021 -0.312728,0.264616 -0.45105,0.39091 -0.138322,0.132308 -0.348812,0.306714 -0.463078,0.39091 -0.114266,0.09021 -0.366854,0.312728 -0.553288,0.499162 -0.336784,0.33077 -0.517204,0.39091 -0.523218,0.168392 0,-0.108252 -0.05413,-0.535246 -0.216504,-1.665878 -0.05413,-0.366854 -0.132308,-0.96224 -0.18042,-1.32308 -0.04811,-0.366854 -0.114266,-0.835946 -0.144336,-1.05245 -0.06615,-0.426994 -0.138322,-1.004338 -0.276644,-2.19511 -0.05413,-0.433008 -0.12028,-0.944198 -0.15035,-1.14266 C 9.946689,63.871288 9.892563,63.426252 9.856479,63.07744 9.820395,62.728628 9.748227,62.187368 9.706129,61.87464 9.658017,61.561912 9.603891,61.128904 9.585849,60.9124 9.561793,60.695896 9.513681,60.22079 9.465569,59.85995 9.417457,59.493096 9.363331,58.993934 9.345289,58.753374 9.327247,58.5068 9.297177,58.290296 9.285149,58.272254 9.279135,58.248198 9.249065,58.031694 9.231023,57.78512 9.206967,57.538546 9.176897,57.195748 9.152841,57.03337 9.134799,56.864978 9.110743,56.666516 9.104729,56.58232 9.032561,55.836584 8.822071,53.87602 8.767945,53.51518 8.713819,53.136298 8.611581,52.228184 8.509343,51.19979 8.497315,51.067482 8.467245,50.730698 8.449203,50.44804 8.425147,50.165382 8.383049,49.774472 8.352979,49.57601 8.322909,49.377548 8.226685,48.469434 8.142489,47.56132 8.052279,46.653206 7.974097,45.793204 7.956055,45.660896 7.938013,45.522574 7.913957,45.294042 7.901929,45.149706 7.865845,44.638516 7.745565,43.513898 7.727523,43.477814 7.715495,43.459772 7.685425,43.147044 7.667383,42.786204 7.643327,42.41935 7.613257,42.106622 7.601229,42.08858 7.589201,42.070538 7.565145,41.823964 7.541089,41.541306 7.462907,40.380604 7.150179,37.018778 6.969759,35.32283 6.933675,34.99206 6.879549,34.396674 6.849479,33.99975 6.819409,33.602826 6.753255,32.748838 6.699129,32.10534 6.651017,31.461842 6.596891,30.770232 6.578849,30.57177 6.536751,30.054566 6.380387,28.057918 6.308219,27.17386 6.272135,26.758894 6.230037,26.27176 6.218009,26.09134 6.199967,25.91092 6.133813,24.990778 6.067659,24.04658 6.001505,23.102382 5.917309,22.025876 5.887239,21.653008 5.857169,21.28014 5.845141,20.943356 5.863183,20.901258 5.875211,20.85916 5.857169,20.774964 5.809057,20.714824 5.748917,20.636642 5.742903,20.492306 5.778987,20.119438 5.833113,19.572164 5.887239,19.361674 6.127799,18.84447 c 0.096224,-0.198462 0.264616,-0.565316 0.378882,-0.81189 0.306714,-0.679582 0.697624,-1.136646 1.461402,-1.71399 0.174406,-0.132308 0.475106,-0.366854 0.667554,-0.523218 0.87203,-0.685596 3.391896,-1.816228 4.528542,-2.026718 1.268954,-0.234546 2.820566,-0.3007 3.84896,-0.156364 z m 9.26156,44.89451 c 0,0.03007 -0.03007,0.06014 -0.06615,0.06014 -0.03007,0 -0.0421,-0.03007 -0.02406,-0.06014 0.01804,-0.03608 0.04811,-0.06014 0.06615,-0.06014 0.01203,0 0.02406,0.02406 0.02406,0.06014 z" />
  <path
     style="fill:#000000;stroke:none;stroke-width:0.006014"
     inkscape:connector-curvature="0"
     id="path6"
     d="m 8.864169,39.039482 c -0.138322,0.0421 -0.354826,0.186434 -0.517204,0.342798 -0.234546,0.228532 -0.294686,0.324756 -0.354826,0.625456 -0.162378,0.805876 0.198462,1.62378 0.78182,1.750074 0.378882,0.0842 0.715666,-0.01804 0.99231,-0.3007 0.282658,-0.282658 0.57133,-0.835946 0.57133,-1.100562 0,-0.318742 -0.168392,-0.866016 -0.306714,-1.016366 -0.294686,-0.312728 -0.733708,-0.426994 -1.166716,-0.3007 z m 0.72168,0.523218 c 0.066154,0.07818 0.12028,0.246574 0.138322,0.45105 0.03007,0.378882 -0.102238,0.709652 -0.433008,1.076506 -0.246574,0.264616 -0.414966,0.27063 -0.595386,0.02406 -0.228532,-0.306714 -0.186434,-1.311052 0.048112,-1.311052 0.048112,0 0.12028,-0.05413 0.168392,-0.12028 0.168392,-0.24056 0.51119,-0.3007 0.673568,-0.12028 z" />
  <path
     style="fill:#000000;stroke:none;stroke-width:0.006014"
     inkscape:connector-curvature="0"
     id="path8"
     d="m 52.405529,22.96406 c -0.93217,0.108252 -2.1049,0.475106 -2.46574,0.763778 -0.09622,0.07818 -0.348812,0.252588 -0.553288,0.384896 -0.679582,0.439022 -1.256926,1.136646 -1.707976,2.07483 -0.559302,1.154688 -0.757764,2.146998 -0.69161,3.440008 0.01804,0.42098 0.05413,0.84196 0.07217,0.93217 0.03608,0.156364 -0.006,0.216504 -0.457064,0.643498 -0.757764,0.703638 -1.900424,1.377206 -2.357488,1.38322 -0.228532,0 -0.258602,0.09622 -0.0842,0.27063 0.132308,0.132308 0.192448,0.15035 0.378882,0.12028 0.505176,-0.0842 1.846298,-0.866016 2.453712,-1.425318 0.102238,-0.09021 0.198462,-0.168392 0.216504,-0.168392 0.02406,0 0.114266,0.21049 0.204476,0.463078 0.204476,0.589372 0.517204,1.220842 0.799862,1.611752 0.673568,0.926156 1.74406,1.768116 2.598048,2.04476 0.18042,0.06014 0.48112,0.174406 0.655526,0.258602 0.21049,0.09622 0.505176,0.168392 0.81189,0.198462 0.27063,0.02406 0.493148,0.04811 0.499162,0.04811 0.006,0.006 0.03007,0.108252 0.04811,0.228532 0.02406,0.126294 0.07217,0.396924 0.12028,0.6014 l 0.07818,0.372868 -0.162378,0.06014 c -0.0842,0.03608 -0.493148,0.144336 -0.908114,0.246574 -0.414966,0.102238 -0.9021,0.24056 -1.08252,0.306714 -0.18042,0.06014 -0.439022,0.138322 -0.565316,0.162378 -0.204476,0.0421 -0.246574,0.07217 -0.294686,0.246574 -0.03007,0.12028 -0.02406,0.366854 0.01804,0.63147 0.03608,0.234546 0.09021,0.93217 0.12028,1.551612 0.06014,1.244898 0.234546,2.724342 0.42098,3.596372 0.07217,0.312728 0.138322,0.619442 0.15035,0.679582 0.01203,0.05413 -0.03608,0.144336 -0.102238,0.186434 -0.114266,0.07818 -0.156364,0.07217 -0.433008,-0.0842 -0.366854,-0.204476 -0.547274,-0.246574 -1.094548,-0.252588 -0.493148,-0.006 -1.407276,0.204476 -1.647836,0.372868 -0.204476,0.144336 -0.294686,0.15035 -0.336784,0.03007 -0.02406,-0.05413 -0.09021,-0.12028 -0.144336,-0.15035 -0.204476,-0.108252 -1.77413,0.258602 -2.94686,0.69161 -0.216504,0.07818 -1.028394,0.348812 -1.8042,0.6014 -0.775806,0.246574 -1.56364,0.529232 -1.74406,0.625456 -0.499162,0.246574 -0.956226,0.565316 -0.998324,0.679582 -0.0421,0.138322 0.24056,0.733708 0.884058,1.876368 0.84196,1.47343 0.938184,1.635808 1.497486,2.411614 0.288672,0.396924 0.787834,1.100562 1.118604,1.56364 0.324756,0.463078 0.78182,1.034408 1.02238,1.268954 0.54126,0.54126 1.214828,0.96224 1.671892,1.05245 0.318742,0.06615 0.366854,0.06014 0.727694,-0.09622 0.469092,-0.198462 0.6014,-0.324756 1.280982,-1.250912 1.274968,-1.74406 2.146998,-2.874692 2.772454,-3.57833 0.312728,-0.354826 0.487134,-0.649512 0.487134,-0.823918 0,-0.0421 -0.114266,-0.222518 -0.252588,-0.396924 -0.144336,-0.18042 -0.3007,-0.378882 -0.348812,-0.45105 -0.04811,-0.07217 -0.168392,-0.228532 -0.258602,-0.342798 l -0.168392,-0.216504 0.12028,-0.12028 c 0.156364,-0.156364 0.884058,-1.274968 0.938184,-1.44336 0.07217,-0.24056 0.132308,-0.12028 0.234546,0.487134 0.06014,0.342798 0.132308,0.715666 0.162378,0.835946 0.18042,0.709652 0.192448,2.002662 0.03007,2.784482 -0.132308,0.655526 -0.607414,2.261264 -0.974268,3.313714 -0.288672,0.823918 -1.064478,2.507838 -1.244898,2.688258 -0.0842,0.0842 -0.09021,0.138322 -0.0421,0.228532 0.09021,0.168392 0.396924,0.156364 0.757764,-0.03608 0.162378,-0.0842 0.36084,-0.192448 0.445036,-0.234546 0.312728,-0.168392 1.551612,-0.75175 1.587696,-0.75175 0.102238,0 -0.204476,0.517204 -0.908114,1.551612 -1.160702,1.695948 -2.25525,3.355812 -2.459726,3.740708 -0.06615,0.114266 -0.3007,0.517204 -0.529232,0.890072 l -0.414966,0.679582 -0.938184,-0.03608 c -1.978606,-0.07818 -2.760426,-0.06615 -2.868678,0.03608 -0.09021,0.09622 -0.09021,0.108252 0.02406,0.222518 0.07818,0.07818 0.234546,0.132308 0.445036,0.156364 0.318742,0.03007 2.49581,0.108252 3.349798,0.12028 l 0.445036,0.006 0.3007,-0.51119 c 0.986296,-1.701962 2.110914,-3.45805 3.542246,-5.53288 0.216504,-0.312728 0.414966,-0.637484 0.439022,-0.715666 0.02406,-0.07818 0.12028,-0.276644 0.216504,-0.439022 0.09622,-0.162378 0.174406,-0.306714 0.174406,-0.324756 0,-0.01804 0.05413,-0.114266 0.12028,-0.204476 0.0842,-0.114266 0.264616,-0.222518 0.559302,-0.336784 0.553288,-0.21049 1.906438,-0.805876 2.580006,-1.14266 0.288672,-0.144336 0.553288,-0.264616 0.577344,-0.264616 0.03007,0 0.04811,0.06014 0.03608,0.138322 -0.03007,0.156364 -0.204476,2.339446 -0.246574,3.000986 -0.03007,0.457064 -0.03007,0.463078 0.138322,0.547274 0.234546,0.12028 0.69161,0.01804 1.62378,-0.348812 0.39091,-0.156364 0.890072,-0.348812 1.106576,-0.42098 0.372868,-0.132308 1.882382,-0.78182 2.146998,-0.920142 0.108252,-0.06014 0.132308,-0.04811 0.186434,0.09622 0.72168,1.95455 1.166716,2.91679 1.365178,2.94686 0.36084,0.0421 0.372868,-0.312728 0.03007,-1.040422 -0.138322,-0.3007 -0.372868,-0.866016 -0.523218,-1.26294 -0.36084,-0.968254 -0.493148,-1.226856 -0.685596,-1.329094 -0.204476,-0.102238 -0.264616,-0.0842 -1.557626,0.487134 -0.577344,0.252588 -1.226856,0.529232 -1.44336,0.6014 -0.216504,0.07818 -0.595386,0.222518 -0.84196,0.33077 -0.246574,0.102238 -0.57133,0.222518 -0.715666,0.27063 l -0.258602,0.0842 0.03608,-0.252588 c 0.01804,-0.138322 0.06615,-0.727694 0.102238,-1.305038 0.03608,-0.577344 0.0842,-1.250912 0.102238,-1.497486 l 0.0421,-0.45105 0.45105,-0.174406 c 1.545598,-0.607414 1.870354,-0.739722 2.183082,-0.896086 0.384896,-0.192448 0.823918,-0.559302 0.823918,-0.685596 0,-0.04811 0.0421,-0.0842 0.09021,-0.0842 0.168392,0 0.09622,-0.324756 -0.264616,-1.208814 -0.192448,-0.475106 -0.505176,-1.238884 -0.69161,-1.701962 -0.57133,-1.401262 -0.956226,-2.604062 -2.243222,-6.952184 -0.799862,-2.7063 -0.878044,-3.115252 -0.860002,-4.5105 0.006,-0.445036 0.01203,-0.860002 0.006,-0.920142 -0.006,-0.15035 -0.336784,-0.276644 -0.57133,-0.222518 -0.102238,0.02406 -0.547274,0.132308 -0.986296,0.234546 -0.445036,0.102238 -0.968254,0.24056 -1.166716,0.306714 -0.204476,0.06615 -0.402938,0.12028 -0.445036,0.12028 -0.09021,0 -0.186434,-0.276644 -0.24056,-0.697624 l -0.03608,-0.3007 0.697624,-0.168392 c 0.637484,-0.156364 0.703638,-0.162378 0.835946,-0.07818 0.589372,0.384896 2.201124,0.475106 2.13497,0.114266 -0.01804,-0.0842 -0.108252,-0.108252 -0.529232,-0.144336 -0.607414,-0.0421 -1.377206,-0.27063 -1.26294,-0.366854 0.01804,-0.01203 0.276644,-0.186434 0.57133,-0.39091 1.124618,-0.763778 1.846298,-1.485458 2.531894,-2.513852 0.613428,-0.920142 0.920142,-1.780144 0.926156,-2.561964 0,-0.547274 -0.18042,-1.768116 -0.366854,-2.513852 -0.27063,-1.05245 -0.974268,-2.381544 -1.557626,-2.94686 -0.39091,-0.378882 -1.431332,-1.028394 -1.92448,-1.196786 -0.823918,-0.288672 -2.020704,-0.414966 -2.91679,-0.306714 z m 1.62378,0.54126 c 0.703638,0.102238 1.118604,0.228532 1.671892,0.51119 1.016366,0.523218 1.389234,0.87203 1.906438,1.810214 0.396924,0.72168 0.577344,1.196786 0.75175,2.038746 0.228532,1.088534 0.294686,1.768116 0.216504,2.28532 -0.24056,1.617766 -1.701962,3.476092 -3.722666,4.727004 -0.24056,0.144336 -0.342798,0.18042 -0.433008,0.138322 -0.168392,-0.07818 -1.058464,-0.956226 -1.335108,-1.329094 -0.126294,-0.168392 -0.402938,-0.565316 -0.607414,-0.878044 -0.204476,-0.312728 -0.535246,-0.81189 -0.733708,-1.106576 -0.475106,-0.703638 -1.05245,-1.840284 -1.29301,-2.537908 -0.126294,-0.372868 -0.216504,-0.78182 -0.258602,-1.190772 -0.06014,-0.63147 -0.18042,-0.920142 -0.372868,-0.920142 -0.0421,0 -0.216504,0.27063 -0.384896,0.6014 -0.162378,0.33077 -0.42098,0.769792 -0.57133,0.974268 -0.475106,0.667554 -1.148674,1.455388 -1.208814,1.425318 -0.03608,-0.01203 -0.06014,-0.402938 -0.05413,-0.986296 0.006,-0.860002 0.02406,-1.02238 0.168392,-1.5035 0.09021,-0.3007 0.318742,-0.866016 0.517204,-1.268954 0.276644,-0.577344 0.439022,-0.81189 0.769792,-1.17273 0.234546,-0.246574 0.595386,-0.559302 0.805876,-0.685596 0.21049,-0.126294 0.408952,-0.264616 0.439022,-0.306714 0.156364,-0.186434 1.47343,-0.553288 2.31539,-0.643498 0.433008,-0.04811 1.004338,-0.03608 1.41329,0.01804 z m -4.14966,5.484768 c 0.252588,0.884058 0.896086,2.183082 1.587696,3.193434 0.162378,0.24056 0.505176,0.757764 0.763778,1.154688 0.312728,0.475106 0.679582,0.93217 1.08252,1.341122 0.33077,0.342798 0.577344,0.63147 0.54126,0.643498 -0.03608,0.01203 -0.156364,0.04811 -0.27063,0.0842 -0.282658,0.09021 -0.643498,0.0842 -0.805876,-0.01804 -0.07217,-0.04811 -0.336784,-0.102238 -0.583358,-0.126294 -0.643498,-0.05413 -1.23287,-0.198462 -1.65385,-0.396924 -0.775806,-0.372868 -1.8042,-1.449374 -2.267278,-2.369516 -0.228532,-0.445036 -0.529232,-1.335108 -0.529232,-1.545598 0,-0.06615 0.174406,-0.318742 0.378882,-0.553288 0.342798,-0.378882 1.034408,-1.268954 1.425318,-1.83427 0.07818,-0.114266 0.15035,-0.18042 0.162378,-0.15035 0.006,0.03007 0.0842,0.288672 0.168392,0.577344 z m 6.25456,8.38953 c -0.09021,0.950212 0.102238,2.068816 0.745736,4.318052 1.124618,3.93917 1.53357,5.26225 2.080844,6.76575 0.21049,0.577344 1.130632,2.814552 1.26294,3.06714 0.05413,0.102238 0.09021,0.198462 0.07818,0.204476 -0.01203,0.006 -0.114266,0.07818 -0.228532,0.162378 -0.348812,0.258602 -0.72168,0.433008 -2.1049,0.96224 -0.348812,0.138322 -1.034408,0.439022 -1.53357,0.667554 -1.106576,0.517204 -2.501824,1.14266 -3.06714,1.371192 -0.228532,0.09021 -1.040422,0.469092 -1.792172,0.835946 -0.757764,0.366854 -1.38322,0.667554 -1.401262,0.667554 -0.01203,0 0.07818,-0.21049 0.21049,-0.469092 0.216504,-0.433008 0.84196,-2.1049 0.968254,-2.58602 0.03007,-0.126294 0.18042,-0.625456 0.33077,-1.118604 0.439022,-1.44336 0.553288,-2.531894 0.366854,-3.554274 -0.04811,-0.264616 -0.174406,-0.944198 -0.276644,-1.5035 -0.09622,-0.565316 -0.222518,-1.2028 -0.27063,-1.425318 -0.04811,-0.222518 -0.09021,-0.457064 -0.09021,-0.517204 0,-0.09021 0.24056,-0.264616 0.950212,-0.69161 0.980282,-0.589372 1.010352,-0.607414 1.900424,-1.100562 0.3007,-0.162378 0.703638,-0.445036 0.9021,-0.63147 0.433008,-0.402938 0.433008,-0.39091 -0.174406,-1.028394 -0.228532,-0.246574 -0.769792,-0.829932 -1.196786,-1.299024 -0.769792,-0.84196 -0.998324,-1.010352 -0.998324,-0.72168 0,0.192448 0.144336,0.396924 0.817904,1.196786 0.33077,0.384896 0.72168,0.866016 0.884058,1.070492 l 0.282658,0.36084 -0.252588,0.186434 c -0.144336,0.102238 -0.637484,0.402938 -1.100562,0.667554 -0.463078,0.264616 -1.11259,0.643498 -1.44336,0.835946 -0.33077,0.198462 -0.625456,0.36084 -0.66154,0.36084 -0.156364,0 -0.475106,-1.98462 -0.6014,-3.794834 -0.04811,-0.643498 -0.126294,-1.38322 -0.18042,-1.641822 -0.05413,-0.258602 -0.0842,-0.48112 -0.07217,-0.493148 0.03007,-0.03007 0.396924,-0.132308 1.515528,-0.414966 0.463078,-0.12028 1.100562,-0.3007 1.41329,-0.402938 0.553288,-0.174406 2.531894,-0.697624 2.700286,-0.703638 0.06014,-0.006 0.07217,0.07818 0.03608,0.396924 z m -6.386868,7.721976 c 0.132308,0.03608 0.222518,0.09622 0.222518,0.15035 0,0.18042 0.198462,0.439022 0.354826,0.457064 0.174406,0.02406 0.276644,0.264616 0.222518,0.547274 -0.05413,0.276644 -0.890072,1.659864 -1.010352,1.665878 -0.03608,0 -0.51119,-0.54126 -0.78182,-0.9021 -0.09021,-0.114266 -0.378882,-0.487134 -0.643498,-0.829932 -0.27063,-0.342798 -0.487134,-0.643498 -0.487134,-0.673568 0,-0.108252 0.408952,-0.294686 0.84196,-0.378882 0.547274,-0.108252 0.980282,-0.12028 1.280982,-0.03608 z m -2.682244,0.463078 c 0.108252,0.156364 0.246574,0.342798 0.3007,0.402938 0.06014,0.06615 0.264616,0.324756 0.45105,0.57133 0.186434,0.246574 0.493148,0.637484 0.679582,0.87203 0.69161,0.87203 0.703638,0.890072 0.6014,0.944198 -0.21049,0.12028 0.03608,0.45105 0.288672,0.384896 0.126294,-0.03007 0.198462,0.03007 0.547274,0.475106 0.216504,0.282658 0.396924,0.547274 0.396924,0.589372 0,0.0421 -0.15035,0.252588 -0.336784,0.469092 -0.18042,0.21049 -0.475106,0.57133 -0.643498,0.793848 -0.252588,0.324756 -0.336784,0.402938 -0.433008,0.372868 -0.06615,-0.01804 -0.433008,-0.102238 -0.81189,-0.18042 -0.378882,-0.07818 -0.974268,-0.234546 -1.32308,-0.348812 -0.354826,-0.114266 -0.81189,-0.246574 -1.02238,-0.288672 -0.216504,-0.03608 -0.469092,-0.108252 -0.559302,-0.156364 -0.252588,-0.126294 -0.27063,-0.204476 -0.372868,-1.491472 -0.02406,-0.264616 -0.108252,-0.920142 -0.186434,-1.455388 -0.0842,-0.535246 -0.156364,-1.130632 -0.162378,-1.317066 l -0.01203,-0.342798 0.42098,-0.12028 c 1.208814,-0.336784 1.695948,-0.457064 1.83427,-0.457064 0.114266,0 0.198462,0.06615 0.342798,0.282658 z m -3.109238,0.54126 c 0,0.09622 0.18042,1.377206 0.234546,1.695948 0.03608,0.18042 0.09021,0.775806 0.126294,1.311052 0.07217,1.058464 0.09622,1.178744 0.33077,1.479444 0.186434,0.24056 0.42098,0.348812 1.2028,0.54126 0.33077,0.0842 0.817904,0.228532 1.08252,0.324756 0.408952,0.15035 1.136646,0.318742 1.635808,0.384896 0.12028,0.01804 0.09021,0.0842 -0.36084,0.679582 -0.27063,0.366854 -0.757764,1.034408 -1.08252,1.479444 -0.51119,0.709652 -0.619442,0.829932 -0.87203,0.944198 -0.493148,0.222518 -0.66154,0.18042 -1.389234,-0.348812 -0.433008,-0.312728 -0.84196,-0.799862 -1.882382,-2.213152 -0.372868,-0.505176 -0.823918,-1.11259 -0.998324,-1.35315 -0.174406,-0.24056 -0.414966,-0.607414 -0.535246,-0.823918 -0.12028,-0.216504 -0.408952,-0.715666 -0.649512,-1.11259 -0.57133,-0.950212 -0.763778,-1.341122 -0.72168,-1.461402 0.01804,-0.05413 0.138322,-0.156364 0.27063,-0.216504 0.132308,-0.06014 0.222518,-0.138322 0.204476,-0.162378 -0.02406,-0.0421 0.06014,-0.07818 0.114266,-0.04811 0.006,0.006 0.162378,-0.07217 0.342798,-0.174406 0.294686,-0.162378 0.685596,-0.294686 2.37553,-0.817904 0.559302,-0.168392 0.57133,-0.174406 0.57133,-0.108252 z" />
  <path
     style="fill:#000000;stroke:none;stroke-width:0.006014"
     inkscape:connector-curvature="0"
     id="path12"
     d="m 102.82089,47.0381 c -0.0361,0.05413 -0.0481,0.04811 -0.0481,-0.01203 0,-0.06014 -0.018,-0.06615 -0.0842,-0.01203 -0.0541,0.04811 -0.1323,0.04811 -0.22251,0.01203 -0.12028,-0.0421 -0.21049,-0.006 -0.49315,0.18042 -5.432349,5.161595 -10.157145,7.012 -14.241117,11.661166 -0.03007,0 -0.0421,0.03007 -0.02406,0.06014 0.01804,0.03608 -0.01203,0.07818 -0.07217,0.102238 -0.27063,0.102238 -0.589372,0.619442 -0.378882,0.619442 0.02406,0 0.06014,0.126294 0.07818,0.282658 0.04951,1.823979 0.02014,3.443692 0.03007,5.3705 0.01203,1.040422 -0.02406,4.263926 -0.07217,7.15666 -0.04811,2.892734 -0.102238,5.827566 -0.108252,6.52519 l -0.01804,1.26294 0.288672,0.01804 0.282658,0.01804 v -0.559302 c 0,-0.306714 0.06615,-3.81889 0.15035,-7.806172 0.07818,-3.987282 0.162378,-8.263236 0.18042,-9.50212 0.02406,-1.238884 -0.01391,-2.51696 0.0041,-2.595142 0.523042,-0.322964 1.489684,-0.07923 2.184964,-0.05704 0.138322,0.07217 0.499162,0.132308 0.463078,0.07818 -0.01203,-0.02406 0.3007,-0.04811 0.69161,-0.06014 0.39091,-0.01203 0.715666,0.006 0.715666,0.03007 0,0.02406 0.860002,0.04811 1.912452,0.0421 1.046436,-0.006 1.936508,0.01804 1.966578,0.0421 0.06615,0.04811 1.605738,0.0421 12.677515,-0.03608 l 5.7554,-0.0421 V 59.553236 59.28862 h -2.81455 c -6.53552,-0.207236 -14.270618,0.0041 -20.188796,-0.03605 -1.798186,-0.01804 -2.592034,-0.0421 -2.622104,-0.09021 -0.03007,-0.04811 -0.04811,-0.04811 -0.07818,0 -0.02406,0.03608 -0.06615,0.06615 -0.102238,0.06615 -0.03007,0 -0.02406,-0.05413 0.01804,-0.12028 0.0421,-0.06615 0.108252,-0.12028 0.15035,-0.12028 4.257554,-3.609579 9.586015,-8.101638 13.922438,-11.288254 0.0722,-0.06615 0.24657,-0.09021 0.6014,-0.09622 6.44776,0.218107 5.75158,0.438966 11.35443,0.438966 V 47.7237 c 0,-0.348812 -0.11427,-0.523218 -0.33678,-0.523218 -0.0962,0 -0.10224,-0.01203 -0.0241,-0.06014 0.0481,-0.03007 0.14434,-0.0421 0.21049,-0.02406 0.0962,0.02406 0.10224,0.01804 0.0301,-0.03007 -2.33613,0.587627 -7.10634,-0.134939 -11.73959,-0.04811 z"
     sodipodi:nodetypes="csccccccsccsccccscccccssccccccccscssccccssccccc" />
  <path
     style="fill:#000000;stroke:none;stroke-width:0.006014"
     inkscape:connector-curvature="0"
     id="path30"
     d="m 93.439051,51.446364 c -0.01804,0.01203 -1.124618,0.05413 -3.175392,0.114266 -0.613428,0.02406 -1.317066,0.04811 -1.56364,0.06014 -0.246574,0.01804 -1.611752,0.0421 -3.03707,0.06014 -1.419304,0.01203 -3.169378,0.0421 -3.87903,0.06014 -0.709652,0.01804 -1.846298,0.0421 -2.52588,0.06014 -0.679582,0.01804 -1.569654,0.0421 -1.98462,0.06014 -0.414966,0.01804 -1.238884,0.0421 -1.83427,0.06014 -0.595386,0.01804 -1.569654,0.0421 -2.16504,0.06014 -0.595386,0.01804 -1.677906,0.0421 -2.4056,0.06014 -0.727694,0.01804 -2.64616,0.07217 -4.26994,0.12028 -3.536232,0.102238 -4.624766,0.12028 -4.708962,0.06615 -0.07818,-0.04811 -0.312728,0.168392 -0.312728,0.282658 0,0.192448 0.264616,0.216504 1.780144,0.162378 0.968254,-0.03608 1.587696,-0.03608 1.756088,0.006 0.186434,0.0421 0.288672,0.03608 0.348812,-0.006 0.04811,-0.04811 0.823918,-0.09021 2.231194,-0.12028 1.184758,-0.03007 2.922804,-0.0842 3.867002,-0.114266 0.944198,-0.03608 2.447698,-0.07818 3.33777,-0.09622 0.896086,-0.01804 2.01469,-0.04811 2.49581,-0.06014 0.48112,-0.01804 1.53357,-0.04811 2.34546,-0.06615 1.677906,-0.03608 3.109238,-0.07217 4.42029,-0.108252 3.506162,-0.114266 5.989944,-0.174406 7.87834,-0.192448 0.793848,-0.006 1.617766,-0.02406 1.83427,-0.04811 0.27063,-0.02406 0.402938,-0.01203 0.433008,0.0421 0.03608,0.05413 0.06014,0.05413 0.09622,-0.006 0.05413,-0.07818 0.6014,-0.06014 0.733708,0.01804 0.03608,0.02406 0.06014,0.006 0.06014,-0.02406 0,-0.03608 0.09622,-0.06615 0.216504,-0.06615 0.276644,0 0.667554,-0.174406 0.553288,-0.246574 -0.0421,-0.03007 -0.04811,-0.05413 -0.01804,-0.05413 0.03608,-0.006 -0.006,-0.03608 -0.09021,-0.06615 -0.12028,-0.04811 -2.369516,-0.06615 -2.417628,-0.01804 z" />
  <path
     style="fill:#000000;stroke:none;stroke-width:0.006014"
     inkscape:connector-curvature="0"
     id="path52"
     d="m 114.56022,59.523166 c 0,0.132308 0.0301,0.258602 0.0601,0.276644 0.0361,0.02406 0.0601,-0.07217 0.0601,-0.234546 0,-0.15035 -0.0241,-0.276644 -0.0601,-0.276644 -0.0301,0 -0.0601,0.108252 -0.0601,0.234546 z" />
  <path
     style="fill:#000000;stroke:none;stroke-width:0.006014"
     inkscape:connector-curvature="0"
     id="path56"
     d="m 5.105419,81.215664 c 0,0.04811 0.03007,0.07217 0.06014,0.05413 0.036084,-0.01804 0.06014,-0.06014 0.06014,-0.09622 0,-0.03007 -0.024056,-0.05413 -0.06014,-0.05413 -0.03007,0 -0.06014,0.0421 -0.06014,0.09622 z" />
  <path
     style="fill:#000000;stroke:none;stroke-width:0.006014"
     inkscape:connector-curvature="0"
     id="path58"
     d="M 1.527089,81.29986 C 1.509047,81.32993 1.533103,81.36 1.581215,81.36 c 0.054126,0 0.096224,-0.03007 0.096224,-0.06014 0,-0.03608 -0.024056,-0.06014 -0.054126,-0.06014 -0.036084,0 -0.078182,0.02406 -0.096224,0.06014 z" />
  <path
     style="fill:#000000;stroke:none;stroke-width:0.006014"
     inkscape:connector-curvature="0"
     id="path60"
     d="m 2.038279,81.29986 c 0,0.03007 0.03007,0.06014 0.066154,0.06014 0.03007,0 0.042098,-0.03007 0.024056,-0.06014 -0.018042,-0.03608 -0.048112,-0.06014 -0.066154,-0.06014 -0.012028,0 -0.024056,0.02406 -0.024056,0.06014 z" />
</svg>
