<?xml version="1.0" encoding="UTF-8" standalone="no"?>
<svg
   xmlns:dc="http://purl.org/dc/elements/1.1/"
   xmlns:cc="http://creativecommons.org/ns#"
   xmlns:rdf="http://www.w3.org/1999/02/22-rdf-syntax-ns#"
   xmlns:svg="http://www.w3.org/2000/svg"
   xmlns="http://www.w3.org/2000/svg"
   xmlns:sodipodi="http://sodipodi.sourceforge.net/DTD/sodipodi-0.dtd"
   xmlns:inkscape="http://www.inkscape.org/namespaces/inkscape"
   version="1.0"
   width="126.69782pt"
   height="130.52686pt"
   viewBox="0 0 126.69782 130.52686"
   preserveAspectRatio="xMidYMid meet"
   id="svg24"
   sodipodi:docname="010.svg"
   inkscape:version="1.0.2 (e86c870879, 2021-01-15)">
  <defs
     id="defs28" />
  <sodipodi:namedview
     pagecolor="#ffffff"
     bordercolor="#666666"
     borderopacity="1"
     objecttolerance="10"
     gridtolerance="10"
     guidetolerance="10"
     inkscape:pageopacity="0"
     inkscape:pageshadow="2"
     inkscape:window-width="1600"
     inkscape:window-height="836"
     id="namedview26"
     showgrid="false"
     inkscape:zoom="2.1028558"
     inkscape:cx="132.8422"
     inkscape:cy="89.4259"
     inkscape:window-x="0"
     inkscape:window-y="0"
     inkscape:window-maximized="1"
     inkscape:current-layer="svg24"
     fit-margin-top="0"
     fit-margin-left="0"
     fit-margin-right="0"
     fit-margin-bottom="0" />
  <metadata
     id="metadata2">
Created by potrace 1.16, written by Peter Selinger 2001-2019
<rdf:RDF>
  <cc:Work
     rdf:about="">
    <dc:format>image/svg+xml</dc:format>
    <dc:type
       rdf:resource="http://purl.org/dc/dcmitype/StillImage" />
    <dc:title></dc:title>
  </cc:Work>
</rdf:RDF>
</metadata>
  <path
     fill="#000000"
     stroke="none"
     d="m 21.3,56.437832 -6.8,0.3 -3.7,5.4 c -2.1,3 -5.4,8 -7.3,11.1 l -3.5,5.8 0.3,24.499998 c 0.4,23.7 1,28.7 3.4,26.3 0.5,-0.5 1,-11.5 1.1,-24.3 L 5,82.137832 l 4.3,-0.3 4.2,-0.3 v 18.499998 c 0,18.7 0.5,21.1 3.6,18.5 1.2,-1 1.4,-4 0.9,-18.899998 l -0.5,-17.8 4.2,-0.4 c 2.4,-0.3 10.9,-0.6 18.9,-0.7 l 14.6,-0.1 0.6,4.7 c 0.3,2.7 0.6,11.1 0.7,18.799998 0,7.7 0.4,14.3 0.8,14.7 0.5,0.5 1.5,0.2 2.3,-0.4 1.3,-1.1 1.4,-3.9 1,-18.599998 -0.3,-9.5 -0.4,-17.7 -0.3,-18.2 0.2,-0.6 2.6,-1 5.3,-1 h 4.9 l 0.1,18.7 c 0.1,10.399998 0.1,21.099998 0,23.799998 0,5.8 1,8.1 3.3,7.2 1.4,-0.6 1.5,-3.3 1,-26.4 l -0.6,-25.799998 -7,-10.5 c -3.9,-5.8 -7.6,-10.8 -8.2,-11.3 -1,-0.7 -21.2,-0.6 -37.8,0.1 z"
     id="path18"
     style="stroke-width:0.1" />
  <path
     fill="#ffffff"
     stroke="none"
     d="m 57.3,60.937832 c 1.7,1.3 10.5,14.7 10,15.1 -0.1,0.2 -13.9,0.6 -30.6,0.9 -25.7,0.5 -30.3,0.3 -29.8,-0.8 0.3,-0.8 2.6,-4.6 5.1,-8.4 l 4.6,-7 12.7,-0.3 c 7,-0.2 15.9,-0.4 19.7,-0.5 3.9,0 7.6,0.4 8.3,1 z"
     id="path20"
     style="stroke-width:0.1" />
  <g
     id="g345"
     transform="translate(-13.192631,-17.499909)">
    <g
       transform="matrix(0.05383896,0,0,-0.05383896,78.644766,118.42104)"
       fill="#000000"
       stroke="none"
       id="g211">
      <path
         fill="#000000"
         stroke="none"
         d="m 545,1864 c -48,-18 -81,-48 -105,-94 -61,-119 -12,-261 100,-294 l 45,-13 3,-82 3,-81 H 478 c -62,0 -118,-4 -124,-8 -13,-9 -260,-508 -269,-542 -5,-22 7,-35 95,-109 56,-46 104,-91 106,-100 16,-49 57,-78 138,-95 L 476,435 434,295 C 387,142 382,110 405,110 c 9,0 20,19 29,53 8,28 27,95 41,147 15,52 27,102 27,110 0,12 17,15 89,17 74,1 89,-1 89,-14 0,-8 29,-76 65,-150 36,-74 65,-139 65,-143 0,-4 6,-13 14,-19 10,-8 16,-8 24,1 11,14 1,37 -99,240 l -48,96 51,12 c 71,15 118,45 125,82 3,16 13,32 22,36 9,3 67,35 129,70 98,55 113,67 109,86 -5,20 -110,259 -180,410 -18,38 -44,89 -59,113 l -28,43 H 745 620 l 3,82 2,83 37,6 c 52,8 87,35 108,82 28,63 33,109 20,172 -14,65 -64,130 -108,139 -71,14 -100,14 -137,0 z"
         id="path199" />
      <path
         fill="#ffffff"
         stroke="none"
         d="m 711,1804 c 39,-37 53,-85 46,-160 -6,-76 -26,-110 -75,-131 -53,-22 -146,-12 -179,19 -67,62 -72,189 -10,257 54,59 164,66 218,15 z"
         id="path201" />
      <path
         fill="#ffffff"
         stroke="none"
         d="m 840,1258 c 0,-2 -16,-61 -35,-133 -58,-215 -77,-305 -71,-322 11,-29 23,-1 61,146 20,80 43,160 51,179 8,19 14,47 14,63 0,42 16,35 44,-18 61,-122 196,-434 191,-442 -3,-5 -49,-33 -102,-62 -80,-43 -108,-53 -158,-56 l -62,-4 -28,108 c -15,59 -35,114 -43,121 -25,20 -64,14 -94,-15 l -28,-26 -24,26 c -29,31 -35,32 -81,13 -29,-12 -36,-22 -49,-68 -8,-29 -17,-74 -21,-99 -5,-43 -8,-47 -44,-58 -21,-6 -46,-11 -55,-11 -16,0 -177,124 -184,141 -4,10 219,469 227,469 4,0 19,-51 33,-112 28,-118 60,-240 65,-247 1,-2 9,-1 17,2 16,6 18,-6 -37,207 -19,74 -37,150 -40,168 l -6,32 h 229 c 127,0 230,-1 230,-2 z"
         id="path203" />
      <path
         fill="#ffffff"
         stroke="none"
         d="m 542,785 c 16,-14 35,-25 42,-25 7,0 23,11 36,25 13,14 33,25 45,25 19,0 25,-10 39,-62 9,-35 18,-76 19,-93 l 2,-30 -86,-14 c -110,-17 -199,-3 -199,32 0,56 21,143 37,155 24,17 31,15 65,-13 z"
         id="path205" />
      <path
         fill="#ffffff"
         stroke="none"
         d="m 570,575 c 36,0 88,4 116,8 43,7 52,6 57,-8 8,-20 -25,-34 -121,-48 -54,-8 -87,-8 -129,1 -64,13 -79,23 -69,47 5,14 13,16 44,9 20,-5 66,-9 102,-9 z"
         id="path207" />
      <path
         fill="#ffffff"
         stroke="none"
         d="m 392,553 c 2,-24 11,-31 53,-45 115,-39 335,-5 335,52 0,24 18,26 46,6 19,-15 19,-15 -1,-35 -31,-30 -119,-52 -235,-58 -119,-6 -205,7 -244,38 -24,19 -25,21 -10,45 22,33 52,32 56,-3 z"
         id="path209" />
    </g>
    <path
       fill="#000000"
       stroke="none"
       d="m 100.48197,110.65259 c 2.61761,0.65068 5.76261,-1.41523 5.39599,-0.23388 -0.26717,0.86088 0.56765,5.02082 0.29729,10.24634 -0.27161,5.24958 -0.54717,9.6797 -1.27628,16.35003 -0.23589,2.15801 -0.007,3.04156 1.18549,0.67771 1.19277,-2.36385 0.67096,-12.27207 1.60118,-18.15957 0.24721,-9.27159 0.42201,-10.44703 0.52201,-10.54703 0.2,-0.1 -0.24696,0.0224 3.65304,-0.37755 4.25,-0.35 2.50983,-0.14389 2.50983,-0.14389 0.86009,0.37827 1.09951,-0.10703 1.96768,0.30377 1.16181,0.54974 0.51112,4.81255 0.56109,6.33507 0.0635,1.93591 -0.93638,5.96372 -0.73638,7.90122 -0.1189,6.33524 -0.36593,11.83753 -0.17846,13.49004 0.18747,1.65251 0.32598,1.77351 0.75283,2.08789 0.42685,0.31438 0.26914,-0.13037 0.69925,-1.92015 0.43012,-1.78977 0.24126,-5.20262 0.64989,-10.8791 -0.25,-1.1 -0.01,-7.26915 0.0169,-9.40785 0.0258,-2.0817 -0.0202,-6.0837 -0.17024,-7.9837 l 3.31312,0.16953 2.71194,0.9995 c -2.81481,-4.94942 -25.175614,0.39429 -23.4762,1.09162 z"
       id="path226"
       style="stroke-width:0.1"
       sodipodi:nodetypes="csssscccssscssscscccc" />
  </g>
</svg>
