<?xml version="1.0" encoding="UTF-8" standalone="no"?>
<svg
   xmlns:dc="http://purl.org/dc/elements/1.1/"
   xmlns:cc="http://creativecommons.org/ns#"
   xmlns:rdf="http://www.w3.org/1999/02/22-rdf-syntax-ns#"
   xmlns:svg="http://www.w3.org/2000/svg"
   xmlns="http://www.w3.org/2000/svg"
   xmlns:sodipodi="http://sodipodi.sourceforge.net/DTD/sodipodi-0.dtd"
   xmlns:inkscape="http://www.inkscape.org/namespaces/inkscape"
   version="1.0"
   width="180.016745pt"
   height="160.767968pt"
   viewBox="0 0 180.016745 160.767968"
   preserveAspectRatio="xMidYMid meet"
   id="svg28"
   sodipodi:docname="bk-030.svg"
   inkscape:version="1.0.2 (e86c870879, 2021-01-15)">
  <defs
     id="defs32" />
  <sodipodi:namedview
     pagecolor="#ffffff"
     bordercolor="#666666"
     borderopacity="1"
     objecttolerance="10"
     gridtolerance="10"
     guidetolerance="10"
     inkscape:pageopacity="0"
     inkscape:pageshadow="2"
     inkscape:window-width="1600"
     inkscape:window-height="836"
     id="namedview30"
     showgrid="false"
     inkscape:zoom="1.4321882"
     inkscape:cx="38.841661"
     inkscape:cy="79.24936"
     inkscape:window-x="0"
     inkscape:window-y="0"
     inkscape:window-maximized="1"
     inkscape:current-layer="svg28" />
  <metadata
     id="metadata2">
Created by potrace 1.16, written by Peter Selinger 2001-2019
<rdf:RDF>
  <cc:Work
     rdf:about="">
    <dc:format>image/svg+xml</dc:format>
    <dc:type
       rdf:resource="http://purl.org/dc/dcmitype/StillImage" />
  </cc:Work>
</rdf:RDF>
</metadata>
  <path
     fill="#000000"
     stroke="none"
     d="m 147.84,11.84 c -6.5,2.9 -7.8,12.8 -2.3,17.7 2.5,2.2 2.9,3.1 2.3,5.4 -0.6,2.4 -1,2.6 -3.8,2 -7.8,-1.8 -7.6,-2 -13.8,10.5 -5.5,10.8 -7.1,15 -9.6,24.5 -3.3,12.3 -3.5,13.6 -2.4,14.7 1.9,1.9 3.9,-0.9 4.6,-6.5 1,-7.8 4.2,-17.8 8.8,-27.5 l 4.1,-8.7 1.2,3.5 c 0.7,1.9 2.3,7.9 3.6,13.3 l 2.3,9.8 -7.2,21.7 c -4,11.9 -7.5,23.2 -7.8,24.9 -0.6,3.1 -0.4,3.3 2.5,3.9 3.6,0.8 3.7,0.9 1.3,4.9 -1,1.6 -4.9,8.7 -8.6,15.7 -6.5,12.5 -6.6,12.8 -5,15.3 1.9,2.9 2.7,3.1 4.4,1 1,-1.2 1,-1.8 0.1,-2.9 -1,-1.2 0,-3.8 5,-13.3 3.4,-6.5 7.2,-13.6 8.5,-15.9 l 2.4,-4 6.5,0.7 c 3.6,0.3 6.7,0.8 6.9,1 0.1,0.2 1.3,3.8 2.6,7.9 8.3,26.7 8.6,27.5 11.6,27.3 1.5,-0.1 3.1,-0.8 3.6,-1.5 1.3,-2 0.4,-4.3 -1.5,-4 -2.1,0.4 -4.5,-4.9 -8.8,-19.1 -2.4,-8.4 -2.7,-10.2 -1.5,-11.1 2.2,-1.7 2.4,-3.7 0.9,-8.6 -3.9,-12.4 -10.2,-35 -10.8,-38.6 -0.6,-3.7 0,-5.4 4.6,-15 l 5.3,-10.9 0.8,9.8 c 0.4,5.4 1.4,11 2.2,12.5 0.8,1.5 4.7,6 8.6,10.1 6.8,6.9 7.4,7.3 8.6,5.6 1.3,-1.7 0.6,-2.6 -6.5,-9.9 -8.6,-9 -8.2,-7.8 -9.7,-26.6 -0.3,-4.7 -1.1,-9 -1.6,-9.6 -0.5,-0.7 -2.4,-1.5 -4.3,-1.8 -1.9,-0.4 -3.7,-1.1 -4.1,-1.7 -1.2,-2.1 0.6,-5.5 3.8,-7.1 1.9,-0.8 4.2,-3.1 5.3,-5.1 1.6,-3.1 1.7,-4 0.6,-7.7 -0.8,-2.8 -2.2,-4.7 -4.4,-6 -3.7,-2.3 -5.1,-2.4 -9.3,-0.6 z"
     id="path6"
     style="stroke-width:0.1" />
  <path
     fill="#ffffff"
     stroke="none"
     d="m 156.44,17.44 c 2.6,2.6 2.5,5.1 -0.1,8.4 -5.1,6.5 -12.9,-0.9 -8.9,-8.5 1.4,-2.5 6.4,-2.5 9,0.1 z"
     id="path8"
     style="stroke-width:0.1" />
  <path
     fill="#ffffff"
     stroke="none"
     d="m 148.44,42.34 c 7.8,2.2 7.8,2.1 1.9,14.5 -2.9,6.3 -4.4,8.5 -5,7.5 -0.5,-0.8 -0.9,-2.2 -0.9,-3.2 0,-1 -0.9,-4.6 -1.9,-8 -3,-9.6 -3.5,-12.7 -1.9,-12.7 0.7,0 4.2,0.8 7.8,1.9 z"
     id="path10"
     style="stroke-width:0.1" />
  <path
     fill="#ffffff"
     stroke="none"
     d="m 145.94,83.74 c 0.8,3.9 3.9,15.2 7.1,26.3 2.8,9.4 2.8,9.8 1,9.1 -0.8,-0.3 -5.7,-0.9 -10.8,-1.2 -5.1,-0.4 -9.7,-1.1 -10.2,-1.6 -1.5,-1.3 10,-37.2 11.6,-36.3 0.3,0.2 0.9,1.9 1.3,3.7 z"
     id="path12"
     style="stroke-width:0.1" />
  <path
     fill="#000000"
     stroke="none"
     d="m 51.64,65.74 c -0.6,0.6 -1.4,2.5 -1.7,4 -0.7,2.6 -1.1,2.8 -4.9,2.7 -10.2,-0.4 -10.2,-0.4 -15.3,6.1 -2.6,3.3 -6.3,7.9 -8,10.1 l -3.3,4 v 30.9 c 0,26.6 0.2,30.9 1.5,30.9 2.3,0 2.6,-3.1 2.3,-29.5 l -0.3,-25 4.6,-0.3 c 5.7,-0.4 5.6,-1 5.8,19.8 0.2,8.5 0.5,15.8 0.8,16.3 0.2,0.4 1.1,0.3 1.8,-0.3 1.1,-0.9 1.4,-4.9 1.3,-18.1 0,-9.4 0.1,-17.1 0.3,-17.3 0.2,-0.2 11.3,-0.7 24.7,-1.1 l 24.2,-0.7 0.1,9.4 c 0.5,31.6 0.8,35.3 3.1,33 0.8,-0.8 1.2,-7.5 1.2,-21.9 l 0.1,-20.8 7.8,-0.3 7.7,-0.4 v 3.4 c 0.2,22.3 1.4,52.5 2.2,53.3 0.6,0.7 1.3,0.5 2.1,-0.6 0.9,-1.2 1,-5.9 0.5,-17.5 -0.3,-8.7 -0.6,-21.4 -0.7,-28.2 l -0.1,-12.3 -7.7,-8.7 c -14.8,-16.8 -13,-15.5 -22.3,-15.3 -4.5,0.1 -8.8,0.5 -9.5,0.8 -0.9,0.3 -1.7,-0.3 -2.1,-1.3 -2,-6.2 -5.2,-8.2 -8.2,-5.2 -1,1 -1.7,1 -3.2,0 -2.5,-1.5 -3.5,-1.5 -4.8,0.1 z"
     id="path14"
     style="stroke-width:0.1" />
  <path
     fill="#ffffff"
     stroke="none"
     d="m 64.64,73.44 c 0.3,2.2 -0.2,2.5 -4.2,3.2 -5.7,1 -8,0.3 -8,-2.5 0,-3.6 1.4,-5.1 3.7,-3.8 1.5,0.8 2.5,0.7 3.9,-0.4 2.3,-1.7 4.1,-0.3 4.6,3.5 z"
     id="path16"
     style="stroke-width:0.1" />
  <path
     fill="#ffffff"
     stroke="none"
     d="m 94.14,84.14 c 4.4,4.9 8,8.9 7.8,9.1 -0.4,0.4 -18.7,1.1 -50.2,1.8 -22.5,0.6 -28.3,0.4 -28.3,-0.6 0,-0.7 2.8,-5 6.2,-9.6 l 6.2,-8.4 h 6.1 6 l -3.5,1.8 c -7.5,3.7 -3.6,10.5 6.7,11.7 6.4,0.7 17,-0.8 21.4,-3 5,-2.6 4.9,-8.2 -0.2,-9.2 -5.6,-1.1 -2.8,-2.3 5.4,-2.3 h 8.2 z"
     id="path18"
     style="stroke-width:0.1" />
  <path
     fill="#ffffff"
     stroke="none"
     d="m 64.44,80.44 c -0.8,0.5 -2.4,0.9 -3.5,0.9 -1.6,-0.1 -1.6,-0.2 0.5,-0.9 3.5,-1.1 4.8,-1.1 3,0 z"
     id="path20"
     style="stroke-width:0.1" />
  <path
     fill="#ffffff"
     stroke="none"
     d="m 57.74,81.14 c -0.7,0.2 -1.9,0.2 -2.5,0 -0.7,-0.3 -0.2,-0.5 1.2,-0.5 1.4,0 1.9,0.2 1.3,0.5 z"
     id="path22"
     style="stroke-width:0.1" />
  <path
     fill="#ffffff"
     stroke="none"
     d="m 47.64,82.54 c 0.7,2 14.9,2.4 18.6,0.5 3.5,-1.8 6.2,-2.1 6.2,-0.6 0,1.5 -9.9,4 -16,4 -5.7,0 -12,-1.5 -12,-2.9 0,-2 2.6,-2.8 3.2,-1 z"
     id="path24"
     style="stroke-width:0.1" />
</svg>
