<?xml version="1.0" standalone="no"?>
<!DOCTYPE svg PUBLIC "-//W3C//DTD SVG 20010904//EN"
 "http://www.w3.org/TR/2001/REC-SVG-20010904/DTD/svg10.dtd">
<svg version="1.0" xmlns="http://www.w3.org/2000/svg"
 width="148.777193pt" height="173.357025pt" viewBox="0 0 148.777193 173.357025"
 preserveAspectRatio="xMidYMid meet">
<metadata>
Created by potrace 1.16, written by Peter Selinger 2001-2019
</metadata>
<g transform="translate(-11.864484,186.273490) scale(0.100000,-0.100000)"
fill="#000000" stroke="none">
<path fill="#000000" stroke="none" d="M303 1839 c-40 -12 -63 -52 -63 -112 0
-39 5 -49 34 -75 19 -16 39 -31 45 -33 6 -2 12 -20 13 -39 l3 -35 -57 -3 c-43
-2 -58 -7 -62 -20 -57 -187 -77 -286 -82 -397 -4 -113 2 -155 22 -142 5 3 10
61 12 129 2 93 9 146 28 218 33 123 40 135 49 85 3 -22 23 -107 43 -188 l37
-148 -38 -187 c-53 -265 -55 -286 -63 -488 -7 -178 -6 -183 16 -214 16 -22 26
-28 33 -21 7 7 5 17 -8 31 -21 23 -22 98 -5 336 7 109 69 461 77 438 37 -113
77 -303 88 -414 28 -299 41 -362 76 -396 28 -27 53 -27 34 0 -37 50 -45 70
-55 146 -6 47 -15 141 -20 209 -9 113 -20 173 -79 445 l-20 89 50 195 c27 107
53 202 58 210 5 9 15 -27 26 -98 l18 -113 73 -88 c40 -48 78 -90 83 -94 6 -3
11 -17 11 -30 0 -43 86 -94 208 -126 61 -15 82 -17 104 -8 37 15 45 45 20 72
-16 19 -19 32 -14 85 5 73 -2 85 -50 84 -20 0 -39 6 -51 19 -29 31 -53 23 -92
-28 -27 -36 -45 -50 -70 -54 -31 -5 -38 -1 -78 40 -62 65 -106 125 -116 158
-5 15 -17 73 -26 128 -25 149 -25 149 -90 142 -53 -5 -55 -5 -55 18 0 13 -3
30 -6 39 -4 11 2 19 19 25 81 31 92 160 17 204 -31 19 -49 20 -97 6z"/>
<path fill="#ffffff" stroke="none" d="M400 1790 c43 -43 17 -120 -46 -136
-61 -15 -108 73 -69 132 20 31 85 34 115 4z"/>
<path fill="#ffffff" stroke="none" d="M401 1321 c-27 -106 -51 -195 -54 -197
-7 -8 -87 331 -87 373 0 9 28 13 93 15 50 2 93 3 95 2 1 0 -20 -87 -47 -193z"/>
<path fill="#ffffff" stroke="none" d="M900 1115 c9 -11 22 -14 42 -10 28 7
28 6 28 -41 l0 -47 -36 6 c-44 7 -124 45 -124 59 0 5 9 23 21 39 22 31 40 29
69 -6z"/>
<path fill="#ffffff" stroke="none" d="M758 1022 c37 -39 135 -75 190 -69 31
3 42 1 42 -9 0 -35 -169 1 -242 51 -21 14 -38 32 -38 40 0 23 19 18 48 -13z"/>
<path fill="#ffffff" stroke="none" d="M815 1036 c11 -8 49 -23 85 -34 57 -18
61 -21 30 -21 -41 0 -142 38 -148 57 -5 16 9 15 33 -2z"/>
<path fill="#000000" stroke="none" d="M1353 1745 c-83 -36 -82 -154 2 -203
28 -17 35 -28 35 -52 0 -30 0 -30 -54 -30 -65 0 -60 10 -80 -158 -14 -111 -20
-134 -66 -233 -27 -60 -50 -112 -50 -114 0 -3 6 -5 13 -5 8 0 37 48 66 106 45
93 53 118 63 205 6 55 14 96 18 92 6 -8 16 -39 64 -216 l24 -88 -38 -107 c-21
-59 -59 -165 -84 -237 -26 -71 -44 -135 -41 -142 3 -9 25 -13 63 -13 l59 0 6
-67 c4 -38 7 -115 7 -172 0 -82 -3 -108 -16 -122 -10 -11 -14 -25 -10 -36 6
-15 10 -13 32 12 25 30 25 30 21 208 -4 168 -3 177 14 177 17 0 19 -10 20
-112 1 -199 15 -288 46 -288 11 0 13 6 8 23 -17 54 -23 131 -22 252 l2 130 58
3 c31 2 57 7 57 11 0 8 -73 240 -125 399 l-24 72 39 124 c21 68 42 140 45 160
13 64 25 27 25 -73 0 -87 30 -284 45 -300 3 -2 9 0 14 5 5 5 3 36 -5 74 -8 36
-19 137 -25 225 -14 221 -7 205 -79 205 l-60 0 0 40 c0 27 4 40 14 40 7 0 25
9 39 20 55 44 39 153 -28 184 -40 19 -51 19 -92 1z"/>
<path fill="#ffffff" stroke="none" d="M1450 1700 c52 -52 26 -123 -47 -128
-34 -3 -44 1 -62 24 -28 35 -27 69 4 99 30 31 77 33 105 5z"/>
<path fill="#ffffff" stroke="none" d="M1500 1423 c-1 -27 -80 -303 -90 -316
-4 -4 -15 23 -25 60 -9 37 -28 104 -41 149 -36 120 -39 114 66 114 50 0 90 -3
90 -7z"/>
<path fill="#ffffff" stroke="none" d="M1469 796 c34 -109 61 -200 59 -201 -8
-7 -268 -14 -268 -7 0 5 18 60 41 123 22 63 54 154 71 202 17 49 31 87 33 85
2 -2 31 -92 64 -202z"/>
</g>
</svg>
