<?xml version="1.0" encoding="UTF-8" standalone="no"?>
<svg
   xmlns:dc="http://purl.org/dc/elements/1.1/"
   xmlns:cc="http://creativecommons.org/ns#"
   xmlns:rdf="http://www.w3.org/1999/02/22-rdf-syntax-ns#"
   xmlns:svg="http://www.w3.org/2000/svg"
   xmlns="http://www.w3.org/2000/svg"
   xmlns:sodipodi="http://sodipodi.sourceforge.net/DTD/sodipodi-0.dtd"
   xmlns:inkscape="http://www.inkscape.org/namespaces/inkscape"
   version="1.0"
   width="185.81799pt"
   height="176.93805pt"
   viewBox="0 0 185.81799 176.93806"
   preserveAspectRatio="xMidYMid meet"
   id="svg18"
   sodipodi:docname="050.svg"
   inkscape:version="1.0.2 (e86c870879, 2021-01-15)">
  <defs
     id="defs22" />
  <sodipodi:namedview
     pagecolor="#ffffff"
     bordercolor="#666666"
     borderopacity="1"
     objecttolerance="10"
     gridtolerance="10"
     guidetolerance="10"
     inkscape:pageopacity="0"
     inkscape:pageshadow="2"
     inkscape:window-width="1600"
     inkscape:window-height="836"
     id="namedview20"
     showgrid="false"
     inkscape:zoom="1.810606"
     inkscape:cx="86.737267"
     inkscape:cy="99.661225"
     inkscape:window-x="0"
     inkscape:window-y="0"
     inkscape:window-maximized="1"
     inkscape:current-layer="svg18"
     fit-margin-top="0"
     fit-margin-left="0"
     fit-margin-right="0"
     fit-margin-bottom="0" />
  <metadata
     id="metadata2">
Created by potrace 1.16, written by Peter Selinger 2001-2019
<rdf:RDF>
  <cc:Work
     rdf:about="">
    <dc:format>image/svg+xml</dc:format>
    <dc:type
       rdf:resource="http://purl.org/dc/dcmitype/StillImage" />
    <dc:title></dc:title>
  </cc:Work>
</rdf:RDF>
</metadata>
  <g
     transform="matrix(0.1,0,0,-0.1,72.060823,187.45)"
     fill="#000000"
     stroke="none"
     id="g16">
    <path
       fill="#000000"
       stroke="none"
       d="m 545,1864 c -48,-18 -81,-48 -105,-94 -61,-119 -12,-261 100,-294 l 45,-13 3,-82 3,-81 H 478 c -62,0 -118,-4 -124,-8 -13,-9 -260,-508 -269,-542 -5,-22 7,-35 95,-109 56,-46 104,-91 106,-100 16,-49 57,-78 138,-95 L 476,435 434,295 C 387,142 382,110 405,110 c 9,0 20,19 29,53 8,28 27,95 41,147 15,52 27,102 27,110 0,12 17,15 89,17 74,1 89,-1 89,-14 0,-8 29,-76 65,-150 36,-74 65,-139 65,-143 0,-4 6,-13 14,-19 10,-8 16,-8 24,1 11,14 1,37 -99,240 l -48,96 51,12 c 71,15 118,45 125,82 3,16 13,32 22,36 9,3 67,35 129,70 98,55 113,67 109,86 -5,20 -110,259 -180,410 -18,38 -44,89 -59,113 l -28,43 H 745 620 l 3,82 2,83 37,6 c 52,8 87,35 108,82 28,63 33,109 20,172 -14,65 -64,130 -108,139 -71,14 -100,14 -137,0 z"
       id="path4" />
    <path
       fill="#ffffff"
       stroke="none"
       d="m 711,1804 c 39,-37 53,-85 46,-160 -6,-76 -26,-110 -75,-131 -53,-22 -146,-12 -179,19 -67,62 -72,189 -10,257 54,59 164,66 218,15 z"
       id="path6" />
    <path
       fill="#ffffff"
       stroke="none"
       d="m 840,1258 c 0,-2 -16,-61 -35,-133 -58,-215 -77,-305 -71,-322 11,-29 23,-1 61,146 20,80 43,160 51,179 8,19 14,47 14,63 0,42 16,35 44,-18 61,-122 196,-434 191,-442 -3,-5 -49,-33 -102,-62 -80,-43 -108,-53 -158,-56 l -62,-4 -28,108 c -15,59 -35,114 -43,121 -25,20 -64,14 -94,-15 l -28,-26 -24,26 c -29,31 -35,32 -81,13 -29,-12 -36,-22 -49,-68 -8,-29 -17,-74 -21,-99 -5,-43 -8,-47 -44,-58 -21,-6 -46,-11 -55,-11 -16,0 -177,124 -184,141 -4,10 219,469 227,469 4,0 19,-51 33,-112 28,-118 60,-240 65,-247 1,-2 9,-1 17,2 16,6 18,-6 -37,207 -19,74 -37,150 -40,168 l -6,32 h 229 c 127,0 230,-1 230,-2 z"
       id="path8" />
    <path
       fill="#ffffff"
       stroke="none"
       d="m 542,785 c 16,-14 35,-25 42,-25 7,0 23,11 36,25 13,14 33,25 45,25 19,0 25,-10 39,-62 9,-35 18,-76 19,-93 l 2,-30 -86,-14 c -110,-17 -199,-3 -199,32 0,56 21,143 37,155 24,17 31,15 65,-13 z"
       id="path10" />
    <path
       fill="#ffffff"
       stroke="none"
       d="m 570,575 c 36,0 88,4 116,8 43,7 52,6 57,-8 8,-20 -25,-34 -121,-48 -54,-8 -87,-8 -129,1 -64,13 -79,23 -69,47 5,14 13,16 44,9 20,-5 66,-9 102,-9 z"
       id="path12" />
    <path
       fill="#ffffff"
       stroke="none"
       d="m 392,553 c 2,-24 11,-31 53,-45 115,-39 335,-5 335,52 0,24 18,26 46,6 19,-15 19,-15 -1,-35 -31,-30 -119,-52 -235,-58 -119,-6 -205,7 -244,38 -24,19 -25,21 -10,45 22,33 52,32 56,-3 z"
       id="path14" />
  </g>
  <g
     transform="matrix(0.08717335,0,0,-0.08717335,-6.3256767,163.46055)"
     fill="#000000"
     stroke="none"
     id="g147">
    <path
       fill="#000000"
       stroke="none"
       d="m 785,1852 c -40,-25 -51,-40 -59,-84 -10,-53 16,-111 59,-131 32,-15 35,-20 35,-62 v -45 h -53 c -32,0 -61,-6 -75,-16 -12,-8 -56,-64 -98,-124 -41,-60 -79,-112 -83,-114 -4,-3 -36,22 -70,55 -61,58 -63,61 -51,89 7,17 13,52 13,80 1,62 -24,100 -79,118 -77,26 -158,-8 -193,-80 -40,-83 -21,-157 49,-193 38,-20 124,-20 140,0 7,8 18,15 24,15 7,0 43,-32 82,-70 38,-39 75,-69 81,-68 7,2 50,55 96,118 45,63 87,115 92,115 12,0 104,-377 107,-440 1,-27 -8,-115 -20,-195 C 766,716 758,609 754,440 748,215 744,185 718,149 c -6,-9 -8,-25 -4,-35 7,-17 10,-16 35,14 l 28,33 7,232 c 6,219 26,438 46,503 5,18 9,22 9,10 2,-45 78,-327 132,-486 81,-242 102,-294 122,-298 18,-4 24,26 8,44 -12,13 -85,211 -121,329 -34,111 -80,292 -110,429 -19,87 -19,90 -1,155 10,36 36,127 56,201 20,74 40,141 44,148 10,18 72,-355 77,-461 4,-107 10,-119 42,-99 10,7 10,33 -3,138 -9,71 -20,145 -25,164 -5,19 -21,102 -35,183 -14,82 -30,157 -36,168 -9,18 -19,20 -72,17 l -62,-3 -3,45 c -2,43 -1,46 36,63 60,27 78,89 47,163 -10,23 -26,39 -49,49 -46,19 -65,19 -101,-3 z"
       id="path135" />
    <path
       fill="#ffffff"
       stroke="none"
       d="m 893,1798 c 17,-21 23,-83 9,-105 -26,-40 -110,-32 -131,13 -21,47 -14,82 22,104 37,24 73,19 100,-12 z"
       id="path137" />
    <path
       fill="#ffffff"
       stroke="none"
       d="m 352,1560 c 18,-22 24,-82 12,-114 -3,-9 -15,-16 -26,-16 -15,0 -18,-5 -13,-20 14,-43 -103,-59 -149,-21 -8,7 -19,25 -26,42 -17,41 10,113 54,140 42,27 122,21 148,-11 z"
       id="path139" />
    <path
       fill="#ffffff"
       stroke="none"
       d="m 950,1495 c 0,-2 -20,-73 -45,-157 -24,-84 -49,-177 -56,-207 -14,-65 -18,-59 -49,74 -13,55 -33,141 -45,190 l -22,90 56,6 c 76,8 161,10 161,4 z"
       id="path141" />
    <path
       fill="#000000"
       stroke="none"
       d="m 211,1536 c -53,-56 -32,-146 33,-146 55,0 93,55 86,125 -4,48 -81,62 -119,21 z"
       id="path143" />
    <path
       fill="#ffffff"
       stroke="none"
       d="m 297,1504 c 3,-8 1,-26 -5,-40 -9,-18 -19,-24 -42,-24 -26,0 -30,4 -30,28 0,15 5,33 12,40 17,17 58,15 65,-4 z"
       id="path145" />
  </g>
  <rect
     style="fill:#f9f9f9;stroke-width:0.429343"
     id="rect162"
     width="1.6550108"
     height="29.489279"
     x="4.2301044"
     y="21.977116" />
  <rect
     style="fill:#f9f9f9;stroke-width:0.429343"
     id="rect164"
     width="1.6550108"
     height="29.489279"
     x="7.3753681"
     y="20.581255" />
  <rect
     style="fill:#f9f9f9;stroke-width:0.429343"
     id="rect166"
     width="1.6550108"
     height="29.489279"
     x="10.709414"
     y="20.430227" />
  <rect
     style="fill:#f9f9f9;stroke-width:0.429343"
     id="rect168"
     width="1.6550108"
     height="29.489279"
     x="13.962229"
     y="21.004589" />
  <rect
     style="fill:#f9f9f9;stroke-width:0.420439"
     id="rect170"
     width="1.6550108"
     height="28.27877"
     x="17.398108"
     y="19.789503" />
  <rect
     style="fill:#f9f9f9;stroke-width:0.347704"
     id="rect172"
     width="1.6550108"
     height="19.340773"
     x="20.093149"
     y="20.797409" />
  <rect
     style="fill:#f9f9f9;stroke-width:0.309348"
     id="rect174"
     width="1.6550108"
     height="15.309118"
     x="22.841967"
     y="20.872026" />
  <rect
     style="fill:#f9f9f9;stroke-width:0.309348"
     id="rect176"
     width="1.6550108"
     height="15.309118"
     x="25.935171"
     y="21.923498" />
  <rect
     style="fill:#f9f9f9;stroke-width:0.194185"
     id="rect178"
     width="1.6550108"
     height="6.0323634"
     x="20.217291"
     y="42.036484" />
  <rect
     style="fill:#f9f9f9;stroke-width:0.194185"
     id="rect180"
     width="1.6550108"
     height="6.0323634"
     x="32.905235"
     y="-29.171125"
     transform="rotate(86.189776)" />
  <rect
     style="fill:#f9f9f9;stroke-width:0.194185"
     id="rect182"
     width="1.6550108"
     height="6.0323634"
     x="34.950817"
     y="-3.7046685"
     transform="rotate(86.189776)"
     inkscape:transform-center-x="-27.000757"
     inkscape:transform-center-y="-4.2316328" />
</svg>
