<?xml version="1.0" standalone="no"?>
<!DOCTYPE svg PUBLIC "-//W3C//DTD SVG 20010904//EN"
 "http://www.w3.org/TR/2001/REC-SVG-20010904/DTD/svg10.dtd">
<svg version="1.0" xmlns="http://www.w3.org/2000/svg"
 width="159.959830pt" height="152.238023pt" viewBox="0 0 159.959830 152.238023"
 preserveAspectRatio="xMidYMid meet">
<metadata>
Created by potrace 1.16, written by Peter Selinger 2001-2019
</metadata>
<g transform="translate(-4.400374,162.310407) scale(0.100000,-0.100000)"
fill="#000000" stroke="none">
<path fill="#000000" stroke="none" d="M1245 1600 c-36 -14 -49 -40 -49 -96
-1 -60 14 -82 67 -100 26 -8 33 -17 35 -41 3 -30 1 -32 -52 -47 -54 -16 -54
-16 -96 -99 -23 -45 -47 -87 -54 -94 -6 -6 -29 -12 -51 -13 -67 -3 -67 -2 -43
30 19 27 20 32 7 45 -8 8 -25 16 -39 18 -15 2 -30 16 -40 35 -8 17 -26 37 -39
44 -21 11 -25 10 -38 -9 -12 -17 -19 -20 -38 -13 -35 13 -58 -17 -49 -65 6
-32 3 -40 -25 -67 -60 -58 -26 -89 76 -69 76 14 124 19 137 12 5 -2 41 -3 80
-2 83 2 95 12 142 117 16 35 31 64 34 64 3 0 18 -26 33 -58 16 -31 47 -87 69
-124 22 -37 37 -72 34 -77 -10 -15 -116 -440 -116 -462 0 -12 7 -19 19 -19 18
0 18 -2 0 -107 -30 -173 -40 -211 -66 -234 -41 -39 -23 -67 23 -34 29 20 39
50 69 210 14 77 30 150 35 161 6 16 25 25 77 37 37 8 71 13 74 11 6 -4 27 -78
59 -216 11 -48 30 -109 41 -135 12 -26 25 -58 30 -70 5 -15 14 -21 24 -17 18
7 19 21 2 54 -29 55 -107 333 -107 379 0 14 9 21 31 26 17 4 33 13 35 20 3 7
-32 88 -76 180 -91 187 -110 235 -105 262 2 10 11 65 20 123 9 58 20 109 24
113 4 4 24 -32 44 -80 45 -108 76 -228 86 -335 1 -12 29 -10 36 2 3 6 2 25 -4
43 -5 17 -17 68 -26 112 -15 72 -48 174 -66 200 -3 6 -14 33 -23 62 -22 68
-35 77 -95 70 -39 -5 -51 -3 -55 9 -11 28 -6 46 19 76 39 46 32 130 -14 165
-18 14 -66 16 -96 3z"/>
<path fill="#ffffff" stroke="none" d="M1318 1554 c19 -13 22 -24 20 -56 -3
-47 -23 -64 -62 -54 -51 13 -61 97 -13 116 30 12 30 12 55 -6z"/>
<path fill="#ffffff" stroke="none" d="M1387 1190 c-11 -66 -23 -120 -26 -120
-13 0 -116 198 -108 207 7 6 110 30 138 32 14 1 14 -11 -4 -119z"/>
<path fill="#ffffff" stroke="none" d="M898 1248 c21 -21 13 -35 -28 -52 -62
-25 -80 -22 -80 15 0 28 2 30 30 26 18 -3 34 0 41 9 14 17 21 18 37 2z"/>
<path fill="#ffffff" stroke="none" d="M925 1160 c-17 -19 -100 -44 -120 -36
-29 11 -15 23 53 48 68 26 96 21 67 -12z"/>
<path fill="#ffffff" stroke="none" d="M990 1168 c0 -22 -13 -35 -58 -57 -51
-26 -145 -45 -179 -37 -20 6 -22 10 -13 26 11 21 40 27 40 9 0 -29 153 21 173
57 10 17 37 18 37 2z"/>
<path fill="#ffffff" stroke="none" d="M1468 772 c40 -85 72 -155 72 -157 0
-1 -33 -10 -72 -19 -40 -10 -101 -24 -135 -32 -34 -7 -64 -14 -67 -14 -2 0 2
21 10 47 12 40 68 259 90 352 l5 24 13 -24 c6 -13 44 -93 84 -177z"/>
<path fill="#000000" stroke="none" d="M426 1004 c-9 -8 -19 -27 -22 -40 -6
-24 -9 -25 -87 -22 l-80 2 -39 -45 c-22 -24 -62 -73 -89 -109 l-51 -65 6 -280
c3 -154 5 -281 6 -282 0 -2 7 -3 15 -3 26 0 30 27 23 152 -3 68 -7 180 -7 250
l-1 128 63 -3 62 -2 6 -65 c4 -36 7 -123 8 -195 1 -73 6 -134 12 -140 14 -14
40 22 34 49 -2 12 -6 94 -9 182 l-5 162 37 5 c49 6 412 0 420 -7 7 -8 10 -70
11 -236 1 -142 9 -177 34 -150 11 12 13 49 7 200 -4 102 -6 187 -4 189 2 2 39
5 84 7 58 3 82 0 85 -9 2 -6 8 -122 12 -257 7 -208 10 -245 23 -245 13 0 15
35 12 270 l-4 270 -66 64 c-37 36 -91 86 -121 113 -54 48 -54 48 -127 48 l-72
0 -12 35 c-13 41 -44 54 -70 30 -17 -16 -21 -16 -42 -1 -28 20 -33 20 -52 0z"/>
<path fill="#ffffff" stroke="none" d="M554 954 c3 -9 6 -24 6 -35 0 -18 -6
-20 -57 -17 -55 3 -58 4 -61 31 -4 29 7 34 38 15 16 -10 23 -10 37 5 21 21 29
21 37 1z"/>
<path fill="#ffffff" stroke="none" d="M370 890 c10 -6 11 -10 3 -10 -7 0 -20
-11 -28 -24 -13 -19 -13 -28 -4 -49 15 -34 49 -47 139 -52 160 -9 241 52 158
120 l-33 26 66 -3 66 -4 87 -78 c48 -44 85 -81 83 -83 -7 -6 -656 -9 -726 -3
l-64 5 43 55 c82 105 88 110 144 110 28 0 58 -5 66 -10z"/>
<path fill="#ffffff" stroke="none" d="M483 853 c-7 -2 -21 -2 -30 0 -10 3 -4
5 12 5 17 0 24 -2 18 -5z"/>
<path fill="#ffffff" stroke="none" d="M559 856 c-12 -10 -59 -15 -59 -6 0 5
14 10 32 10 17 0 29 -2 27 -4z"/>
<path fill="#ffffff" stroke="none" d="M630 825 c0 -19 -62 -35 -136 -35 -70
0 -124 16 -124 36 0 17 0 17 43 -1 49 -20 124 -19 167 3 38 20 50 19 50 -3z"/>
</g>
</svg>
