<?xml version="1.0" encoding="UTF-8" standalone="no"?>
<svg
   xmlns:dc="http://purl.org/dc/elements/1.1/"
   xmlns:cc="http://creativecommons.org/ns#"
   xmlns:rdf="http://www.w3.org/1999/02/22-rdf-syntax-ns#"
   xmlns:svg="http://www.w3.org/2000/svg"
   xmlns="http://www.w3.org/2000/svg"
   xmlns:sodipodi="http://sodipodi.sourceforge.net/DTD/sodipodi-0.dtd"
   xmlns:inkscape="http://www.inkscape.org/namespaces/inkscape"
   version="1.0"
   width="139.05414pt"
   height="164.9568pt"
   viewBox="0 0 139.05414 164.9568"
   preserveAspectRatio="xMidYMid meet"
   id="svg26"
   sodipodi:docname="010.svg"
   inkscape:version="1.0.2 (e86c870879, 2021-01-15)">
  <defs
     id="defs30" />
  <sodipodi:namedview
     pagecolor="#ffffff"
     bordercolor="#666666"
     borderopacity="1"
     objecttolerance="10"
     gridtolerance="10"
     guidetolerance="10"
     inkscape:pageopacity="0"
     inkscape:pageshadow="2"
     inkscape:window-width="1600"
     inkscape:window-height="836"
     id="namedview28"
     showgrid="false"
     inkscape:zoom="2.6563677"
     inkscape:cx="67.35688"
     inkscape:cy="35.390105"
     inkscape:window-x="0"
     inkscape:window-y="0"
     inkscape:window-maximized="1"
     inkscape:current-layer="svg26"
     inkscape:document-rotation="0"
     fit-margin-top="0"
     fit-margin-left="0"
     fit-margin-right="0"
     fit-margin-bottom="0" />
  <metadata
     id="metadata2">
Created by potrace 1.16, written by Peter Selinger 2001-2019
<rdf:RDF>
  <cc:Work
     rdf:about="">
    <dc:format>image/svg+xml</dc:format>
    <dc:type
       rdf:resource="http://purl.org/dc/dcmitype/StillImage" />
    <dc:title></dc:title>
  </cc:Work>
</rdf:RDF>
</metadata>
  <path
     fill="#000000"
     stroke="none"
     d="m 115.18154,4.8104646 c -8.3,3.6 -8.2,15.4000004 0.2,20.3000004 2.8,1.7 3.5,2.8 3.5,5.2 0,3 0,3 -5.4,3 -6.5,0 -6,-1 -8,15.8 -1.4,11.1 -2,13.4 -6.600001,23.3 -2.7,6 -5,11.2 -5,11.4 0,0.3 0.6,0.5 1.3,0.5 0.8,0 3.7,-4.8 6.600001,-10.6 4.5,-9.3 5.3,-11.8 6.3,-20.5 0.6,-5.5 1.4,-9.6 1.8,-9.2 0.6,0.8 1.6,3.9 6.4,21.6 l 2.4,8.8 -3.8,10.7 c -2.1,5.9 -5.9,16.499995 -8.4,23.699995 -2.6,7.1 -4.4,13.5 -4.1,14.2 0.3,0.9 2.5,1.3 6.3,1.3 h 5.9 l 0.6,6.7 c 0.4,3.8 0.7,11.5 0.7,17.2 0,8.2 -0.3,10.8 -1.6,12.2 -1,1.1 -1.4,2.5 -1,3.6 0.6,1.5 1,1.3 3.2,-1.2 2.5,-3 2.5,-3 2.1,-20.8 -0.4,-16.8 -0.3,-17.7 1.4,-17.7 1.7,0 1.9,1 2,11.2 0.1,19.9 1.5,28.8 4.6,28.8 1.1,0 1.3,-0.6 0.8,-2.3 -1.7,-5.4 -2.3,-13.1 -2.2,-25.2 l 0.2,-13 5.8,-0.3 c 3.1,-0.2 5.7,-0.7 5.7,-1.1 0,-0.8 -7.3,-23.999995 -12.5,-39.899995 l -2.4,-7.2 3.9,-12.4 c 2.1,-6.8 4.2,-14 4.5,-16 1.3,-6.4 2.5,-2.7 2.5,7.3 0,8.7 3,28.4 4.5,30 0.3,0.2 0.9,0 1.4,-0.5 0.5,-0.5 0.3,-3.6 -0.5,-7.4 -0.8,-3.6 -1.9,-13.7 -2.5,-22.5 -1.4,-22.1 -0.7,-20.5 -7.9,-20.5 h -6 v -4 c 0,-2.7 0.4,-4 1.4,-4 0.7,0 2.5,-0.9 3.9,-2 5.5,-4.4 3.9,-15.3000004 -2.8,-18.4000004 -4,-1.9 -5.1,-1.9 -9.2,-0.1 z"
     id="path16"
     style="stroke-width:0.1" />
  <path
     fill="#ffffff"
     stroke="none"
     d="m 124.88154,9.3104646 c 5.2,5.2000004 2.6,12.3000004 -4.7,12.8000004 -3.4,0.3 -4.4,-0.1 -6.2,-2.4 -2.8,-3.5 -2.7,-6.9 0.4,-9.9000004 3,-3.1 7.7,-3.3 10.5,-0.5 z"
     id="path18"
     style="stroke-width:0.1" />
  <path
     fill="#ffffff"
     stroke="none"
     d="m 129.88154,37.010465 c -0.1,2.7 -8,30.3 -9,31.6 -0.4,0.4 -1.5,-2.3 -2.5,-6 -0.9,-3.7 -2.8,-10.4 -4.1,-14.9 -3.6,-12 -3.9,-11.4 6.6,-11.4 5,0 9,0.3 9,0.7 z"
     id="path20"
     style="stroke-width:0.1" />
  <path
     fill="#ffffff"
     stroke="none"
     d="m 126.78154,99.710465 c 3.4,10.899995 6.1,19.999995 5.9,20.099995 -0.8,0.7 -26.8,1.4 -26.8,0.7 0,-0.5 1.8,-6 4.1,-12.3 2.2,-6.3 5.4,-15.399995 7.1,-20.199995 1.7,-4.9 3.1,-8.7 3.3,-8.5 0.2,0.2 3.1,9.2 6.4,20.2 z"
     id="path22"
     style="stroke-width:0.1" />
  <g
     transform="matrix(0.0933966,0,0,-0.0933966,-10.305207,174.54849)"
     fill="#000000"
     stroke="none"
     id="g193">
    <path
       fill="#000000"
       stroke="none"
       d="m 785,1852 c -40,-25 -51,-40 -59,-84 -10,-53 16,-111 59,-131 32,-15 35,-20 35,-62 v -45 h -53 c -32,0 -61,-6 -75,-16 -12,-8 -56,-64 -98,-124 -41,-60 -79,-112 -83,-114 -4,-3 -36,22 -70,55 -61,58 -63,61 -51,89 7,17 13,52 13,80 1,62 -24,100 -79,118 -77,26 -158,-8 -193,-80 -40,-83 -21,-157 49,-193 38,-20 124,-20 140,0 7,8 18,15 24,15 7,0 43,-32 82,-70 38,-39 75,-69 81,-68 7,2 50,55 96,118 45,63 87,115 92,115 12,0 104,-377 107,-440 1,-27 -8,-115 -20,-195 C 766,716 758,609 754,440 748,215 744,185 718,149 c -6,-9 -8,-25 -4,-35 7,-17 10,-16 35,14 l 28,33 7,232 c 6,219 26,438 46,503 5,18 9,22 9,10 2,-45 78,-327 132,-486 81,-242 102,-294 122,-298 18,-4 24,26 8,44 -12,13 -85,211 -121,329 -34,111 -80,292 -110,429 -19,87 -19,90 -1,155 10,36 36,127 56,201 20,74 40,141 44,148 10,18 72,-355 77,-461 4,-107 10,-119 42,-99 10,7 10,33 -3,138 -9,71 -20,145 -25,164 -5,19 -21,102 -35,183 -14,82 -30,157 -36,168 -9,18 -19,20 -72,17 l -62,-3 -3,45 c -2,43 -1,46 36,63 60,27 78,89 47,163 -10,23 -26,39 -49,49 -46,19 -65,19 -101,-3 z"
       id="path181" />
    <path
       fill="#ffffff"
       stroke="none"
       d="m 893,1798 c 17,-21 23,-83 9,-105 -26,-40 -110,-32 -131,13 -21,47 -14,82 22,104 37,24 73,19 100,-12 z"
       id="path183" />
    <path
       fill="#ffffff"
       stroke="none"
       d="m 352,1560 c 18,-22 24,-82 12,-114 -3,-9 -15,-16 -26,-16 -15,0 -18,-5 -13,-20 14,-43 -103,-59 -149,-21 -8,7 -19,25 -26,42 -17,41 10,113 54,140 42,27 122,21 148,-11 z"
       id="path185" />
    <path
       fill="#ffffff"
       stroke="none"
       d="m 950,1495 c 0,-2 -20,-73 -45,-157 -24,-84 -49,-177 -56,-207 -14,-65 -18,-59 -49,74 -13,55 -33,141 -45,190 l -22,90 56,6 c 76,8 161,10 161,4 z"
       id="path187" />
    <path
       fill="#000000"
       stroke="none"
       d="m 211,1536 c -53,-56 -32,-146 33,-146 55,0 93,55 86,125 -4,48 -81,62 -119,21 z"
       id="path189" />
    <path
       fill="#ffffff"
       stroke="none"
       d="m 297,1504 c 3,-8 1,-26 -5,-40 -9,-18 -19,-24 -42,-24 -26,0 -30,4 -30,28 0,15 5,33 12,40 17,17 58,15 65,-4 z"
       id="path191" />
  </g>
</svg>
