<?xml version="1.0" standalone="no"?>
<!DOCTYPE svg PUBLIC "-//W3C//DTD SVG 20010904//EN"
 "http://www.w3.org/TR/2001/REC-SVG-20010904/DTD/svg10.dtd">
<svg version="1.0" xmlns="http://www.w3.org/2000/svg"
 width="108.203091pt" height="179.841818pt" viewBox="0 0 108.203091 179.841818"
 preserveAspectRatio="xMidYMid meet">
<metadata>
Created by potrace 1.16, written by Peter Selinger 2001-2019
</metadata>
<g transform="translate(-6.990288,188.898747) scale(0.100000,-0.100000)"
fill="#000000" stroke="none">
<path fill="#000000" stroke="none" d="M545 1864 c-48 -18 -81 -48 -105 -94
-61 -119 -12 -261 100 -294 l45 -13 3 -82 3 -81 -113 0 c-62 0 -118 -4 -124
-8 -13 -9 -260 -508 -269 -542 -5 -22 7 -35 95 -109 56 -46 104 -91 106 -100
16 -49 57 -78 138 -95 l52 -11 -42 -140 c-47 -153 -52 -185 -29 -185 9 0 20
19 29 53 8 28 27 95 41 147 15 52 27 102 27 110 0 12 17 15 89 17 74 1 89 -1
89 -14 0 -8 29 -76 65 -150 36 -74 65 -139 65 -143 0 -4 6 -13 14 -19 10 -8
16 -8 24 1 11 14 1 37 -99 240 l-48 96 51 12 c71 15 118 45 125 82 3 16 13 32
22 36 9 3 67 35 129 70 98 55 113 67 109 86 -5 20 -110 259 -180 410 -18 38
-44 89 -59 113 l-28 43 -125 0 -125 0 3 82 2 83 37 6 c52 8 87 35 108 82 28
63 33 109 20 172 -14 65 -64 130 -108 139 -71 14 -100 14 -137 0z"/>
<path fill="#ffffff" stroke="none" d="M711 1804 c39 -37 53 -85 46 -160 -6
-76 -26 -110 -75 -131 -53 -22 -146 -12 -179 19 -67 62 -72 189 -10 257 54 59
164 66 218 15z"/>
<path fill="#ffffff" stroke="none" d="M840 1258 c0 -2 -16 -61 -35 -133 -58
-215 -77 -305 -71 -322 11 -29 23 -1 61 146 20 80 43 160 51 179 8 19 14 47
14 63 0 42 16 35 44 -18 61 -122 196 -434 191 -442 -3 -5 -49 -33 -102 -62
-80 -43 -108 -53 -158 -56 l-62 -4 -28 108 c-15 59 -35 114 -43 121 -25 20
-64 14 -94 -15 l-28 -26 -24 26 c-29 31 -35 32 -81 13 -29 -12 -36 -22 -49
-68 -8 -29 -17 -74 -21 -99 -5 -43 -8 -47 -44 -58 -21 -6 -46 -11 -55 -11 -16
0 -177 124 -184 141 -4 10 219 469 227 469 4 0 19 -51 33 -112 28 -118 60
-240 65 -247 1 -2 9 -1 17 2 16 6 18 -6 -37 207 -19 74 -37 150 -40 168 l-6
32 229 0 c127 0 230 -1 230 -2z"/>
<path fill="#ffffff" stroke="none" d="M542 785 c16 -14 35 -25 42 -25 7 0 23
11 36 25 13 14 33 25 45 25 19 0 25 -10 39 -62 9 -35 18 -76 19 -93 l2 -30
-86 -14 c-110 -17 -199 -3 -199 32 0 56 21 143 37 155 24 17 31 15 65 -13z"/>
<path fill="#ffffff" stroke="none" d="M570 575 c36 0 88 4 116 8 43 7 52 6
57 -8 8 -20 -25 -34 -121 -48 -54 -8 -87 -8 -129 1 -64 13 -79 23 -69 47 5 14
13 16 44 9 20 -5 66 -9 102 -9z"/>
<path fill="#ffffff" stroke="none" d="M392 553 c2 -24 11 -31 53 -45 115 -39
335 -5 335 52 0 24 18 26 46 6 19 -15 19 -15 -1 -35 -31 -30 -119 -52 -235
-58 -119 -6 -205 7 -244 38 -24 19 -25 21 -10 45 22 33 52 32 56 -3z"/>
</g>
</svg>
