<?xml version="1.0" standalone="no"?>
<!DOCTYPE svg PUBLIC "-//W3C//DTD SVG 20010904//EN"
 "http://www.w3.org/TR/2001/REC-SVG-20010904/DTD/svg10.dtd">
<svg version="1.0" xmlns="http://www.w3.org/2000/svg"
 width="137.156546pt" height="189.655135pt" viewBox="0 0 137.156546 189.655135"
 preserveAspectRatio="xMidYMid meet">
<metadata>
Created by potrace 1.16, written by Peter Selinger 2001-2019
</metadata>
<g transform="translate(-17.618685,196.215135) scale(0.100000,-0.100000)"
fill="#000000" stroke="none">
<path fill="#000000" stroke="none" d="M394 1936 c-44 -20 -67 -72 -55 -128
10 -43 49 -88 77 -88 10 0 14 -12 14 -45 l0 -45 -60 0 c-73 0 -80 -9 -80 -114
0 -166 -27 -328 -81 -489 -21 -63 -24 -87 -10 -87 14 0 59 125 86 240 14 58
28 155 31 215 5 81 9 102 15 80 24 -95 73 -296 80 -335 7 -35 4 -72 -16 -170
-46 -236 -54 -305 -60 -540 -5 -182 -10 -243 -22 -273 -12 -27 -13 -41 -5 -49
8 -8 16 -2 30 21 17 28 20 60 26 279 5 194 12 278 32 392 13 80 26 150 28 155
3 6 5 -161 5 -370 1 -389 9 -485 40 -485 11 0 12 9 6 42 -5 24 -9 254 -9 513
l-1 470 42 155 c23 85 44 172 48 194 3 21 10 35 14 30 16 -18 41 -266 41 -409
0 -113 3 -146 13 -143 22 8 21 259 -3 447 -31 242 -24 225 -98 229 l-62 3 0
43 c0 40 2 44 30 49 58 12 88 103 55 167 -28 54 -90 72 -151 46z"/>
<path fill="#ffffff" stroke="none" d="M500 1892 c33 -27 33 -97 0 -124 -29
-23 -81 -19 -111 8 -26 24 -25 88 1 114 25 25 80 26 110 2z"/>
<path fill="#ffffff" stroke="none" d="M546 1572 c-3 -9 -16 -69 -30 -132 -41
-184 -69 -283 -76 -268 -12 23 -100 389 -100 417 0 3 47 5 105 3 94 -3 105 -5
101 -20z"/>
<path fill="#000000" stroke="none" d="M1201 1816 c-72 -40 -66 -172 10 -211
26 -14 30 -21 27 -53 l-3 -37 -63 -3 c-74 -4 -68 4 -148 -176 -63 -143 -63
-149 -1 -179 24 -11 37 -24 37 -37 0 -30 39 -50 97 -50 63 0 63 25 -4 -210
-81 -277 -81 -278 -70 -289 6 -6 34 -11 63 -11 l52 0 6 -83 c17 -256 17 -308
-4 -334 -21 -27 -27 -63 -10 -63 5 0 22 19 36 42 26 40 26 44 20 162 -11 231
-11 271 5 271 11 0 15 -37 19 -205 4 -175 8 -210 23 -233 9 -15 22 -27 28 -27
11 0 10 6 -9 80 -5 19 -10 115 -11 213 l-2 177 50 0 c27 0 53 4 56 10 5 9
-108 480 -120 501 -3 4 12 13 34 19 22 6 53 21 69 34 15 14 55 38 88 53 32 16
58 34 57 39 -3 18 -111 255 -128 280 -16 24 -21 26 -76 22 l-59 -4 0 43 c0 35
3 43 18 43 10 0 31 14 48 31 25 26 29 38 29 85 0 50 -3 59 -33 85 -36 32 -89
38 -131 15z"/>
<path fill="#ffffff" stroke="none" d="M1302 1780 c30 -23 40 -62 26 -102 -19
-53 -82 -65 -123 -23 -41 40 -26 122 25 136 40 11 46 10 72 -11z"/>
<path fill="#ffffff" stroke="none" d="M1350 1466 c0 -7 -4 -26 -9 -42 -5 -16
-15 -50 -22 -76 -12 -41 -16 -47 -35 -42 -12 3 -32 0 -44 -6 -30 -16 -40 -4
-61 77 -9 37 -20 76 -24 86 -7 15 2 17 94 17 78 0 101 -3 101 -14z"/>
<path fill="#ffffff" stroke="none" d="M1147 1383 c19 -63 20 -79 9 -85 -7 -4
-19 -35 -26 -68 -10 -47 -17 -60 -31 -60 -26 0 -89 32 -89 44 0 16 102 246
109 246 3 0 16 -35 28 -77z"/>
<path fill="#ffffff" stroke="none" d="M1451 1329 c23 -55 40 -101 38 -103
-43 -32 -84 -45 -119 -40 -35 6 -41 11 -50 42 -5 21 -6 38 -1 42 5 3 22 47 37
98 33 110 31 110 95 -39z"/>
<path fill="#ffffff" stroke="none" d="M1202 1259 c15 -8 27 -8 44 2 28 14 30
13 39 -23 6 -24 4 -27 -32 -37 -21 -6 -50 -11 -65 -11 -23 0 -28 4 -28 24 0
26 9 56 17 56 2 0 14 -5 25 -11z"/>
<path fill="#ffffff" stroke="none" d="M1293 1169 c-14 -14 -119 -28 -135 -17
-8 5 2 8 27 9 22 1 54 5 70 9 44 11 50 11 38 -1z"/>
<path fill="#ffffff" stroke="none" d="M1344 1145 c-8 -19 -54 -32 -136 -39
-74 -7 -129 7 -110 26 9 9 15 9 24 0 20 -20 137 -15 178 7 44 23 51 24 44 6z"/>
<path fill="#ffffff" stroke="none" d="M1260 1064 c0 -8 25 -114 55 -235 30
-121 53 -225 49 -230 -7 -11 -216 -10 -235 1 -14 9 -7 41 41 200 16 52 39 137
52 188 20 83 38 118 38 76z"/>
</g>
</svg>
