<?xml version="1.0" encoding="UTF-8" standalone="no"?>
<svg
   xmlns:dc="http://purl.org/dc/elements/1.1/"
   xmlns:cc="http://creativecommons.org/ns#"
   xmlns:rdf="http://www.w3.org/1999/02/22-rdf-syntax-ns#"
   xmlns:svg="http://www.w3.org/2000/svg"
   xmlns="http://www.w3.org/2000/svg"
   xmlns:sodipodi="http://sodipodi.sourceforge.net/DTD/sodipodi-0.dtd"
   xmlns:inkscape="http://www.inkscape.org/namespaces/inkscape"
   version="1.0"
   width="159.959830pt"
   height="152.238023pt"
   viewBox="0 0 159.959830 152.238023"
   preserveAspectRatio="xMidYMid meet"
   id="svg32"
   sodipodi:docname="100-prep.svg"
   inkscape:version="1.0.2 (e86c870879, 2021-01-15)">
  <defs
     id="defs36" />
  <sodipodi:namedview
     pagecolor="#ffffff"
     bordercolor="#666666"
     borderopacity="1"
     objecttolerance="10"
     gridtolerance="10"
     guidetolerance="10"
     inkscape:pageopacity="0"
     inkscape:pageshadow="2"
     inkscape:window-width="1600"
     inkscape:window-height="836"
     id="namedview34"
     showgrid="false"
     inkscape:zoom="1.5124343"
     inkscape:cx="-16.375489"
     inkscape:cy="115.75672"
     inkscape:window-x="0"
     inkscape:window-y="0"
     inkscape:window-maximized="1"
     inkscape:current-layer="svg32"
     inkscape:document-rotation="0" />
  <metadata
     id="metadata2">
Created by potrace 1.16, written by Peter Selinger 2001-2019
<rdf:RDF>
  <cc:Work
     rdf:about="">
    <dc:format>image/svg+xml</dc:format>
    <dc:type
       rdf:resource="http://purl.org/dc/dcmitype/StillImage" />
    <dc:title></dc:title>
  </cc:Work>
</rdf:RDF>
</metadata>
  <path
     fill="#000000"
     stroke="none"
     d="m 353.29159,-18.97409 c -3.6,1.4 -4.9,4 -4.9,9.5999997 -0.1,6 1.4,8.2 6.7,9.99999998 2.6,0.79999962 3.3,1.69999962 3.5,4.09999962 0.3,3 0.1,3.2 -5.2,4.7 -5.4,1.5999997 -5.4,1.5999997 -9.6,9.8999997 -2.3,4.5 -4.7,8.7 -5.4,9.4 -0.6,0.6 -2.9,1.2 -5.1,1.3 -6.70001,0.3 -6.70001,0.2 -4.30001,-3 1.9,-2.7 2,-3.2 0.7,-4.5 -0.8,-0.8 -2.5,-1.6 -3.9,-1.8 -1.5,-0.2 -3,-1.6 -4,-3.5 -0.8,-1.7 -2.6,-3.7 -3.9,-4.4 -2.1,-1.1 -2.5,-1 -3.8,0.9 -1.2,1.7 -1.9,2 -3.8,1.3 -3.5,-1.3 -5.8,1.7 -4.9,6.5 0.6,3.2 0.3,4 -2.5,6.7 -6,5.8 -2.6,8.9 7.6,6.9 7.6,-1.4 12.4,-1.9 13.7,-1.2 0.5,0.2 4.1,0.3 8,0.2 8.30001,-0.2 9.50001,-1.2 14.20001,-11.7 1.6,-3.5 3.1,-6.4 3.4,-6.4 0.3,0 1.8,2.6 3.3,5.8 1.6,3.1 4.7,8.7 6.9,12.4 2.2,3.7 3.7,7.2 3.4,7.7 -1,1.5 -11.6,43.999998 -11.6,46.199998 0,1.2 0.7,1.9 1.9,1.9 1.8,0 1.8,0.2 0,10.699993 -3,17.3 -4,21.1 -6.6,23.4 -4.1,3.9 -2.3,6.7 2.3,3.4 2.9,-2 3.9,-5 6.9,-21 1.4,-7.699996 3,-14.999996 3.5,-16.099993 0.6,-1.6 2.5,-2.5 7.7,-3.7 3.7,-0.8 7.1,-1.3 7.4,-1.1 0.6,0.4 2.7,7.799997 5.9,21.599993 1.1,4.8 3,10.9 4.1,13.5 1.2,2.6 2.5,5.8 3,7 0.5,1.5 1.4,2.1 2.4,1.7 1.8,-0.7 1.9,-2.1 0.2,-5.4 -2.9,-5.5 -10.7,-33.299993 -10.7,-37.899993 0,-1.4 0.9,-2.1 3.1,-2.6 1.7,-0.4 3.3,-1.3 3.5,-2 0.3,-0.7 -3.2,-8.799998 -7.6,-17.999998 -9.1,-18.7 -11,-23.5 -10.5,-26.2 0.2,-1 1.1,-6.5 2,-12.3 0.9,-5.8 2,-10.9 2.4,-11.3 0.4,-0.4 2.4,3.2 4.4,8 4.5,10.8 7.6,22.8 8.6,33.5 0.1,1.2 2.9,1 3.6,-0.2 0.3,-0.6 0.2,-2.5 -0.4,-4.3 -0.5,-1.7 -1.7,-6.8 -2.6,-11.2 -1.5,-7.2 -4.8,-17.4 -6.6,-20 -0.3,-0.6 -1.4,-3.3 -2.3,-6.2 -2.2,-6.7999997 -3.5,-7.6999997 -9.5,-6.9999997 -3.9,0.5 -5.1,0.3 -5.5,-0.9 -1.1,-2.8 -0.6,-4.59999962 1.9,-7.5999996 3.9,-4.6 3.2,-12.9999997 -1.4,-16.4999997 -1.8,-1.4 -6.6,-1.6 -9.6,-0.3 z"
     id="path4"
     style="stroke-width:0.1" />
  <path
     fill="#ffffff"
     stroke="none"
     d="m 142.39963,85.11041 c 4,8.5 7.2,15.5 7.2,15.7 0,0.1 -3.3,1 -7.2,1.9 -4,1 -10.1,2.4 -13.5,3.2 -3.4,0.7 -6.4,1.4 -6.7,1.4 -0.2,0 0.2,-2.1 1,-4.7 1.2,-4 6.8,-25.9 9,-35.2 l 0.5,-2.4 1.3,2.4 c 0.6,1.3 4.4,9.3 8.4,17.7 z"
     id="path16"
     style="stroke-width:0.1" />
  <g
     id="g595"
     transform="translate(20.505799,3.8257087)">
    <path
       fill="#000000"
       stroke="none"
       d="m 38.199626,61.91041 c -0.9,0.8 -1.9,2.7 -2.2,4 -0.6,2.4 -0.9,2.5 -8.7,2.2 l -8,-0.2 -3.9,4.5 c -2.2,2.4 -6.2,7.3 -8.9,10.9 l -5.1,6.5 0.6,28 c 0.3,15.4 0.5,28.1 0.6,28.2 0,0.2 0.7,0.3 1.5,0.3 2.6,0 3,-2.7 2.3,-15.2 -0.3,-6.8 -0.7,-18 -0.7,-25 l -0.1,-12.8 6.3,0.3 6.2,0.2 0.6,6.5 c 0.4,3.6 0.7,12.3 0.8,19.5 0.1,7.3 0.6,13.4 1.2,14 1.4,1.4 4,-2.2 3.4,-4.9 -0.2,-1.2 -0.6,-9.4 -0.9,-18.2 l -0.5,-16.2 3.7,-0.5 c 4.9,-0.6 41.2,0 42,0.7 0.7,0.8 1,7 1.1,23.6 0.1,14.2 0.9,17.7 3.4,15 1.1,-1.2 1.3,-4.9 0.7,-20 -0.4,-10.2 -0.6,-18.7 -0.4,-18.9 0.2,-0.2 3.9,-0.5 8.4,-0.7 5.8,-0.3 8.2,0 8.5,0.9 0.2,0.6 0.8,12.2 1.2,25.7 0.7,20.8 1,24.5 2.3,24.5 1.3,0 1.5,-3.5 1.2,-27 l -0.4,-27 -6.6,-6.4 c -3.7,-3.6 -9.1,-8.6 -12.1,-11.3 -5.4,-4.8 -5.4,-4.8 -12.7,-4.8 h -7.2 l -1.2,-3.5 c -1.3,-4.1 -4.4,-5.4 -7,-3 -1.7,1.6 -2.1,1.6 -4.2,0.1 -2.8,-2 -3.3,-2 -5.2,0 z"
       id="path18"
       style="stroke-width:0.1" />
    <path
       fill="#ffffff"
       stroke="none"
       d="m 50.999626,66.91041 c 0.3,0.9 0.6,2.4 0.6,3.5 0,1.8 -0.6,2 -5.7,1.7 -5.5,-0.3 -5.8,-0.4 -6.1,-3.1 -0.4,-2.9 0.7,-3.4 3.8,-1.5 1.6,1 2.3,1 3.7,-0.5 2.1,-2.1 2.9,-2.1 3.7,-0.1 z"
       id="path20"
       style="stroke-width:0.1" />
    <path
       fill="#ffffff"
       stroke="none"
       d="m 32.599626,73.31041 c 1,0.6 1.1,1 0.3,1 -0.7,0 -2,1.1 -2.8,2.4 -1.3,1.9 -1.3,2.8 -0.4,4.9 1.5,3.4 4.9,4.7 13.9,5.2 16,0.9 24.1,-5.2 15.8,-12 l -3.3,-2.6 6.6,0.3 6.6,0.4 8.7,7.8 c 4.8,4.4 8.5,8.1 8.3,8.3 -0.7,0.6 -65.6,0.9 -72.6,0.3 l -6.4,-0.5 4.3,-5.5 c 8.2,-10.5 8.8,-11 14.4,-11 2.8,0 5.8,0.5 6.6,1 z"
       id="path22"
       style="stroke-width:0.1" />
    <path
       fill="#ffffff"
       stroke="none"
       d="m 43.899626,77.01041 c -0.7,0.2 -2.1,0.2 -3,0 -1,-0.3 -0.4,-0.5 1.2,-0.5 1.7,0 2.4,0.2 1.8,0.5 z"
       id="path24"
       style="stroke-width:0.1" />
    <path
       fill="#ffffff"
       stroke="none"
       d="m 51.499626,76.71041 c -1.2,1 -5.9,1.5 -5.9,0.6 0,-0.5 1.4,-1 3.2,-1 1.7,0 2.9,0.2 2.7,0.4 z"
       id="path26"
       style="stroke-width:0.1" />
    <path
       fill="#ffffff"
       stroke="none"
       d="m 58.599626,79.81041 c 0,1.9 -6.2,3.5 -13.6,3.5 -7,0 -12.4,-1.6 -12.4,-3.6 0,-1.7 0,-1.7 4.3,0.1 4.9,2 12.4,1.9 16.7,-0.3 3.8,-2 5,-1.9 5,0.3 z"
       id="path28"
       style="stroke-width:0.1" />
  </g>
  <g
     id="g361"
     transform="translate(-174.55707,103.76788)">
    <path
       fill="#000000"
       stroke="none"
       d="m 21.3,56.437832 -6.8,0.3 -3.7,5.4 c -2.1,3 -5.4,8 -7.3,11.1 l -3.5,5.8 0.3,24.499998 c 0.4,23.7 1,28.7 3.4,26.3 0.5,-0.5 1,-11.5 1.1,-24.3 L 5,82.137832 l 4.3,-0.3 4.2,-0.3 v 18.499998 c 0,18.7 0.5,21.1 3.6,18.5 1.2,-1 1.4,-4 0.9,-18.899998 l -0.5,-17.8 4.2,-0.4 c 2.4,-0.3 10.9,-0.6 18.9,-0.7 l 14.6,-0.1 0.6,4.7 c 0.3,2.7 0.6,11.1 0.7,18.799998 0,7.7 0.4,14.3 0.8,14.7 0.5,0.5 1.5,0.2 2.3,-0.4 1.3,-1.1 1.4,-3.9 1,-18.599998 -0.3,-9.5 -0.4,-17.7 -0.3,-18.2 0.2,-0.6 2.6,-1 5.3,-1 h 4.9 l 0.1,18.7 c 0.1,10.399998 0.1,21.099998 0,23.799998 0,5.8 1,8.1 3.3,7.2 1.4,-0.6 1.5,-3.3 1,-26.4 l -0.6,-25.799998 -7,-10.5 c -3.9,-5.8 -7.6,-10.8 -8.2,-11.3 -1,-0.7 -21.2,-0.6 -37.8,0.1 z"
       id="path18-6"
       style="stroke-width:0.1" />
    <path
       fill="#ffffff"
       stroke="none"
       d="m 57.3,60.937832 c 1.7,1.3 10.5,14.7 10,15.1 -0.1,0.2 -13.9,0.6 -30.6,0.9 -25.7,0.5 -30.3,0.3 -29.8,-0.8 0.3,-0.8 2.6,-4.6 5.1,-8.4 l 4.6,-7 12.7,-0.3 c 7,-0.2 15.9,-0.4 19.7,-0.5 3.9,0 7.6,0.4 8.3,1 z"
       id="path20-2"
       style="stroke-width:0.1" />
    <g
       id="g345"
       transform="translate(-13.192631,-17.499909)">
      <g
         transform="matrix(0.05383896,0,0,-0.05383896,78.644766,118.42104)"
         fill="#000000"
         stroke="none"
         id="g211">
        <path
           fill="#000000"
           stroke="none"
           d="m 545,1864 c -48,-18 -81,-48 -105,-94 -61,-119 -12,-261 100,-294 l 45,-13 3,-82 3,-81 H 478 c -62,0 -118,-4 -124,-8 -13,-9 -260,-508 -269,-542 -5,-22 7,-35 95,-109 56,-46 104,-91 106,-100 16,-49 57,-78 138,-95 L 476,435 434,295 C 387,142 382,110 405,110 c 9,0 20,19 29,53 8,28 27,95 41,147 15,52 27,102 27,110 0,12 17,15 89,17 74,1 89,-1 89,-14 0,-8 29,-76 65,-150 36,-74 65,-139 65,-143 0,-4 6,-13 14,-19 10,-8 16,-8 24,1 11,14 1,37 -99,240 l -48,96 51,12 c 71,15 118,45 125,82 3,16 13,32 22,36 9,3 67,35 129,70 98,55 113,67 109,86 -5,20 -110,259 -180,410 -18,38 -44,89 -59,113 l -28,43 H 745 620 l 3,82 2,83 37,6 c 52,8 87,35 108,82 28,63 33,109 20,172 -14,65 -64,130 -108,139 -71,14 -100,14 -137,0 z"
           id="path199" />
        <path
           fill="#ffffff"
           stroke="none"
           d="m 711,1804 c 39,-37 53,-85 46,-160 -6,-76 -26,-110 -75,-131 -53,-22 -146,-12 -179,19 -67,62 -72,189 -10,257 54,59 164,66 218,15 z"
           id="path201" />
        <path
           fill="#ffffff"
           stroke="none"
           d="m 840,1258 c 0,-2 -16,-61 -35,-133 -58,-215 -77,-305 -71,-322 11,-29 23,-1 61,146 20,80 43,160 51,179 8,19 14,47 14,63 0,42 16,35 44,-18 61,-122 196,-434 191,-442 -3,-5 -49,-33 -102,-62 -80,-43 -108,-53 -158,-56 l -62,-4 -28,108 c -15,59 -35,114 -43,121 -25,20 -64,14 -94,-15 l -28,-26 -24,26 c -29,31 -35,32 -81,13 -29,-12 -36,-22 -49,-68 -8,-29 -17,-74 -21,-99 -5,-43 -8,-47 -44,-58 -21,-6 -46,-11 -55,-11 -16,0 -177,124 -184,141 -4,10 219,469 227,469 4,0 19,-51 33,-112 28,-118 60,-240 65,-247 1,-2 9,-1 17,2 16,6 18,-6 -37,207 -19,74 -37,150 -40,168 l -6,32 h 229 c 127,0 230,-1 230,-2 z"
           id="path203" />
        <path
           fill="#ffffff"
           stroke="none"
           d="m 542,785 c 16,-14 35,-25 42,-25 7,0 23,11 36,25 13,14 33,25 45,25 19,0 25,-10 39,-62 9,-35 18,-76 19,-93 l 2,-30 -86,-14 c -110,-17 -199,-3 -199,32 0,56 21,143 37,155 24,17 31,15 65,-13 z"
           id="path205" />
        <path
           fill="#ffffff"
           stroke="none"
           d="m 570,575 c 36,0 88,4 116,8 43,7 52,6 57,-8 8,-20 -25,-34 -121,-48 -54,-8 -87,-8 -129,1 -64,13 -79,23 -69,47 5,14 13,16 44,9 20,-5 66,-9 102,-9 z"
           id="path207" />
        <path
           fill="#ffffff"
           stroke="none"
           d="m 392,553 c 2,-24 11,-31 53,-45 115,-39 335,-5 335,52 0,24 18,26 46,6 19,-15 19,-15 -1,-35 -31,-30 -119,-52 -235,-58 -119,-6 -205,7 -244,38 -24,19 -25,21 -10,45 22,33 52,32 56,-3 z"
           id="path209" />
      </g>
      <path
         fill="#000000"
         stroke="none"
         d="m 100.48197,110.65259 c 2.61761,0.65068 5.76261,-1.41523 5.39599,-0.23388 -0.26717,0.86088 0.56765,5.02082 0.29729,10.24634 -0.27161,5.24958 -0.54717,9.6797 -1.27628,16.35003 -0.23589,2.15801 -0.007,3.04156 1.18549,0.67771 1.19277,-2.36385 0.67096,-12.27207 1.60118,-18.15957 0.24721,-9.27159 0.42201,-10.44703 0.52201,-10.54703 0.2,-0.1 -0.24696,0.0224 3.65304,-0.37755 4.25,-0.35 2.50983,-0.14389 2.50983,-0.14389 0.86009,0.37827 1.09951,-0.10703 1.96768,0.30377 1.16181,0.54974 0.51112,4.81255 0.56109,6.33507 0.0635,1.93591 -0.93638,5.96372 -0.73638,7.90122 -0.1189,6.33524 -0.36593,11.83753 -0.17846,13.49004 0.18747,1.65251 0.32598,1.77351 0.75283,2.08789 0.42685,0.31438 0.26914,-0.13037 0.69925,-1.92015 0.43012,-1.78977 0.24126,-5.20262 0.64989,-10.8791 -0.25,-1.1 -0.01,-7.26915 0.0169,-9.40785 0.0258,-2.0817 -0.0202,-6.0837 -0.17024,-7.9837 l 3.31312,0.16953 2.71194,0.9995 c -2.81481,-4.94942 -25.175614,0.39429 -23.4762,1.09162 z"
         id="path226"
         style="stroke-width:0.1"
         sodipodi:nodetypes="csssscccssscssscscccc" />
    </g>
  </g>
  <g
     id="g489"
     transform="translate(194.41186,-152.81333)">
    <g
       transform="matrix(0.1,0,0,-0.1,-4.400374,162.31041)"
       fill="#000000"
       stroke="none"
       id="g451">
      <path
         fill="#000000"
         stroke="none"
         d="m 1245,1600 c -36,-14 -49,-40 -49,-96 -1,-60 14,-82 67,-100 26,-8 33,-17 35,-41 3,-30 1,-32 -52,-47 -54,-16 -54,-16 -96,-99 -23,-45 -47,-87 -54,-94 -6,-6 -29,-12 -51,-13 -67,-3 -67,-2 -43,30 19,27 20,32 7,45 -8,8 -25,16 -39,18 -15,2 -30,16 -40,35 -8,17 -26,37 -39,44 -21,11 -25,10 -38,-9 -12,-17 -19,-20 -38,-13 -35,13 -58,-17 -49,-65 6,-32 3,-40 -25,-67 -60,-58 -26,-89 76,-69 76,14 124,19 137,12 5,-2 41,-3 80,-2 83,2 95,12 142,117 16,35 31,64 34,64 3,0 18,-26 33,-58 16,-31 47,-87 69,-124 22,-37 37,-72 34,-77 -10,-15 -116,-440 -116,-462 0,-12 7,-19 19,-19 18,0 18,-2 0,-107 -30,-173 -40,-211 -66,-234 -41,-39 -23,-67 23,-34 29,20 39,50 69,210 14,77 30,150 35,161 6,16 25,25 77,37 37,8 71,13 74,11 6,-4 27,-78 59,-216 11,-48 30,-109 41,-135 12,-26 25,-58 30,-70 5,-15 14,-21 24,-17 18,7 19,21 2,54 -29,55 -107,333 -107,379 0,14 9,21 31,26 17,4 33,13 35,20 3,7 -32,88 -76,180 -91,187 -110,235 -105,262 2,10 11,65 20,123 9,58 20,109 24,113 4,4 24,-32 44,-80 45,-108 76,-228 86,-335 1,-12 29,-10 36,2 3,6 2,25 -4,43 -5,17 -17,68 -26,112 -15,72 -48,174 -66,200 -3,6 -14,33 -23,62 -22,68 -35,77 -95,70 -39,-5 -51,-3 -55,9 -11,28 -6,46 19,76 39,46 32,130 -14,165 -18,14 -66,16 -96,3 z"
         id="path425" />
      <path
         fill="#ffffff"
         stroke="none"
         d="m 1318,1554 c 19,-13 22,-24 20,-56 -3,-47 -23,-64 -62,-54 -51,13 -61,97 -13,116 30,12 30,12 55,-6 z"
         id="path427" />
      <path
         fill="#ffffff"
         stroke="none"
         d="m 1387,1190 c -11,-66 -23,-120 -26,-120 -13,0 -116,198 -108,207 7,6 110,30 138,32 14,1 14,-11 -4,-119 z"
         id="path429" />
      <path
         fill="#ffffff"
         stroke="none"
         d="m 898,1248 c 21,-21 13,-35 -28,-52 -62,-25 -80,-22 -80,15 0,28 2,30 30,26 18,-3 34,0 41,9 14,17 21,18 37,2 z"
         id="path431" />
      <path
         fill="#ffffff"
         stroke="none"
         d="m 925,1160 c -17,-19 -100,-44 -120,-36 -29,11 -15,23 53,48 68,26 96,21 67,-12 z"
         id="path433" />
      <path
         fill="#ffffff"
         stroke="none"
         d="m 990,1168 c 0,-22 -13,-35 -58,-57 -51,-26 -145,-45 -179,-37 -20,6 -22,10 -13,26 11,21 40,27 40,9 0,-29 153,21 173,57 10,17 37,18 37,2 z"
         id="path435" />
      <path
         fill="#ffffff"
         stroke="none"
         d="m 1468,772 c 40,-85 72,-155 72,-157 0,-1 -33,-10 -72,-19 -40,-10 -101,-24 -135,-32 -34,-7 -64,-14 -67,-14 -2,0 2,21 10,47 12,40 68,259 90,352 l 5,24 13,-24 c 6,-13 44,-93 84,-177 z"
         id="path437" />
      <path
         fill="#000000"
         stroke="none"
         d="m 426,1004 c -9,-8 -19,-27 -22,-40 -6,-24 -9,-25 -87,-22 l -80,2 -39,-45 C 176,875 136,826 109,790 L 58,725 64,445 c 3,-154 5,-281 6,-282 0,-2 7,-3 15,-3 26,0 30,27 23,152 -3,68 -7,180 -7,250 l -1,128 63,-3 62,-2 6,-65 c 4,-36 7,-123 8,-195 1,-73 6,-134 12,-140 14,-14 40,22 34,49 -2,12 -6,94 -9,182 l -5,162 37,5 c 49,6 412,0 420,-7 7,-8 10,-70 11,-236 1,-142 9,-177 34,-150 11,12 13,49 7,200 -4,102 -6,187 -4,189 2,2 39,5 84,7 58,3 82,0 85,-9 2,-6 8,-122 12,-257 7,-208 10,-245 23,-245 13,0 15,35 12,270 l -4,270 -66,64 c -37,36 -91,86 -121,113 -54,48 -54,48 -127,48 h -72 l -12,35 c -13,41 -44,54 -70,30 -17,-16 -21,-16 -42,-1 -28,20 -33,20 -52,0 z"
         id="path439" />
      <path
         fill="#ffffff"
         stroke="none"
         d="m 554,954 c 3,-9 6,-24 6,-35 0,-18 -6,-20 -57,-17 -55,3 -58,4 -61,31 -4,29 7,34 38,15 16,-10 23,-10 37,5 21,21 29,21 37,1 z"
         id="path441" />
      <path
         fill="#ffffff"
         stroke="none"
         d="m 370,890 c 10,-6 11,-10 3,-10 -7,0 -20,-11 -28,-24 -13,-19 -13,-28 -4,-49 15,-34 49,-47 139,-52 160,-9 241,52 158,120 l -33,26 66,-3 66,-4 87,-78 c 48,-44 85,-81 83,-83 -7,-6 -656,-9 -726,-3 l -64,5 43,55 c 82,105 88,110 144,110 28,0 58,-5 66,-10 z"
         id="path443" />
      <path
         fill="#ffffff"
         stroke="none"
         d="m 483,853 c -7,-2 -21,-2 -30,0 -10,3 -4,5 12,5 17,0 24,-2 18,-5 z"
         id="path445" />
      <path
         fill="#ffffff"
         stroke="none"
         d="m 559,856 c -12,-10 -59,-15 -59,-6 0,5 14,10 32,10 17,0 29,-2 27,-4 z"
         id="path447" />
      <path
         fill="#ffffff"
         stroke="none"
         d="m 630,825 c 0,-19 -62,-35 -136,-35 -70,0 -124,16 -124,36 0,17 0,17 43,-1 49,-20 124,-19 167,3 38,20 50,19 50,-3 z"
         id="path449" />
    </g>
    <rect
       style="fill:#f9f9f9;stroke-width:0.75"
       id="rect453"
       width="1.8189067"
       height="28.441965"
       x="70.4589"
       y="30.204695" />
    <rect
       style="fill:#f9f9f9;stroke-width:0.690557"
       id="rect455"
       width="1.8189067"
       height="24.112167"
       x="74.839577"
       y="34.439575" />
    <rect
       style="fill:#f9f9f9;stroke-width:0.68486"
       id="rect457"
       width="1.8189067"
       height="23.715939"
       x="79.141808"
       y="32.441589" />
    <rect
       style="fill:#f9f9f9;stroke-width:0.456272"
       id="rect459"
       width="1.8189067"
       height="10.526523"
       x="93.615578"
       y="39.351032" />
    <rect
       style="fill:#f9f9f9;stroke-width:0.515485"
       id="rect461"
       width="1.8189067"
       height="13.435998"
       x="89.792778"
       y="37.629948" />
    <rect
       style="fill:#f9f9f9;stroke-width:0.673536"
       id="rect463"
       width="1.8189067"
       height="22.938196"
       x="86.280716"
       y="32.874409" />
    <rect
       style="fill:#f9f9f9;stroke-width:0.667603"
       id="rect465"
       width="1.8189067"
       height="22.535843"
       x="82.444427"
       y="33.353371" />
    <rect
       style="fill:#f9f9f9;stroke-width:0.413535"
       id="rect467"
       width="1.8189067"
       height="8.6469345"
       x="67.600838"
       y="49.683453" />
    <rect
       style="fill:#f9f9f9;stroke-width:0.358355"
       id="rect469"
       width="1.8185854"
       height="6.4944472"
       x="35.494244"
       y="-78.045204"
       transform="matrix(-0.0213692,0.99977165,-0.99928204,-0.03788676,0,0)" />
    <rect
       style="fill:#f9f9f9;stroke-width:0.358355"
       id="rect471"
       width="1.8185854"
       height="6.4944472"
       x="38.228558"
       y="-77.563965"
       transform="matrix(-0.0213692,0.99977165,-0.99928204,-0.03788676,0,0)" />
    <rect
       style="fill:#f9f9f9;stroke-width:0.358355"
       id="rect473"
       width="1.8185854"
       height="6.4944472"
       x="41.322632"
       y="-77.449883"
       transform="matrix(-0.0213692,0.99977165,-0.99928204,-0.03788676,0,0)" />
    <rect
       style="fill:#f9f9f9;stroke-width:0.452881"
       id="rect475"
       width="0.83124179"
       height="22.692938"
       x="36.914898"
       y="-97.370049"
       transform="matrix(-0.16347445,0.98654757,-0.99998804,-0.00489046,0,0)" />
    <rect
       style="fill:#f9f9f9;stroke-width:0.61765"
       id="rect477"
       width="1.8218232"
       height="19.25872"
       x="48.426083"
       y="-89.568275"
       transform="matrix(-0.06329617,0.99799479,-0.99991838,-0.01277622,0,0)" />
    <rect
       style="fill:#f9f9f9;stroke-width:0.61765"
       id="rect479"
       width="1.8218232"
       height="19.25872"
       x="48.426083"
       y="-89.568275"
       transform="matrix(-0.06329617,0.99799479,-0.99991838,-0.01277622,0,0)" />
    <rect
       style="fill:#f9f9f9;stroke-width:0.335839"
       id="rect481"
       width="0.82352084"
       height="12.596129"
       x="34.070312"
       y="-92.254341"
       transform="matrix(-0.09158775,0.99579701,-0.99996119,-0.00881056,0,0)" />
    <rect
       style="fill:#f9f9f9;stroke-width:0.335839"
       id="rect483"
       width="0.82352084"
       height="12.596129"
       x="40.182056"
       y="-98.619537"
       transform="matrix(-0.09158775,0.99579701,-0.99996119,-0.00881056,0,0)" />
    <rect
       style="fill:#f9f9f9;stroke-width:0.335839"
       id="rect485"
       width="0.82352084"
       height="12.596129"
       x="44.682655"
       y="-103.59685"
       transform="matrix(-0.09158775,0.99579701,-0.99996119,-0.00881056,0,0)" />
    <rect
       style="fill:#f9f9f9;stroke-width:0.335839"
       id="rect487"
       width="0.82352084"
       height="12.596129"
       x="46.624813"
       y="-86.267403"
       transform="matrix(-0.09158775,0.99579701,-0.99996119,-0.00881056,0,0)" />
  </g>
  <path
     fill="#000000"
     stroke="none"
     d="m 83.789946,193.15114 -6.8,0.3 -3.7,5.4 c -2.1,3 -5.4,8 -7.3,11.1 l -3.5,5.8 0.3,24.5 c 0.4,23.7 1,28.7 3.4,26.3 0.5,-0.5 1,-11.5 1.1,-24.3 l 0.2,-23.4 4.3,-0.3 4.2,-0.3 v 18.5 c 0,18.7 0.5,21.1 3.6,18.5 1.2,-1 1.4,-4 0.9,-18.9 l -0.5,-17.8 4.2,-0.4 c 2.4,-0.3 10.9,-0.6 18.900004,-0.7 l 14.6,-0.1 0.6,4.7 c 0.3,2.7 0.6,11.1 0.7,18.8 0,7.7 0.4,14.3 0.8,14.7 0.5,0.5 1.5,0.2 2.3,-0.4 1.3,-1.1 1.4,-3.9 1,-18.6 -0.3,-9.5 -0.4,-17.7 -0.3,-18.2 0.2,-0.6 2.6,-1 5.3,-1 h 4.9 l 0.1,18.7 c 0.1,10.4 0.1,21.1 0,23.8 0,5.8 1,8.1 3.3,7.2 1.4,-0.6 1.5,-3.3 1,-26.4 l -0.6,-25.8 -7,-10.5 c -3.9,-5.8 -7.6,-10.8 -8.2,-11.3 -1,-0.7 -21.2,-0.6 -37.800004,0.1 z"
     id="path536"
     style="stroke-width:0.1" />
  <path
     fill="#ffffff"
     stroke="none"
     d="m 119.78995,197.65114 c 1.7,1.3 10.5,14.7 10,15.1 -0.1,0.2 -13.9,0.6 -30.600004,0.9 -25.7,0.5 -30.3,0.3 -29.8,-0.8 0.3,-0.8 2.6,-4.6 5.1,-8.4 l 4.6,-7 12.7,-0.3 c 7,-0.2 15.900004,-0.4 19.700004,-0.5 3.9,0 7.6,0.4 8.3,1 z"
     id="path538"
     style="stroke-width:0.1" />
  <g
     id="g556"
     transform="translate(106.17737,122.34564)">
    <g
       transform="matrix(0.05383896,0,0,-0.05383896,78.644766,118.42104)"
       fill="#000000"
       stroke="none"
       id="g552">
      <path
         fill="#000000"
         stroke="none"
         d="m 545,1864 c -48,-18 -81,-48 -105,-94 -61,-119 -12,-261 100,-294 l 45,-13 3,-82 3,-81 H 478 c -62,0 -118,-4 -124,-8 -13,-9 -260,-508 -269,-542 -5,-22 7,-35 95,-109 56,-46 104,-91 106,-100 16,-49 57,-78 138,-95 L 476,435 434,295 C 387,142 382,110 405,110 c 9,0 20,19 29,53 8,28 27,95 41,147 15,52 27,102 27,110 0,12 17,15 89,17 74,1 89,-1 89,-14 0,-8 29,-76 65,-150 36,-74 65,-139 65,-143 0,-4 6,-13 14,-19 10,-8 16,-8 24,1 11,14 1,37 -99,240 l -48,96 51,12 c 71,15 118,45 125,82 3,16 13,32 22,36 9,3 67,35 129,70 98,55 113,67 109,86 -5,20 -110,259 -180,410 -18,38 -44,89 -59,113 l -28,43 H 745 620 l 3,82 2,83 37,6 c 52,8 87,35 108,82 28,63 33,109 20,172 -14,65 -64,130 -108,139 -71,14 -100,14 -137,0 z"
         id="path540" />
      <path
         fill="#ffffff"
         stroke="none"
         d="m 711,1804 c 39,-37 53,-85 46,-160 -6,-76 -26,-110 -75,-131 -53,-22 -146,-12 -179,19 -67,62 -72,189 -10,257 54,59 164,66 218,15 z"
         id="path542" />
      <path
         fill="#ffffff"
         stroke="none"
         d="m 840,1258 c 0,-2 -16,-61 -35,-133 -58,-215 -77,-305 -71,-322 11,-29 23,-1 61,146 20,80 43,160 51,179 8,19 14,47 14,63 0,42 16,35 44,-18 61,-122 196,-434 191,-442 -3,-5 -49,-33 -102,-62 -80,-43 -108,-53 -158,-56 l -62,-4 -28,108 c -15,59 -35,114 -43,121 -25,20 -64,14 -94,-15 l -28,-26 -24,26 c -29,31 -35,32 -81,13 -29,-12 -36,-22 -49,-68 -8,-29 -17,-74 -21,-99 -5,-43 -8,-47 -44,-58 -21,-6 -46,-11 -55,-11 -16,0 -177,124 -184,141 -4,10 219,469 227,469 4,0 19,-51 33,-112 28,-118 60,-240 65,-247 1,-2 9,-1 17,2 16,6 18,-6 -37,207 -19,74 -37,150 -40,168 l -6,32 h 229 c 127,0 230,-1 230,-2 z"
         id="path544" />
      <path
         fill="#ffffff"
         stroke="none"
         d="m 542,785 c 16,-14 35,-25 42,-25 7,0 23,11 36,25 13,14 33,25 45,25 19,0 25,-10 39,-62 9,-35 18,-76 19,-93 l 2,-30 -86,-14 c -110,-17 -199,-3 -199,32 0,56 21,143 37,155 24,17 31,15 65,-13 z"
         id="path546" />
      <path
         fill="#ffffff"
         stroke="none"
         d="m 570,575 c 36,0 88,4 116,8 43,7 52,6 57,-8 8,-20 -25,-34 -121,-48 -54,-8 -87,-8 -129,1 -64,13 -79,23 -69,47 5,14 13,16 44,9 20,-5 66,-9 102,-9 z"
         id="path548" />
      <path
         fill="#ffffff"
         stroke="none"
         d="m 392,553 c 2,-24 11,-31 53,-45 115,-39 335,-5 335,52 0,24 18,26 46,6 19,-15 19,-15 -1,-35 -31,-30 -119,-52 -235,-58 -119,-6 -205,7 -244,38 -24,19 -25,21 -10,45 22,33 52,32 56,-3 z"
         id="path550" />
    </g>
    <path
       fill="#000000"
       stroke="none"
       d="m 100.48197,110.65259 c 2.61761,0.65068 5.76261,-1.41523 5.39599,-0.23388 -0.26717,0.86088 0.56765,5.02082 0.29729,10.24634 -0.27161,5.24958 -0.54717,9.6797 -1.27628,16.35003 -0.23589,2.15801 -0.007,3.04156 1.18549,0.67771 1.19277,-2.36385 0.67096,-12.27207 1.60118,-18.15957 0.24721,-9.27159 0.42201,-10.44703 0.52201,-10.54703 0.2,-0.1 -0.24696,0.0224 3.65304,-0.37755 4.25,-0.35 2.50983,-0.14389 2.50983,-0.14389 0.86009,0.37827 1.09951,-0.10703 1.96768,0.30377 1.16181,0.54974 0.51112,4.81255 0.56109,6.33507 0.0635,1.93591 -0.93638,5.96372 -0.73638,7.90122 -0.1189,6.33524 -0.36593,11.83753 -0.17846,13.49004 0.18747,1.65251 0.32598,1.77351 0.75283,2.08789 0.42685,0.31438 0.26914,-0.13037 0.69925,-1.92015 0.43012,-1.78977 0.24126,-5.20262 0.64989,-10.8791 -0.25,-1.1 -0.01,-7.26915 0.0169,-9.40785 0.0258,-2.0817 -0.0202,-6.0837 -0.17024,-7.9837 l 3.31312,0.16953 2.71194,0.9995 c -2.81481,-4.94942 -25.175614,0.39429 -23.4762,1.09162 z"
       id="path554"
       style="stroke-width:0.1"
       sodipodi:nodetypes="csssscccssscssscscccc" />
  </g>
  <g
     id="g587"
     transform="translate(22.137348,-0.52270336)">
    <g
       transform="matrix(0.05383896,0,0,-0.05383896,78.644766,118.42104)"
       fill="#000000"
       stroke="none"
       id="g583">
      <path
         fill="#000000"
         stroke="none"
         d="m 545,1864 c -48,-18 -81,-48 -105,-94 -61,-119 -12,-261 100,-294 l 45,-13 3,-82 3,-81 H 478 c -62,0 -118,-4 -124,-8 -13,-9 -260,-508 -269,-542 -5,-22 7,-35 95,-109 56,-46 104,-91 106,-100 16,-49 57,-78 138,-95 L 476,435 434,295 C 387,142 382,110 405,110 c 9,0 20,19 29,53 8,28 27,95 41,147 15,52 27,102 27,110 0,12 17,15 89,17 74,1 89,-1 89,-14 0,-8 29,-76 65,-150 36,-74 65,-139 65,-143 0,-4 6,-13 14,-19 10,-8 16,-8 24,1 11,14 1,37 -99,240 l -48,96 51,12 c 71,15 118,45 125,82 3,16 13,32 22,36 9,3 67,35 129,70 98,55 113,67 109,86 -5,20 -110,259 -180,410 -18,38 -44,89 -59,113 l -28,43 H 745 620 l 3,82 2,83 37,6 c 52,8 87,35 108,82 28,63 33,109 20,172 -14,65 -64,130 -108,139 -71,14 -100,14 -137,0 z"
         id="path571" />
      <path
         fill="#ffffff"
         stroke="none"
         d="m 711,1804 c 39,-37 53,-85 46,-160 -6,-76 -26,-110 -75,-131 -53,-22 -146,-12 -179,19 -67,62 -72,189 -10,257 54,59 164,66 218,15 z"
         id="path573" />
      <path
         fill="#ffffff"
         stroke="none"
         d="m 840,1258 c 0,-2 -16,-61 -35,-133 -58,-215 -77,-305 -71,-322 11,-29 23,-1 61,146 20,80 43,160 51,179 8,19 14,47 14,63 0,42 16,35 44,-18 61,-122 196,-434 191,-442 -3,-5 -49,-33 -102,-62 -80,-43 -108,-53 -158,-56 l -62,-4 -28,108 c -15,59 -35,114 -43,121 -25,20 -64,14 -94,-15 l -28,-26 -24,26 c -29,31 -35,32 -81,13 -29,-12 -36,-22 -49,-68 -8,-29 -17,-74 -21,-99 -5,-43 -8,-47 -44,-58 -21,-6 -46,-11 -55,-11 -16,0 -177,124 -184,141 -4,10 219,469 227,469 4,0 19,-51 33,-112 28,-118 60,-240 65,-247 1,-2 9,-1 17,2 16,6 18,-6 -37,207 -19,74 -37,150 -40,168 l -6,32 h 229 c 127,0 230,-1 230,-2 z"
         id="path575" />
      <path
         fill="#ffffff"
         stroke="none"
         d="m 542,785 c 16,-14 35,-25 42,-25 7,0 23,11 36,25 13,14 33,25 45,25 19,0 25,-10 39,-62 9,-35 18,-76 19,-93 l 2,-30 -86,-14 c -110,-17 -199,-3 -199,32 0,56 21,143 37,155 24,17 31,15 65,-13 z"
         id="path577" />
      <path
         fill="#ffffff"
         stroke="none"
         d="m 570,575 c 36,0 88,4 116,8 43,7 52,6 57,-8 8,-20 -25,-34 -121,-48 -54,-8 -87,-8 -129,1 -64,13 -79,23 -69,47 5,14 13,16 44,9 20,-5 66,-9 102,-9 z"
         id="path579" />
      <path
         fill="#ffffff"
         stroke="none"
         d="m 392,553 c 2,-24 11,-31 53,-45 115,-39 335,-5 335,52 0,24 18,26 46,6 19,-15 19,-15 -1,-35 -31,-30 -119,-52 -235,-58 -119,-6 -205,7 -244,38 -24,19 -25,21 -10,45 22,33 52,32 56,-3 z"
         id="path581" />
    </g>
    <path
       fill="#000000"
       stroke="none"
       d="m 100.48197,110.65259 c 2.61761,0.65068 5.76261,-1.41523 5.39599,-0.23388 -0.26717,0.86088 0.56765,5.02082 0.29729,10.24634 -0.27161,5.24958 -0.54717,9.6797 -1.27628,16.35003 -0.23589,2.15801 -0.007,3.04156 1.18549,0.67771 1.19277,-2.36385 0.67096,-12.27207 1.60118,-18.15957 0.24721,-9.27159 0.42201,-10.44703 0.52201,-10.54703 0.2,-0.1 -0.24696,0.0224 3.65304,-0.37755 4.25,-0.35 2.50983,-0.14389 2.50983,-0.14389 0.86009,0.37827 1.09951,-0.10703 1.96768,0.30377 1.16181,0.54974 0.51112,4.81255 0.56109,6.33507 0.0635,1.93591 -0.93638,5.96372 -0.73638,7.90122 -0.1189,6.33524 -0.36593,11.83753 -0.17846,13.49004 0.18747,1.65251 0.32598,1.77351 0.75283,2.08789 0.42685,0.31438 0.26914,-0.13037 0.69925,-1.92015 0.43012,-1.78977 0.24126,-5.20262 0.64989,-10.8791 -0.25,-1.1 -0.01,-7.26915 0.0169,-9.40785 0.0258,-2.0817 -0.0202,-6.0837 -0.17024,-7.9837 l 3.31312,0.16953 2.71194,0.9995 c -2.81481,-4.94942 -25.175614,0.39429 -23.4762,1.09162 z"
       id="path585"
       style="stroke-width:0.1"
       sodipodi:nodetypes="csssscccssscssscscccc" />
  </g>
  <g
     id="g619"
     transform="translate(-163.04705,-273.10628)">
    <path
       fill="#000000"
       stroke="none"
       d="m 115.18154,4.8104646 c -8.3,3.6 -8.2,15.4000004 0.2,20.3000004 2.8,1.7 3.5,2.8 3.5,5.2 0,3 0,3 -5.4,3 -6.5,0 -6,-1 -8,15.8 -1.4,11.1 -2,13.4 -6.600001,23.3 -2.7,6 -5,11.2 -5,11.4 0,0.3 0.6,0.5 1.3,0.5 0.8,0 3.7,-4.8 6.600001,-10.6 4.5,-9.3 5.3,-11.8 6.3,-20.5 0.6,-5.5 1.4,-9.6 1.8,-9.2 0.6,0.8 1.6,3.9 6.4,21.6 l 2.4,8.8 -3.8,10.7 c -2.1,5.9 -5.9,16.499995 -8.4,23.699995 -2.6,7.1 -4.4,13.5 -4.1,14.2 0.3,0.9 2.5,1.3 6.3,1.3 h 5.9 l 0.6,6.7 c 0.4,3.8 0.7,11.5 0.7,17.2 0,8.2 -0.3,10.8 -1.6,12.2 -1,1.1 -1.4,2.5 -1,3.6 0.6,1.5 1,1.3 3.2,-1.2 2.5,-3 2.5,-3 2.1,-20.8 -0.4,-16.8 -0.3,-17.7 1.4,-17.7 1.7,0 1.9,1 2,11.2 0.1,19.9 1.5,28.8 4.6,28.8 1.1,0 1.3,-0.6 0.8,-2.3 -1.7,-5.4 -2.3,-13.1 -2.2,-25.2 l 0.2,-13 5.8,-0.3 c 3.1,-0.2 5.7,-0.7 5.7,-1.1 0,-0.8 -7.3,-23.999995 -12.5,-39.899995 l -2.4,-7.2 3.9,-12.4 c 2.1,-6.8 4.2,-14 4.5,-16 1.3,-6.4 2.5,-2.7 2.5,7.3 0,8.7 3,28.4 4.5,30 0.3,0.2 0.9,0 1.4,-0.5 0.5,-0.5 0.3,-3.6 -0.5,-7.4 -0.8,-3.6 -1.9,-13.7 -2.5,-22.5 -1.4,-22.1 -0.7,-20.5 -7.9,-20.5 h -6 v -4 c 0,-2.7 0.4,-4 1.4,-4 0.7,0 2.5,-0.9 3.9,-2 5.5,-4.4 3.9,-15.3000004 -2.8,-18.4000004 -4,-1.9 -5.1,-1.9 -9.2,-0.1 z"
       id="path597"
       style="stroke-width:0.1" />
    <path
       fill="#ffffff"
       stroke="none"
       d="m 124.88154,9.3104646 c 5.2,5.2000004 2.6,12.3000004 -4.7,12.8000004 -3.4,0.3 -4.4,-0.1 -6.2,-2.4 -2.8,-3.5 -2.7,-6.9 0.4,-9.9000004 3,-3.1 7.7,-3.3 10.5,-0.5 z"
       id="path599"
       style="stroke-width:0.1" />
    <path
       fill="#ffffff"
       stroke="none"
       d="m 129.88154,37.010465 c -0.1,2.7 -8,30.3 -9,31.6 -0.4,0.4 -1.5,-2.3 -2.5,-6 -0.9,-3.7 -2.8,-10.4 -4.1,-14.9 -3.6,-12 -3.9,-11.4 6.6,-11.4 5,0 9,0.3 9,0.7 z"
       id="path601"
       style="stroke-width:0.1" />
    <path
       fill="#ffffff"
       stroke="none"
       d="m 126.78154,99.710465 c 3.4,10.899995 6.1,19.999995 5.9,20.099995 -0.8,0.7 -26.8,1.4 -26.8,0.7 0,-0.5 1.8,-6 4.1,-12.3 2.2,-6.3 5.4,-15.399995 7.1,-20.199995 1.7,-4.9 3.1,-8.7 3.3,-8.5 0.2,0.2 3.1,9.2 6.4,20.2 z"
       id="path603"
       style="stroke-width:0.1" />
    <g
       transform="matrix(0.0933966,0,0,-0.0933966,-10.305207,174.54849)"
       fill="#000000"
       stroke="none"
       id="g617">
      <path
         fill="#000000"
         stroke="none"
         d="m 785,1852 c -40,-25 -51,-40 -59,-84 -10,-53 16,-111 59,-131 32,-15 35,-20 35,-62 v -45 h -53 c -32,0 -61,-6 -75,-16 -12,-8 -56,-64 -98,-124 -41,-60 -79,-112 -83,-114 -4,-3 -36,22 -70,55 -61,58 -63,61 -51,89 7,17 13,52 13,80 1,62 -24,100 -79,118 -77,26 -158,-8 -193,-80 -40,-83 -21,-157 49,-193 38,-20 124,-20 140,0 7,8 18,15 24,15 7,0 43,-32 82,-70 38,-39 75,-69 81,-68 7,2 50,55 96,118 45,63 87,115 92,115 12,0 104,-377 107,-440 1,-27 -8,-115 -20,-195 C 766,716 758,609 754,440 748,215 744,185 718,149 c -6,-9 -8,-25 -4,-35 7,-17 10,-16 35,14 l 28,33 7,232 c 6,219 26,438 46,503 5,18 9,22 9,10 2,-45 78,-327 132,-486 81,-242 102,-294 122,-298 18,-4 24,26 8,44 -12,13 -85,211 -121,329 -34,111 -80,292 -110,429 -19,87 -19,90 -1,155 10,36 36,127 56,201 20,74 40,141 44,148 10,18 72,-355 77,-461 4,-107 10,-119 42,-99 10,7 10,33 -3,138 -9,71 -20,145 -25,164 -5,19 -21,102 -35,183 -14,82 -30,157 -36,168 -9,18 -19,20 -72,17 l -62,-3 -3,45 c -2,43 -1,46 36,63 60,27 78,89 47,163 -10,23 -26,39 -49,49 -46,19 -65,19 -101,-3 z"
         id="path605" />
      <path
         fill="#ffffff"
         stroke="none"
         d="m 893,1798 c 17,-21 23,-83 9,-105 -26,-40 -110,-32 -131,13 -21,47 -14,82 22,104 37,24 73,19 100,-12 z"
         id="path607" />
      <path
         fill="#ffffff"
         stroke="none"
         d="m 352,1560 c 18,-22 24,-82 12,-114 -3,-9 -15,-16 -26,-16 -15,0 -18,-5 -13,-20 14,-43 -103,-59 -149,-21 -8,7 -19,25 -26,42 -17,41 10,113 54,140 42,27 122,21 148,-11 z"
         id="path609" />
      <path
         fill="#ffffff"
         stroke="none"
         d="m 950,1495 c 0,-2 -20,-73 -45,-157 -24,-84 -49,-177 -56,-207 -14,-65 -18,-59 -49,74 -13,55 -33,141 -45,190 l -22,90 56,6 c 76,8 161,10 161,4 z"
         id="path611" />
      <path
         fill="#000000"
         stroke="none"
         d="m 211,1536 c -53,-56 -32,-146 33,-146 55,0 93,55 86,125 -4,48 -81,62 -119,21 z"
         id="path613" />
      <path
         fill="#ffffff"
         stroke="none"
         d="m 297,1504 c 3,-8 1,-26 -5,-40 -9,-18 -19,-24 -42,-24 -26,0 -30,4 -30,28 0,15 5,33 12,40 17,17 58,15 65,-4 z"
         id="path615" />
    </g>
  </g>
  <g
     transform="matrix(0.0933966,0,0,-0.0933966,-35.931397,1.3268366)"
     fill="#000000"
     stroke="none"
     id="g641">
    <path
       fill="#000000"
       stroke="none"
       d="m 785,1852 c -40,-25 -51,-40 -59,-84 -10,-53 16,-111 59,-131 32,-15 35,-20 35,-62 v -45 h -53 c -32,0 -61,-6 -75,-16 -12,-8 -56,-64 -98,-124 -41,-60 -79,-112 -83,-114 -4,-3 -36,22 -70,55 -61,58 -63,61 -51,89 7,17 13,52 13,80 1,62 -24,100 -79,118 -77,26 -158,-8 -193,-80 -40,-83 -21,-157 49,-193 38,-20 124,-20 140,0 7,8 18,15 24,15 7,0 43,-32 82,-70 38,-39 75,-69 81,-68 7,2 50,55 96,118 45,63 87,115 92,115 12,0 104,-377 107,-440 1,-27 -8,-115 -20,-195 C 766,716 758,609 754,440 748,215 744,185 718,149 c -6,-9 -8,-25 -4,-35 7,-17 10,-16 35,14 l 28,33 7,232 c 6,219 26,438 46,503 5,18 9,22 9,10 2,-45 78,-327 132,-486 81,-242 102,-294 122,-298 18,-4 24,26 8,44 -12,13 -85,211 -121,329 -34,111 -80,292 -110,429 -19,87 -19,90 -1,155 10,36 36,127 56,201 20,74 40,141 44,148 10,18 72,-355 77,-461 4,-107 10,-119 42,-99 10,7 10,33 -3,138 -9,71 -20,145 -25,164 -5,19 -21,102 -35,183 -14,82 -30,157 -36,168 -9,18 -19,20 -72,17 l -62,-3 -3,45 c -2,43 -1,46 36,63 60,27 78,89 47,163 -10,23 -26,39 -49,49 -46,19 -65,19 -101,-3 z"
       id="path629" />
    <path
       fill="#ffffff"
       stroke="none"
       d="m 893,1798 c 17,-21 23,-83 9,-105 -26,-40 -110,-32 -131,13 -21,47 -14,82 22,104 37,24 73,19 100,-12 z"
       id="path631" />
    <path
       fill="#ffffff"
       stroke="none"
       d="m 352,1560 c 18,-22 24,-82 12,-114 -3,-9 -15,-16 -26,-16 -15,0 -18,-5 -13,-20 14,-43 -103,-59 -149,-21 -8,7 -19,25 -26,42 -17,41 10,113 54,140 42,27 122,21 148,-11 z"
       id="path633" />
    <path
       fill="#ffffff"
       stroke="none"
       d="m 950,1495 c 0,-2 -20,-73 -45,-157 -24,-84 -49,-177 -56,-207 -14,-65 -18,-59 -49,74 -13,55 -33,141 -45,190 l -22,90 56,6 c 76,8 161,10 161,4 z"
       id="path635" />
    <path
       fill="#000000"
       stroke="none"
       d="m 211,1536 c -53,-56 -32,-146 33,-146 55,0 93,55 86,125 -4,48 -81,62 -119,21 z"
       id="path637" />
    <path
       fill="#ffffff"
       stroke="none"
       d="m 297,1504 c 3,-8 1,-26 -5,-40 -9,-18 -19,-24 -42,-24 -26,0 -30,4 -30,28 0,15 5,33 12,40 17,17 58,15 65,-4 z"
       id="path639" />
  </g>
  <g
     transform="matrix(0.1,0,0,-0.1,-79.072317,411.78122)"
     fill="#000000"
     stroke="none"
     id="g16">
    <path
       fill="#000000"
       stroke="none"
       d="m 545,1864 c -48,-18 -81,-48 -105,-94 -61,-119 -12,-261 100,-294 l 45,-13 3,-82 3,-81 H 478 c -62,0 -118,-4 -124,-8 -13,-9 -260,-508 -269,-542 -5,-22 7,-35 95,-109 56,-46 104,-91 106,-100 16,-49 57,-78 138,-95 L 476,435 434,295 C 387,142 382,110 405,110 c 9,0 20,19 29,53 8,28 27,95 41,147 15,52 27,102 27,110 0,12 17,15 89,17 74,1 89,-1 89,-14 0,-8 29,-76 65,-150 36,-74 65,-139 65,-143 0,-4 6,-13 14,-19 10,-8 16,-8 24,1 11,14 1,37 -99,240 l -48,96 51,12 c 71,15 118,45 125,82 3,16 13,32 22,36 9,3 67,35 129,70 98,55 113,67 109,86 -5,20 -110,259 -180,410 -18,38 -44,89 -59,113 l -28,43 H 745 620 l 3,82 2,83 37,6 c 52,8 87,35 108,82 28,63 33,109 20,172 -14,65 -64,130 -108,139 -71,14 -100,14 -137,0 z"
       id="path4-6" />
    <path
       fill="#ffffff"
       stroke="none"
       d="m 711,1804 c 39,-37 53,-85 46,-160 -6,-76 -26,-110 -75,-131 -53,-22 -146,-12 -179,19 -67,62 -72,189 -10,257 54,59 164,66 218,15 z"
       id="path6" />
    <path
       fill="#ffffff"
       stroke="none"
       d="m 840,1258 c 0,-2 -16,-61 -35,-133 -58,-215 -77,-305 -71,-322 11,-29 23,-1 61,146 20,80 43,160 51,179 8,19 14,47 14,63 0,42 16,35 44,-18 61,-122 196,-434 191,-442 -3,-5 -49,-33 -102,-62 -80,-43 -108,-53 -158,-56 l -62,-4 -28,108 c -15,59 -35,114 -43,121 -25,20 -64,14 -94,-15 l -28,-26 -24,26 c -29,31 -35,32 -81,13 -29,-12 -36,-22 -49,-68 -8,-29 -17,-74 -21,-99 -5,-43 -8,-47 -44,-58 -21,-6 -46,-11 -55,-11 -16,0 -177,124 -184,141 -4,10 219,469 227,469 4,0 19,-51 33,-112 28,-118 60,-240 65,-247 1,-2 9,-1 17,2 16,6 18,-6 -37,207 -19,74 -37,150 -40,168 l -6,32 h 229 c 127,0 230,-1 230,-2 z"
       id="path8" />
    <path
       fill="#ffffff"
       stroke="none"
       d="m 542,785 c 16,-14 35,-25 42,-25 7,0 23,11 36,25 13,14 33,25 45,25 19,0 25,-10 39,-62 9,-35 18,-76 19,-93 l 2,-30 -86,-14 c -110,-17 -199,-3 -199,32 0,56 21,143 37,155 24,17 31,15 65,-13 z"
       id="path10" />
    <path
       fill="#ffffff"
       stroke="none"
       d="m 570,575 c 36,0 88,4 116,8 43,7 52,6 57,-8 8,-20 -25,-34 -121,-48 -54,-8 -87,-8 -129,1 -64,13 -79,23 -69,47 5,14 13,16 44,9 20,-5 66,-9 102,-9 z"
       id="path12" />
    <path
       fill="#ffffff"
       stroke="none"
       d="m 392,553 c 2,-24 11,-31 53,-45 115,-39 335,-5 335,52 0,24 18,26 46,6 19,-15 19,-15 -1,-35 -31,-30 -119,-52 -235,-58 -119,-6 -205,7 -244,38 -24,19 -25,21 -10,45 22,33 52,32 56,-3 z"
       id="path14" />
  </g>
  <g
     transform="matrix(0.08717335,0,0,-0.08717335,-157.45882,387.79177)"
     fill="#000000"
     stroke="none"
     id="g147">
    <path
       fill="#000000"
       stroke="none"
       d="m 785,1852 c -40,-25 -51,-40 -59,-84 -10,-53 16,-111 59,-131 32,-15 35,-20 35,-62 v -45 h -53 c -32,0 -61,-6 -75,-16 -12,-8 -56,-64 -98,-124 -41,-60 -79,-112 -83,-114 -4,-3 -36,22 -70,55 -61,58 -63,61 -51,89 7,17 13,52 13,80 1,62 -24,100 -79,118 -77,26 -158,-8 -193,-80 -40,-83 -21,-157 49,-193 38,-20 124,-20 140,0 7,8 18,15 24,15 7,0 43,-32 82,-70 38,-39 75,-69 81,-68 7,2 50,55 96,118 45,63 87,115 92,115 12,0 104,-377 107,-440 1,-27 -8,-115 -20,-195 C 766,716 758,609 754,440 748,215 744,185 718,149 c -6,-9 -8,-25 -4,-35 7,-17 10,-16 35,14 l 28,33 7,232 c 6,219 26,438 46,503 5,18 9,22 9,10 2,-45 78,-327 132,-486 81,-242 102,-294 122,-298 18,-4 24,26 8,44 -12,13 -85,211 -121,329 -34,111 -80,292 -110,429 -19,87 -19,90 -1,155 10,36 36,127 56,201 20,74 40,141 44,148 10,18 72,-355 77,-461 4,-107 10,-119 42,-99 10,7 10,33 -3,138 -9,71 -20,145 -25,164 -5,19 -21,102 -35,183 -14,82 -30,157 -36,168 -9,18 -19,20 -72,17 l -62,-3 -3,45 c -2,43 -1,46 36,63 60,27 78,89 47,163 -10,23 -26,39 -49,49 -46,19 -65,19 -101,-3 z"
       id="path135" />
    <path
       fill="#ffffff"
       stroke="none"
       d="m 893,1798 c 17,-21 23,-83 9,-105 -26,-40 -110,-32 -131,13 -21,47 -14,82 22,104 37,24 73,19 100,-12 z"
       id="path137" />
    <path
       fill="#ffffff"
       stroke="none"
       d="m 352,1560 c 18,-22 24,-82 12,-114 -3,-9 -15,-16 -26,-16 -15,0 -18,-5 -13,-20 14,-43 -103,-59 -149,-21 -8,7 -19,25 -26,42 -17,41 10,113 54,140 42,27 122,21 148,-11 z"
       id="path139" />
    <path
       fill="#ffffff"
       stroke="none"
       d="m 950,1495 c 0,-2 -20,-73 -45,-157 -24,-84 -49,-177 -56,-207 -14,-65 -18,-59 -49,74 -13,55 -33,141 -45,190 l -22,90 56,6 c 76,8 161,10 161,4 z"
       id="path141" />
    <path
       fill="#000000"
       stroke="none"
       d="m 211,1536 c -53,-56 -32,-146 33,-146 55,0 93,55 86,125 -4,48 -81,62 -119,21 z"
       id="path143" />
    <path
       fill="#ffffff"
       stroke="none"
       d="m 297,1504 c 3,-8 1,-26 -5,-40 -9,-18 -19,-24 -42,-24 -26,0 -30,4 -30,28 0,15 5,33 12,40 17,17 58,15 65,-4 z"
       id="path145" />
  </g>
  <rect
     style="fill:#f9f9f9;stroke-width:0.429343"
     id="rect162"
     width="1.6550108"
     height="29.489279"
     x="-146.90303"
     y="246.30833" />
  <rect
     style="fill:#f9f9f9;stroke-width:0.429343"
     id="rect164"
     width="1.6550108"
     height="29.489279"
     x="-143.75777"
     y="244.91248" />
  <rect
     style="fill:#f9f9f9;stroke-width:0.429343"
     id="rect166"
     width="1.6550108"
     height="29.489279"
     x="-140.42372"
     y="244.76144" />
  <rect
     style="fill:#f9f9f9;stroke-width:0.429343"
     id="rect168"
     width="1.6550108"
     height="29.489279"
     x="-137.17091"
     y="245.33582" />
  <rect
     style="fill:#f9f9f9;stroke-width:0.420439"
     id="rect170"
     width="1.6550108"
     height="28.27877"
     x="-133.73503"
     y="244.12073" />
  <rect
     style="fill:#f9f9f9;stroke-width:0.347704"
     id="rect172"
     width="1.6550108"
     height="19.340773"
     x="-131.03999"
     y="245.12863" />
  <rect
     style="fill:#f9f9f9;stroke-width:0.309348"
     id="rect174"
     width="1.6550108"
     height="15.309118"
     x="-128.29117"
     y="245.20325" />
  <rect
     style="fill:#f9f9f9;stroke-width:0.309348"
     id="rect176"
     width="1.6550108"
     height="15.309118"
     x="-125.19797"
     y="246.25471" />
  <rect
     style="fill:#f9f9f9;stroke-width:0.194185"
     id="rect178"
     width="1.6550108"
     height="6.0323634"
     x="-130.91585"
     y="266.36771" />
  <rect
     style="fill:#f9f9f9;stroke-width:0.194185"
     id="rect180"
     width="1.6550108"
     height="6.0323634"
     x="246.69751"
     y="136.5352"
     transform="rotate(86.189776)" />
  <rect
     style="fill:#f9f9f9;stroke-width:0.194185"
     id="rect182"
     width="1.6550108"
     height="6.0323634"
     x="248.74309"
     y="162.00165"
     transform="rotate(86.189776)"
     inkscape:transform-center-x="-27.000757"
     inkscape:transform-center-y="-4.2316328" />
  <g
     transform="matrix(0.1,0,0,-0.1,136.2037,446.71236)"
     fill="#000000"
     stroke="none"
     id="g308">
    <path
       fill="#000000"
       stroke="none"
       d="m 545,1864 c -48,-18 -81,-48 -105,-94 -61,-119 -12,-261 100,-294 l 45,-13 3,-82 3,-81 H 478 c -62,0 -118,-4 -124,-8 -13,-9 -260,-508 -269,-542 -5,-22 7,-35 95,-109 56,-46 104,-91 106,-100 16,-49 57,-78 138,-95 L 476,435 434,295 C 387,142 382,110 405,110 c 9,0 20,19 29,53 8,28 27,95 41,147 15,52 27,102 27,110 0,12 17,15 89,17 74,1 89,-1 89,-14 0,-8 29,-76 65,-150 36,-74 65,-139 65,-143 0,-4 6,-13 14,-19 10,-8 16,-8 24,1 11,14 1,37 -99,240 l -48,96 51,12 c 71,15 118,45 125,82 3,16 13,32 22,36 9,3 67,35 129,70 98,55 113,67 109,86 -5,20 -110,259 -180,410 -18,38 -44,89 -59,113 l -28,43 H 745 620 l 3,82 2,83 37,6 c 52,8 87,35 108,82 28,63 33,109 20,172 -14,65 -64,130 -108,139 -71,14 -100,14 -137,0 z"
       id="path296" />
    <path
       fill="#ffffff"
       stroke="none"
       d="m 711,1804 c 39,-37 53,-85 46,-160 -6,-76 -26,-110 -75,-131 -53,-22 -146,-12 -179,19 -67,62 -72,189 -10,257 54,59 164,66 218,15 z"
       id="path298" />
    <path
       fill="#ffffff"
       stroke="none"
       d="m 840,1258 c 0,-2 -16,-61 -35,-133 -58,-215 -77,-305 -71,-322 11,-29 23,-1 61,146 20,80 43,160 51,179 8,19 14,47 14,63 0,42 16,35 44,-18 61,-122 196,-434 191,-442 -3,-5 -49,-33 -102,-62 -80,-43 -108,-53 -158,-56 l -62,-4 -28,108 c -15,59 -35,114 -43,121 -25,20 -64,14 -94,-15 l -28,-26 -24,26 c -29,31 -35,32 -81,13 -29,-12 -36,-22 -49,-68 -8,-29 -17,-74 -21,-99 -5,-43 -8,-47 -44,-58 -21,-6 -46,-11 -55,-11 -16,0 -177,124 -184,141 -4,10 219,469 227,469 4,0 19,-51 33,-112 28,-118 60,-240 65,-247 1,-2 9,-1 17,2 16,6 18,-6 -37,207 -19,74 -37,150 -40,168 l -6,32 h 229 c 127,0 230,-1 230,-2 z"
       id="path300" />
    <path
       fill="#ffffff"
       stroke="none"
       d="m 542,785 c 16,-14 35,-25 42,-25 7,0 23,11 36,25 13,14 33,25 45,25 19,0 25,-10 39,-62 9,-35 18,-76 19,-93 l 2,-30 -86,-14 c -110,-17 -199,-3 -199,32 0,56 21,143 37,155 24,17 31,15 65,-13 z"
       id="path302" />
    <path
       fill="#ffffff"
       stroke="none"
       d="m 570,575 c 36,0 88,4 116,8 43,7 52,6 57,-8 8,-20 -25,-34 -121,-48 -54,-8 -87,-8 -129,1 -64,13 -79,23 -69,47 5,14 13,16 44,9 20,-5 66,-9 102,-9 z"
       id="path304" />
    <path
       fill="#ffffff"
       stroke="none"
       d="m 392,553 c 2,-24 11,-31 53,-45 115,-39 335,-5 335,52 0,24 18,26 46,6 19,-15 19,-15 -1,-35 -31,-30 -119,-52 -235,-58 -119,-6 -205,7 -244,38 -24,19 -25,21 -10,45 22,33 52,32 56,-3 z"
       id="path306" />
  </g>
  <g
     transform="matrix(0.07348509,0,0,-0.07348509,-44.296564,141.84497)"
     fill="#000000"
     stroke="none"
     id="g322">
    <path
       fill="#000000"
       stroke="none"
       d="m 785,1852 c -40,-25 -51,-40 -59,-84 -10,-53 16,-111 59,-131 32,-15 35,-20 35,-62 v -45 h -53 c -32,0 -61,-6 -75,-16 -12,-8 -22.14164,-48.8089 -50.82849,-119.3495 -41,-60 -89.89844,-164.769 -93.89844,-166.769 -8.76131,-10.1703 -19.74544,-30.2337 -22.58834,-46.9382 -2.84289,-16.7046 2.45546,-30.0504 26.25911,-26.7857 7,2 61.16337,128.8582 107.16337,191.8582 C 689.16498,1419.8313 690,1455 695,1455 c 12,0 104,-377 107,-440 1,-27 -8,-115 -20,-195 C 766,716 758,609 754,440 748,215 744,185 718,149 c -6,-9 -8,-25 -4,-35 7,-17 10,-16 35,14 l 28,33 7,232 c 6,219 26,438 46,503 5,18 9,22 9,10 2,-45 78,-327 132,-486 81,-242 102,-294 122,-298 18,-4 24,26 8,44 -12,13 -85,211 -121,329 -34,111 -80,292 -110,429 -19,87 -19,90 -1,155 10,36 36,127 56,201 20,74 40,141 44,148 10,18 72,-355 77,-461 4,-107 10,-119 42,-99 10,7 10,33 -3,138 -9,71 -20,145 -25,164 -5,19 -21,102 -35,183 -14,82 -30,157 -36,168 -9,18 -19,20 -72,17 l -62,-3 -3,45 c -2,43 -1,46 36,63 60,27 78,89 47,163 -10,23 -26,39 -49,49 -46,19 -65,19 -101,-3 z"
       id="path310"
       sodipodi:nodetypes="cccscscccsccsccccccccccccccccsccccsccccccccc" />
    <path
       fill="#ffffff"
       stroke="none"
       d="m 893,1798 c 17,-21 23,-83 9,-105 -26,-40 -110,-32 -131,13 -21,47 -14,82 22,104 37,24 73,19 100,-12 z"
       id="path312" />
    <path
       fill="#ffffff"
       stroke="none"
       d="m 950,1495 c 0,-2 -20,-73 -45,-157 -24,-84 -49,-177 -56,-207 -14,-65 -18,-59 -49,74 -13,55 -33,141 -45,190 l -22,90 56,6 c 76,8 161,10 161,4 z"
       id="path316" />
  </g>
  <g
     id="g549"
     transform="translate(9.277071,-7.8388714)">
    <path
       fill="#000000"
       stroke="none"
       d="m -42.808357,-15.061271 c -4.482591,-4.262135 -4.629561,-4.48259 -3.74774,-6.540173 0.514396,-1.249246 0.955306,-3.821224 0.955306,-5.878807 0.07348,-4.556076 -1.763642,-7.348509 -5.805322,-8.671241 -5.658352,-1.910612 -11.610644,0.587881 -14.182622,5.878808 -2.939404,6.099262 -1.543187,11.537159 3.600769,14.182622 2.792434,1.469702 9.112151,1.469702 10.287913,0 0.514395,-0.587881 1.322731,-1.102276 1.763642,-1.102276 0.514396,0 3.159859,2.351522 6.025777,5.143956 13.319338,11.14875359 7.810283,3.2230633 1.102277,-3.012889 z"
       id="path436"
       sodipodi:nodetypes="cccccccscc"
       style="stroke-width:0.0734851" />
    <path
       fill="#ffffff"
       stroke="none"
       d="m -49.34853,-31.889356 c 1.322731,1.616672 1.763642,6.025777 0.881821,8.3773 -0.220456,0.661366 -1.102277,1.175761 -1.910613,1.175761 -1.102276,0 -1.322731,0.367426 -0.955306,1.469702 1.028792,3.159859 -7.568964,4.33562 -10.949278,1.543187 -0.587881,-0.514396 -1.396217,-1.837127 -1.910613,-3.086374 -1.249246,-3.012888 0.734851,-8.303815 3.968195,-10.287912 3.086374,-1.984098 8.965181,-1.543187 10.875794,0.808336 z"
       id="path440"
       style="stroke-width:0.0734851" />
    <path
       fill="#000000"
       stroke="none"
       d="m -59.709928,-30.125714 c -3.89471,4.115165 -2.351523,10.728823 2.425008,10.728823 4.04168,0 6.834113,-4.04168 6.319718,-9.185636 -0.293941,-3.527285 -5.952293,-4.556076 -8.744726,-1.543187 z"
       id="path444"
       style="stroke-width:0.0734851" />
    <path
       fill="#ffffff"
       stroke="none"
       d="m -53.39021,-27.774191 c 0.220455,0.58788 0.07349,1.910612 -0.367426,2.939403 -0.661366,1.322732 -1.396216,1.763642 -3.086373,1.763642 -1.910613,0 -2.204553,-0.29394 -2.204553,-2.057582 0,-1.102276 0.367425,-2.425008 0.881821,-2.939404 1.249246,-1.249246 4.262135,-1.102276 4.776531,0.293941 z"
       id="path446"
       style="stroke-width:0.0734851" />
    <rect
       style="fill:#f9f9f9;stroke-width:0.361926"
       id="rect450"
       width="1.3951354"
       height="24.858772"
       x="-66.316994"
       y="-36.51984" />
    <rect
       style="fill:#f9f9f9;stroke-width:0.361926"
       id="rect452"
       width="1.3951354"
       height="24.858772"
       x="-63.665611"
       y="-37.696503" />
    <rect
       style="fill:#f9f9f9;stroke-width:0.361926"
       id="rect454"
       width="1.3951354"
       height="24.858772"
       x="-60.855091"
       y="-37.823818" />
    <rect
       style="fill:#f9f9f9;stroke-width:0.361926"
       id="rect456"
       width="1.3951354"
       height="24.858772"
       x="-58.113049"
       y="-37.339638" />
    <rect
       style="fill:#f9f9f9;stroke-width:0.35442"
       id="rect458"
       width="1.3951354"
       height="23.838341"
       x="-55.216682"
       y="-38.363926" />
    <rect
       style="fill:#f9f9f9;stroke-width:0.293106"
       id="rect460"
       width="1.3951354"
       height="16.303818"
       x="-52.944828"
       y="-37.514286" />
    <rect
       style="fill:#f9f9f9;stroke-width:0.260773"
       id="rect462"
       width="1.3951354"
       height="12.905229"
       x="-50.627632"
       y="-37.451389" />
    <rect
       style="fill:#f9f9f9;stroke-width:0.260773"
       id="rect464"
       width="1.3951354"
       height="12.905229"
       x="-48.020138"
       y="-36.565041" />
    <rect
       style="fill:#f9f9f9;stroke-width:0.163693"
       id="rect466"
       width="1.3951354"
       height="5.0851412"
       x="-52.840176"
       y="-19.610243" />
    <rect
       style="fill:#f9f9f9;stroke-width:0.163693"
       id="rect468"
       width="1.3951354"
       height="5.0851412"
       x="-31.829851"
       y="41.479919"
       transform="rotate(86.189776)" />
    <rect
       style="fill:#f9f9f9;stroke-width:0.163693"
       id="rect470"
       width="1.3951354"
       height="5.0851412"
       x="-30.10549"
       y="62.94754"
       transform="rotate(86.189776)"
       inkscape:transform-center-x="-27.000757"
       inkscape:transform-center-y="-4.2316328" />
  </g>
  <g
     id="g510"
     transform="translate(-120.01449,-119.05817)">
    <g
       transform="matrix(0.07348509,0,0,-0.07348509,-44.296564,141.84497)"
       fill="#000000"
       stroke="none"
       id="g486">
      <path
         fill="#000000"
         stroke="none"
         d="m 785,1852 c -40,-25 -51,-40 -59,-84 -10,-53 16,-111 59,-131 32,-15 35,-20 35,-62 v -45 h -53 c -32,0 -61,-6 -75,-16 -12,-8 -22.14164,-48.8089 -50.82849,-119.3495 -41,-60 -58.13792,-147.233 -62.13792,-149.233 C 575.03359,1242.4175 475,1298 441,1331 c -61,58 -63,61 -51,89 7,17 13,52 13,80 1,62 -24,100 -79,118 -77,26 -158,-8 -193,-80 -40,-83 -21,-157 49,-193 38,-20 124,-20 140,0 7,8 18,15 24,15 7,0 43,-32 82,-70 38,-39 143.03359,-99.5825 149.03359,-98.5825 7,2 37.07362,91.5983 83.07362,154.5983 C 689.16498,1419.8313 690,1455 695,1455 c 12,0 104,-377 107,-440 1,-27 -8,-115 -20,-195 C 766,716 758,609 754,440 748,215 744,185 718,149 c -6,-9 -8,-25 -4,-35 7,-17 10,-16 35,14 l 28,33 7,232 c 6,219 26,438 46,503 5,18 9,22 9,10 2,-45 78,-327 132,-486 81,-242 102,-294 122,-298 18,-4 24,26 8,44 -12,13 -85,211 -121,329 -34,111 -80,292 -110,429 -19,87 -19,90 -1,155 10,36 36,127 56,201 20,74 40,141 44,148 10,18 72,-355 77,-461 4,-107 10,-119 42,-99 10,7 10,33 -3,138 -9,71 -20,145 -25,164 -5,19 -21,102 -35,183 -14,82 -30,157 -36,168 -9,18 -19,20 -72,17 l -62,-3 -3,45 c -2,43 -1,46 36,63 60,27 78,89 47,163 -10,23 -26,39 -49,49 -46,19 -65,19 -101,-3 z"
         id="path474"
         sodipodi:nodetypes="cccscsccccccccccscccsccccccccccccccccsccccsccccccccc" />
      <path
         fill="#ffffff"
         stroke="none"
         d="m 893,1798 c 17,-21 23,-83 9,-105 -26,-40 -110,-32 -131,13 -21,47 -14,82 22,104 37,24 73,19 100,-12 z"
         id="path476" />
      <path
         fill="#ffffff"
         stroke="none"
         d="m 352,1560 c 18,-22 24,-82 12,-114 -3,-9 -15,-16 -26,-16 -15,0 -18,-5 -13,-20 14,-43 -103,-59 -149,-21 -8,7 -19,25 -26,42 -17,41 10,113 54,140 42,27 122,21 148,-11 z"
         id="path478" />
      <path
         fill="#ffffff"
         stroke="none"
         d="m 950,1495 c 0,-2 -20,-73 -45,-157 -24,-84 -49,-177 -56,-207 -14,-65 -18,-59 -49,74 -13,55 -33,141 -45,190 l -22,90 56,6 c 76,8 161,10 161,4 z"
         id="path480" />
      <path
         fill="#000000"
         stroke="none"
         d="m 211,1536 c -53,-56 -32,-146 33,-146 55,0 93,55 86,125 -4,48 -81,62 -119,21 z"
         id="path482" />
      <path
         fill="#ffffff"
         stroke="none"
         d="m 297,1504 c 3,-8 1,-26 -5,-40 -9,-18 -19,-24 -42,-24 -26,0 -30,4 -30,28 0,15 5,33 12,40 17,17 58,15 65,-4 z"
         id="path484" />
    </g>
    <rect
       style="fill:#f9f9f9;stroke-width:0.361926"
       id="rect488"
       width="1.3951354"
       height="24.858772"
       x="-35.398277"
       y="22.577747" />
    <rect
       style="fill:#f9f9f9;stroke-width:0.361926"
       id="rect490"
       width="1.3951354"
       height="24.858772"
       x="-32.746895"
       y="21.401085" />
    <rect
       style="fill:#f9f9f9;stroke-width:0.361926"
       id="rect492"
       width="1.3951354"
       height="24.858772"
       x="-29.936373"
       y="21.273767" />
    <rect
       style="fill:#f9f9f9;stroke-width:0.361926"
       id="rect494"
       width="1.3951354"
       height="24.858772"
       x="-27.194332"
       y="21.75795" />
    <rect
       style="fill:#f9f9f9;stroke-width:0.35442"
       id="rect496"
       width="1.3951354"
       height="23.838341"
       x="-24.297964"
       y="20.73366" />
    <rect
       style="fill:#f9f9f9;stroke-width:0.293106"
       id="rect498"
       width="1.3951354"
       height="16.303818"
       x="-22.02611"
       y="21.5833" />
    <rect
       style="fill:#f9f9f9;stroke-width:0.260773"
       id="rect500"
       width="1.3951354"
       height="12.905229"
       x="-19.708914"
       y="21.646198" />
    <rect
       style="fill:#f9f9f9;stroke-width:0.260773"
       id="rect502"
       width="1.3951354"
       height="12.905229"
       x="-17.101419"
       y="22.532547" />
    <rect
       style="fill:#f9f9f9;stroke-width:0.163693"
       id="rect504"
       width="1.3951354"
       height="5.0851412"
       x="-21.921457"
       y="39.487343" />
    <rect
       style="fill:#f9f9f9;stroke-width:0.163693"
       id="rect506"
       width="1.3951354"
       height="5.0851412"
       x="29.191715"
       y="14.556693"
       transform="rotate(86.189776)" />
    <rect
       style="fill:#f9f9f9;stroke-width:0.163693"
       id="rect508"
       width="1.3951354"
       height="5.0851412"
       x="30.916077"
       y="36.024315"
       transform="rotate(86.189776)"
       inkscape:transform-center-x="-27.000757"
       inkscape:transform-center-y="-4.2316328" />
  </g>
  <path
     fill="#000000"
     stroke="none"
     d="m -6.7459754,65.031888 c -0.1624603,6.183286 -0.2277205,6.440077 -2.3462153,7.163427 -1.2721663,0.454767 -3.4773073,1.850053 -5.0051683,3.2282 -3.432335,2.997049 -4.275374,6.231548 -2.550495,10.118654 2.371178,5.481323 8.213219,8.227739 13.8646861,6.593757 6.4977952,-1.902564 9.6005398,-6.581573 8.1195633,-12.173126 -0.7790142,-3.057916 -5.01189423,-7.750628 -6.890736,-7.639301 -0.781068,0.01179 -1.7044475,-0.243902 -1.9997651,-0.571301 -0.344537,-0.381965 -0.3703152,-3.921381 -0.2163523,-7.919814 -0.1606582,-4.339402 0.5274138,-6.611093 0.229082,-8.027731 -0.2983309,-1.416638 -1.7423891,-1.372648 -2.065567,-0.710223 -0.3231772,0.662425 -0.4712477,1.547881 -0.7064444,3.44567 -0.2351976,1.897789 -0.3981981,4.202335 -0.432588,6.491788 z"
     id="path551"
     sodipodi:nodetypes="cccccccscsssc"
     style="stroke-width:0.0734851" />
  <path
     fill="#ffffff"
     stroke="none"
     d="m -14.861148,81.159575 c 0.31451,-2.065025 3.293178,-5.345597 5.6299383,-6.265825 0.6387571,-0.279276 1.6113561,0.03099 2.152771,0.631215 0.7382929,0.818497 1.1587839,0.736098 1.7311827,-0.275027 1.6572825,-2.880371 8.2890316,2.716389 8.4796065,7.096787 0.011791,0.781069 -0.4289891,2.267251 -1.0120817,3.485949 -1.40049126,2.945629 -6.6582019,5.016143 -10.297155,3.944148 -3.5405148,-0.962862 -7.1506788,-5.623494 -6.6842618,-8.617247 z"
     id="path553"
     style="stroke-width:0.0734851" />
  <path
     fill="#000000"
     stroke="none"
     d="m -6.6115983,87.672173 c 5.66435583,0.135726 9.5417239,-5.439927 6.34245366,-8.986746 -2.70707476,-3.001153 -7.57857076,-2.367602 -11.05368436,1.45973 -2.42231,2.580805 0.603665,7.471493 4.7112307,7.527016 z"
     id="path555"
     style="stroke-width:0.0734851" />
  <path
     fill="#ffffff"
     stroke="none"
     d="m -9.0983532,81.404434 c 0.2888724,-0.557455 1.3695041,-1.334278 2.4287548,-1.695949 1.425172,-0.394854 2.244765,-0.144507 3.3768144,1.110521 1.2797085,1.418728 1.258321,1.833871 -0.051273,3.01514 -0.8184962,0.738293 -2.0467896,1.351413 -2.7732919,1.313985 -1.7643608,-0.0909 -3.6732295,-2.42656 -2.9810041,-3.743697 z"
     id="path557"
     style="stroke-width:0.0734851" />
  <rect
     style="fill:#f9f9f9;stroke-width:0.361926"
     id="rect559"
     width="1.3951354"
     height="24.858772"
     x="-67.279747"
     y="-70.025475"
     transform="rotate(-132.05082)" />
  <rect
     style="fill:#f9f9f9;stroke-width:0.361926"
     id="rect561"
     width="1.3951354"
     height="24.858772"
     x="-64.628365"
     y="-71.202141"
     transform="rotate(-132.05082)" />
  <rect
     style="fill:#f9f9f9;stroke-width:0.361926"
     id="rect563"
     width="1.3951354"
     height="24.858772"
     x="-61.817844"
     y="-71.329453"
     transform="rotate(-132.05082)" />
  <rect
     style="fill:#f9f9f9;stroke-width:0.361926"
     id="rect565"
     width="1.3951354"
     height="24.858772"
     x="-59.075802"
     y="-70.845276"
     transform="rotate(-132.05082)" />
  <rect
     style="fill:#f9f9f9;stroke-width:0.35442"
     id="rect567"
     width="1.3951354"
     height="23.838341"
     x="-56.179436"
     y="-71.86956"
     transform="rotate(-132.05082)" />
  <rect
     style="fill:#f9f9f9;stroke-width:0.293106"
     id="rect569"
     width="1.3951354"
     height="16.303818"
     x="-53.907581"
     y="-71.01992"
     transform="rotate(-132.05082)" />
  <rect
     style="fill:#f9f9f9;stroke-width:0.260773"
     id="rect571"
     width="1.3951354"
     height="12.905229"
     x="-51.590385"
     y="-70.957024"
     transform="rotate(-132.05082)" />
  <rect
     style="fill:#f9f9f9;stroke-width:0.322684"
     id="rect573"
     width="1.7263575"
     height="15.969086"
     x="-49.131485"
     y="-69.905945"
     transform="rotate(-132.05082)" />
  <rect
     style="fill:#f9f9f9;stroke-width:0.163693"
     id="rect575"
     width="1.3951354"
     height="5.0851412"
     x="-53.802929"
     y="-53.115879"
     transform="rotate(-132.05082)" />
  <rect
     style="fill:#f9f9f9;stroke-width:0.163693"
     id="rect577"
     width="1.3951354"
     height="5.0851412"
     x="-65.325401"
     y="40.214031"
     transform="rotate(-45.861044)" />
  <rect
     style="fill:#f9f9f9;stroke-width:0.163693"
     id="rect579"
     width="1.3951354"
     height="5.0851412"
     x="-63.601044"
     y="61.681652"
     transform="rotate(-45.861044)"
     inkscape:transform-center-x="-27.000757"
     inkscape:transform-center-y="-4.2316328" />
  <rect
     style="fill:#f9f9f9;stroke-width:0.163693"
     id="rect618"
     width="1.3951354"
     height="5.0851412"
     x="-62.386333"
     y="40.388695"
     transform="rotate(-45.861044)"
     inkscape:transform-center-x="-27.000757"
     inkscape:transform-center-y="-4.2316328" />
  <rect
     style="fill:#f9f9f9;stroke-width:0.163693"
     id="rect620"
     width="1.3951354"
     height="5.0851412"
     x="-70.096909"
     y="42.844738"
     transform="rotate(-45.861044)"
     inkscape:transform-center-x="-27.000757"
     inkscape:transform-center-y="-4.2316328" />
  <rect
     style="fill:#f9f9f9;stroke-width:0.163693"
     id="rect622"
     width="1.3951354"
     height="5.0851412"
     x="-54.24028"
     y="51.909798"
     transform="rotate(-45.861044)"
     inkscape:transform-center-x="-27.000757"
     inkscape:transform-center-y="-4.2316328" />
  <rect
     style="fill:#f9f9f9;stroke-width:0.163693"
     id="rect624"
     width="1.3951354"
     height="5.0851412"
     x="-58.130543"
     y="59.805813"
     transform="rotate(-45.861044)"
     inkscape:transform-center-x="-27.000757"
     inkscape:transform-center-y="-4.2316328" />
  <rect
     style="fill:#f9f9f9;stroke-width:0.163693"
     id="rect626"
     width="1.3951354"
     height="5.0851412"
     x="-67.897209"
     y="57.391724"
     transform="rotate(-45.861044)"
     inkscape:transform-center-x="-27.000757"
     inkscape:transform-center-y="-4.2316328" />
  <rect
     style="fill:#f9f9f9;stroke-width:0.163693"
     id="rect628"
     width="1.3951354"
     height="5.0851412"
     x="-62.871315"
     y="54.450981"
     transform="rotate(-45.861044)"
     inkscape:transform-center-x="-27.000757"
     inkscape:transform-center-y="-4.2316328" />
  <rect
     style="fill:#f9f9f9;stroke-width:0.163693"
     id="rect630"
     width="1.3951354"
     height="5.0851412"
     x="-64.26606"
     y="46.000362"
     transform="rotate(-45.861044)"
     inkscape:transform-center-x="-27.000757"
     inkscape:transform-center-y="-4.2316328" />
  <rect
     style="fill:#f9f9f9;stroke-width:0.141007"
     id="rect632"
     width="1.2017839"
     height="4.3803926"
     x="-72.159225"
     y="54.317375"
     transform="rotate(-45.861044)"
     inkscape:transform-center-x="-23.258732"
     inkscape:transform-center-y="-3.6451732" />
  <rect
     style="fill:#f9f9f9;stroke-width:0.141007"
     id="rect634"
     width="1.2017839"
     height="4.3803926"
     x="-60.473892"
     y="60.60569"
     transform="rotate(-45.861044)"
     inkscape:transform-center-x="-23.258732"
     inkscape:transform-center-y="-3.6451732" />
  <rect
     style="fill:#f9f9f9;stroke-width:0.141007"
     id="rect636"
     width="1.2017839"
     height="4.3803926"
     x="-67.937515"
     y="49.376179"
     transform="rotate(-45.861044)"
     inkscape:transform-center-x="-23.258732"
     inkscape:transform-center-y="-3.6451732" />
  <rect
     style="fill:#f9f9f9;stroke-width:0.141007"
     id="rect638"
     width="1.2017839"
     height="4.3803926"
     x="-66.502075"
     y="53.01133"
     transform="rotate(-45.861044)"
     inkscape:transform-center-x="-23.258732"
     inkscape:transform-center-y="-3.6451732" />
  <rect
     style="fill:#f9f9f9;stroke-width:0.165658"
     id="rect640"
     width="1.4118847"
     height="5.1461906"
     x="-59.239624"
     y="52.165287"
     transform="rotate(-45.861044)"
     inkscape:transform-center-x="-27.324918"
     inkscape:transform-center-y="-4.2824366" />
  <rect
     style="fill:#f9f9f9;stroke-width:0.0973736"
     id="rect642"
     width="0.82990414"
     height="3.0249248"
     x="-55.402824"
     y="57.612541"
     transform="rotate(-45.861044)"
     inkscape:transform-center-x="-16.061555"
     inkscape:transform-center-y="-2.5172123" />
  <rect
     style="fill:#f9f9f9;stroke-width:0.0973736"
     id="rect644"
     width="0.82990414"
     height="3.0249248"
     x="-61.525913"
     y="48.608322"
     transform="rotate(-45.861044)"
     inkscape:transform-center-x="-16.061555"
     inkscape:transform-center-y="-2.5172123" />
  <rect
     style="fill:#f9f9f9;stroke-width:0.0973736"
     id="rect646"
     width="0.82990414"
     height="3.0249248"
     x="-60.069527"
     y="49.140362"
     transform="rotate(-45.861044)"
     inkscape:transform-center-x="-16.061555"
     inkscape:transform-center-y="-2.5172123" />
  <rect
     style="fill:#f9f9f9;stroke-width:0.0973736"
     id="rect648"
     width="0.82990414"
     height="3.0249248"
     x="-54.349976"
     y="49.994305"
     transform="rotate(-45.861044)"
     inkscape:transform-center-x="-16.061555"
     inkscape:transform-center-y="-2.5172123" />
  <path
     style="fill:none;stroke:#000000;stroke-width:0.75px;stroke-linecap:butt;stroke-linejoin:miter;stroke-opacity:1"
     d="M -51.992833,76.550012 -88.9792,58.007429"
     id="path650" />
</svg>
