<?xml version="1.0" standalone="no"?>
<!DOCTYPE svg PUBLIC "-//W3C//DTD SVG 20010904//EN"
 "http://www.w3.org/TR/2001/REC-SVG-20010904/DTD/svg10.dtd">
<svg version="1.0" xmlns="http://www.w3.org/2000/svg"
 width="102.880567pt" height="179.498924pt" viewBox="0 0 102.880567 179.498924"
 preserveAspectRatio="xMidYMid meet">
<metadata>
Created by potrace 1.16, written by Peter Selinger 2001-2019
</metadata>
<g transform="translate(-9.600348,188.341295) scale(0.100000,-0.100000)"
fill="#000000" stroke="none">
<path fill="#000000" stroke="none" d="M785 1852 c-40 -25 -51 -40 -59 -84
-10 -53 16 -111 59 -131 32 -15 35 -20 35 -62 l0 -45 -53 0 c-32 0 -61 -6 -75
-16 -12 -8 -56 -64 -98 -124 -41 -60 -79 -112 -83 -114 -4 -3 -36 22 -70 55
-61 58 -63 61 -51 89 7 17 13 52 13 80 1 62 -24 100 -79 118 -77 26 -158 -8
-193 -80 -40 -83 -21 -157 49 -193 38 -20 124 -20 140 0 7 8 18 15 24 15 7 0
43 -32 82 -70 38 -39 75 -69 81 -68 7 2 50 55 96 118 45 63 87 115 92 115 12
0 104 -377 107 -440 1 -27 -8 -115 -20 -195 -16 -104 -24 -211 -28 -380 -6
-225 -10 -255 -36 -291 -6 -9 -8 -25 -4 -35 7 -17 10 -16 35 14 l28 33 7 232
c6 219 26 438 46 503 5 18 9 22 9 10 2 -45 78 -327 132 -486 81 -242 102 -294
122 -298 18 -4 24 26 8 44 -12 13 -85 211 -121 329 -34 111 -80 292 -110 429
-19 87 -19 90 -1 155 10 36 36 127 56 201 20 74 40 141 44 148 10 18 72 -355
77 -461 4 -107 10 -119 42 -99 10 7 10 33 -3 138 -9 71 -20 145 -25 164 -5 19
-21 102 -35 183 -14 82 -30 157 -36 168 -9 18 -19 20 -72 17 l-62 -3 -3 45
c-2 43 -1 46 36 63 60 27 78 89 47 163 -10 23 -26 39 -49 49 -46 19 -65 19
-101 -3z"/>
<path fill="#ffffff" stroke="none" d="M893 1798 c17 -21 23 -83 9 -105 -26
-40 -110 -32 -131 13 -21 47 -14 82 22 104 37 24 73 19 100 -12z"/>
<path fill="#ffffff" stroke="none" d="M352 1560 c18 -22 24 -82 12 -114 -3
-9 -15 -16 -26 -16 -15 0 -18 -5 -13 -20 14 -43 -103 -59 -149 -21 -8 7 -19
25 -26 42 -17 41 10 113 54 140 42 27 122 21 148 -11z"/>
<path fill="#ffffff" stroke="none" d="M950 1495 c0 -2 -20 -73 -45 -157 -24
-84 -49 -177 -56 -207 -14 -65 -18 -59 -49 74 -13 55 -33 141 -45 190 l-22 90
56 6 c76 8 161 10 161 4z"/>
<path fill="#000000" stroke="none" d="M211 1536 c-53 -56 -32 -146 33 -146
55 0 93 55 86 125 -4 48 -81 62 -119 21z"/>
<path fill="#ffffff" stroke="none" d="M297 1504 c3 -8 1 -26 -5 -40 -9 -18
-19 -24 -42 -24 -26 0 -30 4 -30 28 0 15 5 33 12 40 17 17 58 15 65 -4z"/>
</g>
</svg>
