<?xml version="1.0" standalone="no"?>
<!DOCTYPE svg PUBLIC "-//W3C//DTD SVG 20010904//EN"
 "http://www.w3.org/TR/2001/REC-SVG-20010904/DTD/svg10.dtd">
<svg version="1.0" xmlns="http://www.w3.org/2000/svg"
 width="87.975750pt" height="190.734430pt" viewBox="0 0 87.975750 190.734430"
 preserveAspectRatio="xMidYMid meet">
<metadata>
Created by potrace 1.16, written by Peter Selinger 2001-2019
</metadata>
<g transform="translate(-22.283483,194.294430) scale(0.100000,-0.100000)"
fill="#000000" stroke="none">
<path fill="#000000" stroke="none" d="M506 1914 c-9 -8 -16 -20 -16 -25 0 -5
-10 -9 -23 -9 -44 0 -60 -45 -38 -103 8 -20 5 -29 -15 -48 -19 -18 -24 -31
-20 -51 5 -25 -1 -32 -57 -69 -93 -63 -108 -78 -96 -100 8 -16 23 -19 97 -20
109 -1 248 -12 257 -21 6 -5 86 -343 101 -424 3 -17 -3 -68 -14 -115 -57 -230
-90 -385 -102 -474 -7 -44 -21 -118 -32 -165 -10 -47 -21 -102 -23 -123 -3
-21 -13 -50 -25 -64 -11 -14 -17 -29 -14 -34 10 -16 32 -9 48 16 15 23 25 70
77 355 10 58 25 132 34 165 8 33 24 105 36 160 25 116 39 140 39 70 1 -115 31
-305 83 -523 55 -230 66 -262 93 -262 18 0 18 14 0 48 -7 15 -28 92 -46 172
-17 80 -40 177 -51 217 -20 75 -49 342 -49 446 0 44 13 101 49 216 28 86 58
185 69 220 22 73 21 74 58 -69 14 -52 45 -160 69 -240 24 -80 45 -163 47 -185
2 -28 8 -41 21 -43 22 -4 33 23 19 51 -9 20 -30 95 -117 412 -59 218 -51 202
-103 209 -24 3 -58 6 -73 6 -26 0 -29 3 -29 33 0 28 5 34 40 49 78 33 88 140
19 202 -27 24 -37 27 -69 22 -33 -5 -38 -4 -33 12 2 10 -5 29 -15 42 -19 23
-22 24 -56 12 -35 -13 -38 -12 -72 17 -40 35 -47 37 -68 15z"/>
<path fill="#ffffff" stroke="none" d="M557 1863 c4 -11 -4 -26 -25 -45 -41
-36 -72 -37 -72 -4 0 21 5 24 27 23 20 -1 31 4 38 21 12 26 23 28 32 5z"/>
<path fill="#ffffff" stroke="none" d="M665 1793 c-22 -40 -104 -107 -153
-124 -26 -9 -35 -8 -56 8 -35 25 -32 30 12 30 21 0 51 7 67 16 38 20 105 85
105 102 0 17 22 25 35 14 6 -6 2 -23 -10 -46z"/>
<path fill="#ffffff" stroke="none" d="M551 1780 c-24 -22 -51 -40 -60 -40 -9
1 0 9 19 19 19 11 44 28 54 40 11 12 22 21 25 21 3 -1 -14 -19 -38 -40z"/>
<path fill="#ffffff" stroke="none" d="M808 1744 c29 -33 28 -69 -3 -99 -39
-40 -106 -29 -125 20 -20 52 35 122 85 109 11 -3 30 -17 43 -30z"/>
<path fill="#ffffff" stroke="none" d="M638 1673 c3 -36 28 -72 58 -83 13 -5
24 -15 24 -22 0 -7 3 -23 6 -35 6 -22 4 -23 -67 -22 -41 0 -137 6 -214 12
l-140 12 56 43 c42 32 65 42 93 42 35 0 148 49 161 70 11 18 21 11 23 -17z"/>
<path fill="#ffffff" stroke="none" d="M853 1463 c5 -8 -10 -61 -74 -265 -22
-71 -43 -128 -47 -128 -4 0 -18 48 -30 108 -12 59 -28 136 -37 172 -8 36 -18
77 -21 93 l-6 27 105 0 c58 0 108 -3 110 -7z"/>
</g>
</svg>
