<?xml version="1.0" standalone="no"?>
<!DOCTYPE svg PUBLIC "-//W3C//DTD SVG 20010904//EN"
 "http://www.w3.org/TR/2001/REC-SVG-20010904/DTD/svg10.dtd">
<svg version="1.0" xmlns="http://www.w3.org/2000/svg"
 width="64.919602pt" height="186.424160pt" viewBox="0 0 64.919602 186.424160"
 preserveAspectRatio="xMidYMid meet">
<metadata>
Created by potrace 1.16, written by Peter Selinger 2001-2019
</metadata>
<g transform="translate(-29.379911,190.984160) scale(0.100000,-0.100000)"
fill="#000000" stroke="none">
<path fill="#000000" stroke="none" d="M606 1880 c-8 -8 -17 -30 -21 -47 -3
-18 -13 -33 -20 -33 -8 0 -26 -10 -41 -23 -34 -29 -26 -63 19 -82 23 -10 34
-23 42 -51 8 -29 20 -44 48 -59 31 -17 37 -25 37 -52 0 -30 -2 -32 -47 -38
-27 -4 -97 -15 -158 -24 -60 -10 -111 -14 -113 -10 -2 5 10 65 27 134 36 148
38 176 11 200 -17 16 -20 16 -26 2 -3 -8 0 -25 6 -37 12 -22 5 -57 -46 -252
-12 -48 -19 -90 -14 -93 4 -2 56 4 116 15 65 12 112 16 117 11 5 -5 15 -33 22
-63 8 -29 34 -119 59 -200 25 -81 46 -158 46 -172 0 -14 -13 -84 -30 -156 -34
-152 -52 -277 -65 -445 -12 -168 -27 -260 -46 -287 -22 -32 -25 -58 -6 -58 42
0 68 89 82 280 9 129 41 365 64 475 21 101 23 98 42 -55 16 -141 46 -306 85
-480 34 -150 53 -200 75 -200 13 0 12 8 -29 150 -37 126 -52 209 -92 487 -35
248 -36 289 -11 386 10 39 31 124 46 187 26 109 45 158 45 114 0 -11 13 -71
30 -134 27 -103 30 -131 30 -268 0 -141 1 -153 18 -150 15 3 17 19 20 142 2
130 0 148 -33 285 -20 80 -41 164 -48 186 l-12 40 -63 -3 c-57 -4 -62 -2 -62
16 0 11 -3 27 -6 36 -4 11 -1 16 11 16 26 0 73 54 80 93 5 23 14 39 26 42 21
7 35 46 25 70 -3 9 -22 23 -41 31 -22 9 -35 21 -35 32 0 41 -25 57 -90 57 -43
1 -65 -4 -74 -15z"/>
<path fill="#ffffff" stroke="none" d="M740 1824 c0 -14 -66 -26 -97 -18 -24
7 -27 13 -17 38 4 11 13 14 29 10 13 -3 32 -1 42 5 14 8 21 6 31 -6 6 -9 12
-22 12 -29z"/>
<path fill="#ffffff" stroke="none" d="M750 1770 c0 -17 -90 -27 -124 -14 -32
12 -14 19 54 20 39 1 70 -2 70 -6z"/>
<path fill="#ffffff" stroke="none" d="M635 1721 c40 -9 40 -9 7 -10 -18 -1
-49 6 -69 14 -30 13 -33 17 -23 30 11 13 14 12 29 -5 9 -11 34 -24 56 -29z"/>
<path fill="#ffffff" stroke="none" d="M814 1762 c9 -15 -10 -32 -44 -37 -30
-5 -31 -4 -12 4 12 6 25 17 28 26 7 16 20 20 28 7z"/>
<path fill="#ffffff" stroke="none" d="M746 1635 c-11 -17 -26 -25 -46 -25
-37 0 -80 19 -80 37 0 7 0 16 0 21 0 4 30 9 67 12 76 6 86 -3 59 -45z"/>
<path fill="#ffffff" stroke="none" d="M790 1457 c0 -7 -6 -36 -14 -63 -8 -27
-26 -103 -41 -169 -15 -66 -31 -126 -35 -134 -7 -13 -29 50 -84 240 -39 136
-45 123 59 130 50 3 96 6 103 7 6 1 12 -4 12 -11z"/>
</g>
</svg>
