<?xml version="1.0" encoding="UTF-8" standalone="no"?>
<svg
   xmlns:dc="http://purl.org/dc/elements/1.1/"
   xmlns:cc="http://creativecommons.org/ns#"
   xmlns:rdf="http://www.w3.org/1999/02/22-rdf-syntax-ns#"
   xmlns:svg="http://www.w3.org/2000/svg"
   xmlns="http://www.w3.org/2000/svg"
   xmlns:sodipodi="http://sodipodi.sourceforge.net/DTD/sodipodi-0.dtd"
   xmlns:inkscape="http://www.inkscape.org/namespaces/inkscape"
   version="1.0"
   width="71.432755pt"
   height="186.52441pt"
   viewBox="0 0 71.432754 186.52441"
   preserveAspectRatio="xMidYMid meet"
   id="svg52"
   sodipodi:docname="bk-040-part.svg"
   inkscape:version="1.0.2 (e86c870879, 2021-01-15)">
  <defs
     id="defs56" />
  <sodipodi:namedview
     pagecolor="#ffffff"
     bordercolor="#666666"
     borderopacity="1"
     objecttolerance="10"
     gridtolerance="10"
     guidetolerance="10"
     inkscape:pageopacity="0"
     inkscape:pageshadow="2"
     inkscape:window-width="1600"
     inkscape:window-height="836"
     id="namedview54"
     showgrid="false"
     inkscape:zoom="0.85970773"
     inkscape:cx="80.64788"
     inkscape:cy="57.964667"
     inkscape:window-x="0"
     inkscape:window-y="0"
     inkscape:window-maximized="1"
     inkscape:current-layer="svg52"
     fit-margin-top="0"
     fit-margin-left="0"
     fit-margin-right="0"
     fit-margin-bottom="0" />
  <metadata
     id="metadata2">
Created by potrace 1.16, written by Peter Selinger 2001-2019
<rdf:RDF>
  <cc:Work
     rdf:about="">
    <dc:format>image/svg+xml</dc:format>
    <dc:type
       rdf:resource="http://purl.org/dc/dcmitype/StillImage" />
    <dc:title></dc:title>
  </cc:Work>
</rdf:RDF>
</metadata>
  <g
     id="g399"
     transform="translate(20.194036,-1.4188509)">
    <path
       fill="#000000"
       stroke="none"
       d="m 16.220075,2.5951 c -0.6,0.7 -1.4,2.9 -1.9,4.8 -0.7,2.7 -1.5,3.6 -3.5,3.8 -6.7,0.8 -7.6,7.5 -1.5,10.7 2.4,1.2 4.4,3.2 5.3,5.3 0.7,1.8 2.7,4 4.4,5 2.5,1.4 3,2.3 3,5.4 v 3.8 h -6.9 c -4.3,0 -7.2,0.5 -7.8,1.2 -1.2,1.5 -6.0084527,14.661441 -7.60845267,27.561441 C 2.0200756,70.6951 0.89672582,75.800913 8.020075,52.9951 c 0.7,-1.8 0.9,-1.5 1.5,1.9 0.4,2.2 1.6,7.1 2.6,11 1,3.8 3.1,11.9 4.7,18 l 2.8,11 -1.7,18 c -1,9.9 -2.3,29 -2.9,42.5 -0.8,18.9 -1.5,25.2 -2.7,27.8 -2.1,4.3 -0.5,6.4 2.5,3.2 1.7,-1.9 2.1,-4 2.6,-17.3 0.8,-18.7 1.5,-29.4 2.1,-32.7 0.2,-1.4 0.7,-7.3 1,-13.1 0.4,-5.9 1,-12.9 1.3,-15.5 l 0.7,-4.9 2.4,10.5 c 4.5,20.6 19.8,67.1 23,70.3 3,3.1 4.5,1.1 2.2,-2.7 -4,-6.4 -16,-43.7 -21.7,-67.1 l -3.6,-15 1.7,-9 c 3.1,-17 7.7,-38 8.4,-38.8 0.4,-0.4 1.5,4.3 2.4,10.5 1,6.2 2.4,14.9 3.2,19.3 0.8,4.3 1.6,12.7 1.8,18.5 0.3,8.7 0.6,10.5 1.9,10.8 0.9,0.2 1.9,-0.1 2.2,-0.6 0.6,-1 -2.9,-32.6 -4.3,-38.7 -0.5,-2.2 -1.4,-8.3 -2.1,-13.5 -0.6,-5.2 -1.3,-11 -1.6,-12.8 l -0.5,-3.2 h -6.4 -6.5 v -3.8 c 0,-3.6 0.2,-4 3.9,-5 3.8,-1.2 7.1,-4.7 7.1,-7.5 0,-0.7 1.7,-2.5 3.8,-3.8 6.1,-3.9 5.2,-8.3 -2,-9.8 -2.5,-0.5 -3.4,-1.3 -4,-3.7 -0.4,-1.7 -1.7,-3.9 -2.8,-4.9 -1.7,-1.5 -2.3,-1.6 -5,-0.5 -2.3,1 -3.4,1 -4.3,0.1 -1.5,-1.5 -4.2,-1.4 -5.5,0.1 z"
       id="path4"
       style="stroke-width:0.1"
       sodipodi:nodetypes="ccccccscscccccccccccccccccccccccccscsccccccscscccccsc" />
    <path
       fill="#ffffff"
       stroke="none"
       d="m 20.520075,6.3951 c 0.9,1.4 4.8,1.2 6.4,-0.3 1,-1 1.5,-0.8 2.7,0.7 0.8,1.1 1.4,2.3 1.4,2.8 0,0.4 -3.1,0.8 -6.9,0.8 -6.7,0 -6.8,0 -6.3,-2.5 0.5,-2.6 1.6,-3.2 2.7,-1.5 z"
       id="path6"
       style="stroke-width:0.1" />
    <path
       fill="#ffffff"
       stroke="none"
       d="m 24.720075,14.7951 c 0.3,0.3 -1.2,0.6 -3.5,0.6 -2.3,0 -4.2,-0.4 -4.2,-1 0,-1 6.6,-0.7 7.7,0.4 z"
       id="path8"
       style="stroke-width:0.1" />
    <path
       fill="#ffffff"
       stroke="none"
       d="m 31.520075,14.3951 c -0.3,0.5 -1.5,1 -2.6,1 -1,0 -1.9,-0.5 -1.9,-1 0,-0.6 1.2,-1 2.6,-1 1.4,0 2.3,0.4 1.9,1 z"
       id="path10"
       style="stroke-width:0.1" />
    <path
       fill="#ffffff"
       stroke="none"
       d="m 13.820075,16.3951 c 1.1,1.8 2.3,2 10,2 6.2,0 9.4,-0.4 10.8,-1.5 2.1,-1.6 5.4,-2 5.4,-0.6 0,4.4 -20.7,6.5 -28.7,2.8 -2.3,-1 -3,-2.7 -1.6,-4 1.2,-1.3 2.8,-0.7 4.1,1.3 z"
       id="path12"
       style="stroke-width:0.1" />
    <path
       fill="#ffffff"
       stroke="none"
       d="m 32.020075,26.3951 c -2.3,4.3 -9.6,5.4 -13,2 -1.1,-1.1 -2,-2.4 -2,-3 0,-0.8 13.5,-1.9 15.3,-1.2 0.4,0.2 0.2,1.2 -0.3,2.2 z"
       id="path14"
       style="stroke-width:0.1" />
    <path
       fill="#ffffff"
       stroke="none"
       d="m 33.020075,45.2951 c 0,0.3 -0.9,3.4 -2,6.8 -1,3.4 -2.8,11.2 -4,17.5 -4.2,22.6 -4.1,22.6 -5.2,19.8 -1.4,-3.6 -9.5,-35.7 -10.3,-40.7 l -0.7,-4.3 11.1,0.2 c 6.1,0.1 11.1,0.4 11.1,0.7 z"
       id="path16"
       style="stroke-width:0.1" />
    <g
       id="g77"
       transform="rotate(-134.17591,-34.475507,54.66002)"
       inkscape:transform-center-x="10.195961"
       inkscape:transform-center-y="-1.0877067">
      <path
         fill="#000000"
         stroke="none"
         d="m -70.802106,66.822859 c -2.093979,-2.055251 -0.672404,-0.901039 -4.072404,-4.201039 -6.1,-5.8 -6.3,-6.1 -5.1,-8.9 0.7,-1.7 1.3,-5.2 1.3,-8 0.1,-6.2 -2.4,-10 -7.9,-11.8 -7.7,-2.6 -15.8,0.8 -19.3,8 -4,8.3 -2.1,15.7 4.9,19.3 3.8,2 12.4,2 14,0 0.7,-0.8 1.8,-1.5 2.4,-1.5 0.7,0 4.3,3.2 8.2,7 3.8,3.9 4.933005,5.123362 5.533005,5.023362 3.383995,1.72724 3.133275,-2.40574 0.0394,-4.922323 z"
         id="path69"
         sodipodi:nodetypes="ccccccccsccc"
         style="stroke-width:0.1" />
      <path
         fill="#ffffff"
         stroke="none"
         d="m -83.77451,39.72182 c 1.8,2.2 2.4,8.2 1.2,11.4 -0.3,0.9 -0.898814,1.885297 -1.614038,2.721033 -1.789014,2.090453 -1.789014,2.090453 -1.789014,2.090453 -0.766652,3.922352 -10.796948,4.688514 -15.396948,0.888514 -0.8,-0.7 -1.9,-2.5 -2.6,-4.2 -1.7,-4.1 1,-11.3 5.4,-14 4.2,-2.7 12.2,-2.1 14.8,1.1 z"
         id="path71"
         style="stroke-width:0.1"
         sodipodi:nodetypes="ccsccccc" />
      <path
         fill="#000000"
         stroke="none"
         d="m -97.87451,42.12182 c -5.3,5.6 -3.2,14.6 3.3,14.6 5.5,0 9.3,-5.5 8.6,-12.5 -0.4,-4.8 -8.1,-6.2 -11.9,-2.1 z"
         id="path73"
         style="stroke-width:0.1" />
      <path
         fill="#ffffff"
         stroke="none"
         d="m -89.27451,45.32182 c 0.3,0.8 0.1,2.6 -0.5,4 -0.9,1.8 -1.9,2.4 -4.2,2.4 -2.6,0 -3,-0.4 -3,-2.8 0,-1.5 0.5,-3.3 1.2,-4 1.7,-1.7 5.8,-1.5 6.5,0.4 z"
         id="path75"
         style="stroke-width:0.1" />
    </g>
    <rect
       id="rect336"
       width="1.8225706"
       height="37.041374"
       x="94.965767"
       y="-17.915298"
       style="fill:#f9f9f9;stroke-width:0.605475"
       transform="matrix(0.01795239,0.99983884,-0.99999523,0.00309011,0,0)" />
    <rect
       id="rect324"
       width="3.504848"
       height="29.555061"
       x="-11.560938"
       y="87.224213"
       style="fill:#f9f9f9;stroke-width:0.75" />
    <rect
       id="rect326"
       width="3.504848"
       height="32.437382"
       x="-6.0307722"
       y="85.163582"
       style="fill:#f9f9f9;stroke-width:0.785721" />
    <rect
       id="rect328"
       width="3.504848"
       height="29.555061"
       x="4.3801565"
       y="86.351913"
       style="fill:#f9f9f9;stroke-width:0.75" />
    <rect
       id="rect330"
       width="3.504848"
       height="29.555061"
       x="10.277193"
       y="86.197693"
       style="fill:#f9f9f9;stroke-width:0.75" />
    <rect
       id="rect332"
       width="3.5049036"
       height="37.041851"
       x="98.585457"
       y="-17.081562"
       style="fill:#f9f9f9;stroke-width:0.839644"
       transform="matrix(0.00933535,0.99995642,-0.99998234,0.00594308,0,0)" />
    <rect
       id="rect334"
       width="3.5049036"
       height="37.041851"
       x="105.7159"
       y="-17.072828"
       style="fill:#f9f9f9;stroke-width:0.839644"
       transform="matrix(0.00933535,0.99995642,-0.99998234,0.00594308,0,0)" />
    <rect
       id="rect338"
       width="1.8225706"
       height="37.041374"
       x="111.54764"
       y="-14.844686"
       style="fill:#f9f9f9;stroke-width:0.605475"
       transform="matrix(0.01795239,0.99983884,-0.99999523,0.00309011,0,0)" />
    <rect
       id="rect356"
       width="1.8219026"
       height="5.9891496"
       x="4.410584"
       y="-118.09785"
       style="fill:#f9f9f9;stroke-width:0.24342"
       transform="matrix(-0.99987275,0.0159524,-0.05435507,-0.99852167,0,0)" />
  </g>
</svg>
