<?xml version="1.0" standalone="no"?>
<!DOCTYPE svg PUBLIC "-//W3C//DTD SVG 20010904//EN"
 "http://www.w3.org/TR/2001/REC-SVG-20010904/DTD/svg10.dtd">
<svg version="1.0" xmlns="http://www.w3.org/2000/svg"
 width="174.973508pt" height="179.838822pt" viewBox="0 0 174.973508 179.838822"
 preserveAspectRatio="xMidYMid meet">
<metadata>
Created by potrace 1.16, written by Peter Selinger 2001-2019
</metadata>
<g transform="translate(-2.714449,186.331588) scale(0.100000,-0.100000)"
fill="#000000" stroke="none">
<path fill="#000000" stroke="none" d="M512 1835 c-67 -29 -79 -130 -21 -179
24 -21 28 -30 23 -53 -10 -42 -10 -43 -70 -26 -47 14 -57 14 -69 2 -7 -8 -27
-81 -44 -164 -18 -82 -34 -160 -36 -171 -7 -31 -116 -195 -156 -233 l-34 -33
30 7 c41 9 50 18 115 115 69 104 66 97 100 250 30 136 32 136 50 -5 6 -44 14
-100 19 -125 5 -25 14 -79 21 -120 l12 -75 -46 -107 c-25 -59 -46 -109 -46
-112 0 -19 -101 -237 -150 -326 -32 -58 -75 -139 -94 -181 -20 -42 -46 -83
-58 -91 -14 -10 -19 -20 -15 -32 14 -36 55 12 111 128 29 61 74 147 100 191
27 44 58 107 71 140 41 108 128 316 130 313 11 -11 18 -247 16 -485 -2 -249 0
-285 15 -307 17 -27 44 -35 44 -13 0 7 -7 23 -16 36 -15 20 -16 52 -12 265 3
132 1 316 -4 408 l-10 167 32 88 c18 48 55 150 82 225 l51 137 86 -78 c47 -43
137 -119 200 -170 63 -51 123 -103 133 -117 24 -30 42 -31 33 -3 -4 12 -3 20
1 17 5 -2 21 -10 36 -18 16 -7 31 -11 34 -8 10 11 -21 49 -43 53 -13 3 -34 7
-47 10 -30 6 -211 154 -364 297 -63 59 -113 88 -151 88 -27 0 -33 13 -25 55 4
26 11 35 26 35 32 0 78 29 88 56 6 14 10 43 10 64 0 31 -6 44 -35 69 -39 34
-71 38 -123 16z"/>
<path fill="#ffffff" stroke="none" d="M613 1793 c15 -17 22 -49 19 -85 -1
-10 -16 -25 -32 -33 -75 -39 -143 44 -94 113 19 28 83 31 107 5z"/>
<path fill="#ffffff" stroke="none" d="M544 1514 c66 -21 71 -25 69 -49 -1
-15 -15 -59 -31 -99 -16 -39 -44 -115 -63 -168 -18 -54 -37 -94 -41 -90 -12
12 -68 360 -68 424 0 21 23 18 134 -18z"/>
<path fill="#000000" stroke="none" d="M1217 1085 c-9 -8 -21 -31 -27 -50 -6
-19 -16 -32 -21 -29 -6 3 -58 5 -116 5 -100 -1 -107 -3 -125 -26 -11 -14 -55
-66 -99 -116 -70 -82 -79 -97 -80 -133 -4 -208 -3 -646 3 -651 24 -24 28 22
28 336 l0 329 66 0 65 0 -1 -107 c-3 -304 0 -393 13 -393 17 0 27 138 27 355
l0 141 300 3 300 3 1 -149 c0 -81 0 -192 -1 -245 -1 -83 1 -98 14 -98 19 0 19
12 18 298 l-1 192 70 0 70 0 -1 -302 c0 -167 -1 -313 0 -325 0 -14 6 -23 15
-23 13 0 15 22 15 138 1 75 3 231 7 346 l5 209 -115 113 -116 113 -63 0 c-34
-1 -70 -5 -79 -10 -15 -7 -18 -2 -24 31 -8 50 -29 69 -56 52 -14 -9 -25 -9
-39 -2 -25 14 -36 13 -53 -5z"/>
<path fill="#ffffff" stroke="none" d="M1268 1048 c10 -10 17 -10 33 0 24 16
25 15 34 -20 6 -23 3 -27 -23 -33 -27 -5 -102 2 -102 10 0 2 4 15 10 29 10 28
29 33 48 14z"/>
<path fill="#ffffff" stroke="none" d="M1120 962 c-18 -15 -22 -25 -16 -46 10
-40 57 -56 164 -56 106 0 140 6 171 29 20 16 22 21 11 40 -6 13 -26 29 -43 36
-31 14 -29 14 44 15 l75 0 92 -91 c51 -51 92 -96 92 -100 0 -5 -202 -9 -451
-9 -278 1 -449 4 -447 10 2 5 37 50 78 99 l75 90 89 0 c87 1 88 1 66 -17z"/>
<path fill="#ffffff" stroke="none" d="M1350 959 c0 -12 -137 -12 -144 0 -3 5
28 9 69 8 41 0 75 -4 75 -8z"/>
<path fill="#ffffff" stroke="none" d="M1186 935 c36 -18 166 -20 194 -3 15
10 22 10 32 0 11 -11 9 -16 -7 -28 -30 -23 -237 -16 -262 9 -16 15 -16 19 -3
27 19 12 13 13 46 -5z"/>
</g>
</svg>
